1;1;{"id": "1", "word": "Багряный", "definition": "Это такой тёмно-красный или ярко-красный цвет. Багряного цвета листья на деревьях осенью. Если услышишь «багряный лес», это означает, что в этом лесу много деревьев с ярко-красными и тёмно-красными листьями."}
2;2;{"id": "2", "word": "Кубарем", "definition": "Так говорят, когда кто-то очень быстро катится. Например: «Волк кубарем скатился с горы». То есть, он скатился очень быстро, кувыркаясь."}
3;3;{"id": "3", "word": "Пароход", "definition": "Это большой корабль без парусов. Он плывёт не от ветра, а от пара. У него есть специальное колесо, которое крутится из-за горячего пара. Когда говорят: «По реке идёт теплоход», значит по реке плывёт такой большой корабль."}
4;4;{"id": "4", "word": "Забавный", "definition": "Так говорят про то, что может рассмешить, позабавить. Например, «забавный котёнок». Это значит, когда смотришь на этого котёнка, становится весело и смешно."}
5;5;{"id": "5", "word": "Шорох", "definition": "Представлять себе что-то, что очень хочешь, но сейчас у тебя этого нет. Например, «Я мечтаю стать космонавтом» – значит, человек очень хочет быть космонавтом, но сейчас он ещё не космонавт."}
6;6;{"id": "6", "word": "Самовар", "definition": "Самовар делает то же самое, что и чайник – кипятит воду. Но выглядит по другому. Он сделан из металла, и похож на шар. У него есть ручки по бокам, чтобы носить его. Ножки, на которых он стоит. А внутри него – труба. Внутри трубы горят дрова, и от этого вода нагревается. А ещё есть краник, чтобы налить воду в чашку. Если говорят: «Мы пили чай из самовара», значит, нагревали воду не в чайнике, а в самоваре."}
7;7;{"id": "7", "word": "Хижина", "definition": "Это небольшой скромный или бедный домик, избушка. Например: «Старик со старухой жили в хижине». Это значит, что они жили в маленьком небогатом доме."}
8;8;{"id": "8", "word": "Шатёр", "definition": "Это такая большая палатка с верхушкой, покрытая тканями. По форме она напоминает праздничный колпак. Например: «шатёр Шамаханской царицы» – это такая палатка, покрытая красивыми тканями и коврами, в которой находится Шамаханская царица."}
9;9;{"id": "9", "word": "Секрет", "definition": "То, что нельзя рассказывать. Если говорят: «Я тебе скажу по секрету», значит, об этом нельзя будет никому рассказывать."}
10;10;{"id": "10", "word": "Румянец", "definition": "Румянец появляется на щеках и на лице, когда они краснеют. Краснеют они, потому что к ним приливает кровь. Например, от мороза или когда человек смущается. Когда говорят: «Мы пришли с мороза румяные», это означает, что наши щёки были красные."}
11;11;{"id": "11", "word": "Вопить", "definition": "Это означает громко и протяжно кричать, или плакать, или петь, издавать вопли. Например, от боли или от возмущения. Если услышишь: «Король завопил во во всё горло» означает, что король очень сильно закричал."}
12;12;{"id": "12", "word": "Будить", "definition": "Когда кто-то спит, а его заставляют проснуться, значит, его будят. Например, «Меня разбудил собачий лай» – это значит, что человек спал и проснулся от того, что лаяла собака."}
13;13;{"id": "13", "word": "Шероховатый", "definition": "Если ты проведёшь рукой по какой-то вещи, и она будет не гладкая, а с неровностями, бугорками – значит, она шероховатая. Например, кора дерева. Ты можешь услышать: «шероховатая бумага» – это значит, что на ощупь она не гладкая, а пальцы чувствуют неровности, шероховатости."}
14;14;{"id": "14", "word": "Мечтать", "definition": "Представлять себе что-то, что очень хочешь. Например, «Я мечтаю стать космонавтом» – значит, человек очень хочет быть космонавтом, но сейчас он ещё не космонавт."}
15;15;{"id": "15", "word": "Холм", "definition": "Это маленькая гора, возвышенность с округлой вершиной. Например, «Избушка Бабы-Яги стояла на холме» – это значит, что избушка была на таком возвышении. И, чтобы попасть в неё, нужно было подняться."}
16;16;{"id": "16", "word": "Бубнить", "definition": "Это означает говорить что-то невнятно. Например: «Старик бубнил себе под нос» – то есть он говорил неразборчиво, никому было непонятно, что он говорит."}
17;17;{"id": "17", "word": "Клумба", "definition": "Кусочек земли в форме, например, круга, овала или квадрата, где посадили цветы. Обычно клумба чуть выше остальной земли вокруг неё. Например: «В парке была большая круглая клумба с розами» – то есть в парке был такой приподнятый кусочек земли, где посадили розы."}
18;18;{"id": "18", "word": "Коромысло", "definition": "С помощью коромысла носят воду в вёдрах или какие-нибудь грузы. Это выгнутая деревяшка с двумя концами, на каждом конце – крючок. На крючки вешают вёдра с водой, а само коромысло вешают на плечи. Если услышишь: «Несла Марья коромысло на плечах», то это значит, что на плечах у Марьи была такая деревяшка с двумя вёдрами."}
19;19;{"id": "19", "word": "Комод", "definition": "Это такая мебель с ящиками, которые выдвигаются. Он ниже, чем шкаф. Обычно в нём хранят одежду, постельное бельё. Например: «Котёнок забрался в ящик комода и запутался в пододеяльнике». То есть котёнок залез внутрь такого ящика, где лежало бельё, и там запутался в нём."}
20;20;{"id": "20", "word": "Закладка", "definition": "Маленькая плоская вещь, которую кладут в книгу на том месте, где остановились читать. И в следующий раз не придётся искать. Закладка может быть, например, из бумаги, из картона, из ткани. Бывают ещё магнитные и деревянные. Например, говорят: «Завтра продолжим читать сказку. Давай положим закладку». Это значит, что книжка ещё не закончилась. Чтобы завтра не искать, где остановились, на это место решили положить какой-то предмет – закладку."}
21;21;{"id": "21", "word": "Грохот", "definition": "Очень сильный, громкий шум, с раскатами. Например, когда упало что-то большое – камни в горах или вся посуда с полок. Говорят: «Раздался страшный грохот» – значит, начался сильный громкий шум."}
22;22;{"id": "22", "word": "Тарарам", "definition": "Это шумное, беспорядочное веселье ил просто много шума и беспорядка. Например, говорят: «Что за тарарам вы тут устроили?» Это означает: «Почему вы так шумите и что за беспорядок вы тут навели?»"}
23;23;{"id": "23", "word": "Сбитень", "definition": "Горячий напиток, который варят из душистых трав и подслащивают, например, мёдом, патокой или сахаром. Когда на Руси появился чай, сбитень стали реже готовить. Например: «Ходили на масленицу гулять и попробовали вкусный сбитень» – то есть кто-то попробовал такой согревающий напиток, когда ходил гулять на праздник Масленицы, проводов зимы."}
24;24;{"id": "24", "word": "Аплодисменты", "definition": "Это когда хлопают в ладоши, например, певцам или актёрам – тем, кто выступает. Обычно зрители хлопают перед началом выступления – чтобы поприветствовать, и после выступления – это значит, что оно понравилось. Например: «Зал взорвался аплодисментами» – это значит, тем, кто пришёл, например, в театр на выступление, оно очень понравилось и они много и сильно хлопали."}
25;25;{"id": "25", "word": "Антенна", "definition": "Это такая штука, такое устройство, чтобы передавать или получать сигнал. Антенна есть, например, у телевизора – она получает сигнал и по проводам передаёт его на экран. Ты можешь увидеть их на крышах и балконах в виде тарелок. Когда говорят, что нужно настроить антенну, это значит, что сейчас она не ловит сигнал и телевизор не показывает. Поэтому нужно пошевелить провода, чтобы сигнал можно было поймать."}
26;26;{"id": "26", "word": "Ковылять", "definition": "Это означает идти, хромая или медленно, с трудом передвигая ноги. Например, «По дороге ковыляла собака». То есть собака шла медленно, прихрамывая, ей было сложно идти."}
27;27;{"id": "27", "word": "Блокнот", "definition": "Маленькая тетрадка или книжечка с чистыми листами. Туда можно записывать что-то важное, или рисовать что-нибудь, или наклеивать – наполнять его, чем захочется. Если говорят: «Я запишу это в блокнот» – значит, человек хочет написать в такой книжке что-то важное, чтобы не потерять и не забыть."}
28;28;{"id": "28", "word": "Сердечно", "definition": "Так говорят, когда кто-то что-то делает с любовью и теплом. Например: «Я тебя сердечно поздравляю!» Это означает, что поздравляют от всего сердца, с любовью, от всей души."}
29;29;{"id": "29", "word": "Масленица", "definition": "Это старинный праздник, когда провожают зиму и встречают весну. Он длится целую неделю, 7 дней. Во время масленицы пекут блины, ходят в гости и устраивают всякие гуляния с играми на улице. Когда говорят: «Наступила масленица» – это значит, что начался этот праздник проводов зимы."}
30;30;{"id": "30", "word": "Бултыхаться", "definition": "Так говорят, когда кто-то или что-то с шумом плескается в воде. Например: «Нам было весело, и мы бултыхались в озере». То есть мы барахтались и плескались в этом озере."}
31;31;{"id": "31", "word": "Авоська", "definition": "Это такая сумка из сетки или из ткани, которую удобно брать с собой на всякий случай (авось понадобится) – вдруг нужно будет что-то положить. Авось – это старое слово, означает «а вдруг» или «может быть». Можно сказать: «У нас в авоське лежала дыня». То есть дыня была в такой сумке."}
32;32;{"id": "32", "word": "Путешествие", "definition": "Если сказать: «Мы отправились в путешествие» – это значит, что мы уехали куда-то далеко от дома, например, в другой город или другую страну, чтобы отдохнуть или узнать что-то новое. Обычно путешествие длится дольше одного дня. Говорят: «Кругосветное путешествие» – то есть путешествие вокруг планеты, по разным странам."}
33;33;{"id": "33", "word": "Кулебяка", "definition": "Это такой пирог с мясом, рыбой или грибами, в котором не видно начинки. По форме он длинный, узкий и высокий – похож на батон. Он так называется из-за слова кулебячить, то есть валять руками, мять, гнуть, сгибать, складывать, лепить тесто. Например: «Егор увидел на прилавке булочной кулебяку с грибами». Это значит, что Егор был в булочной, где продают булки и пироги. И в этой булочной он увидел такой длинный и высокий пирог с грибами."}
34;34;{"id": "34", "word": "Дружелюбный", "definition": "Так говорят про доброжелательного человека, который относится к другим тепло и по-дружески. Например: «Таня очень дружелюбная». Это значит, что Таня относится к людям по-доброму, не старается затеять ссору, что она доброжелательная."}
35;35;{"id": "35", "word": "Рыдать", "definition": "Очень сильно и громко плакать, когда сильно расстроишься. Например: «Сестрица Алёнушка рыдала, когда братец Иванушка превратился в козлёнка». Это значит, она очень сильно расстроилась и сильно плакала из-за того, что с её братом такое случилось."}
36;36;{"id": "36", "word": "Гербарий", "definition": "Засушенные растения, например, листья и цветы или растение целиком, которые собрали, чтобы изучить. Растения засушивают, прикрепляют к бумаге, например, вклеивают в альбом, и подписывают название. Говорят: «Я собираю гербарий» – это означает, что человек собирает всякие травы, листья, цветы, чтобы их засушить, сделать такой альбом и знать, как они называются."}
37;37;{"id": "37", "word": "Музей", "definition": "Это такое место, где живут старые или особенные вещи. У каждой вещи своя история. Чтобы сохранить и рассказать историю, вещи и помещают в музей на специальные места. Музеи бывают самые разные. Можно сказать: «В музее мы видели старинный чайник». Значит, мы ходили в это место со старинными вещами, и там был чайник, из которого раньше пили чай, а он сохранился и теперь стоит в музее. А мы можем узнать, как жили люди раньше."}
38;38;{"id": "38", "word": "Зáмок", "definition": "Большой старинный дом-крепость с башнями и крепкой стеной. Вокруг него часто бывает ров с водой. Всё это нужно было, чтобы защитить дом от врагов. Например: «На горе стоял королевский замок» – то есть вот этот большой дом с крепкими стенами и башнями, где жила королевская семья находился на горе."}
39;39;{"id": "39", "word": "Шапито", "definition": "Большая палатка, в которой выступают циркачи. Когда выступления закончились, циркачи собирают палатку и едут дальше – показывать свои представления другим людям. Когда говорят: «К нам приехал цирк-шапито», значит, приехали циркачи с такой палаткой. И выступления будут в этой палатке, а не в специальном здании."}
40;40;{"id": "40", "word": "Яростно", "definition": "Когда человек очень сильно разозлён и разгневан, он делает всё яростно. Например: «Николай яростно стучал в дверь» – то есть Николай очень злился и сильно, с гневом стучал в дверь."}
41;41;{"id": "41", "word": "Приключение", "definition": "Так говорят, когда случилось что-то интересное, захватывающее, какой-то неожиданный случай. Например: «В деревне с нами произошло настоящее приключение!» Значит, когда мы ездили в деревню, с нами произошёл какой-то интересный случай."}
42;42;{"id": "42", "word": "Поход", "definition": "Это когда несколько человек, например, семья, идут на природу – в лес или в горы. Часто берут с собой палатки и еду, разводят костёр, ночуют на природе, много гуляют, ходят, узнают что-то о животных и растениях, об их жизни. Например: «На выходных мы пойдём в поход» – это значит, что в конце недели мы отправимся на природу, чтобы там провести время, погулять, посмотреть, как там всё устроено, как живут зверушки, как растут растения и, скорее всего, будем там ночевать в палатках."}
43;43;{"id": "43", "word": "Сусек", "definition": "Это такой большой неподвижный ящик в специальном помещении – амбаре, где хранят зерно, муку или овощи. Его можно увидеть в деревне или прочитать про него в сказке. Например: «Старушка по амбару помела, по сусекам поскребла – и наскребла муки на колобок». Это значит, что старушка пошла в это помещение, где хранят муку, зерно и овощи, там осталось совсем мало, и она искала муку в этих ящиках."}
44;44;{"id": "44", "word": "Палитра", "definition": "Это дощечка, на которой смешивают краски. Бывает и пластмассовая палитра. Ты можешь услышать: «Краски на палитре засохли» – это означает, что кто-то рисовал, смешивал краски на этой дощечке. А потом оставил их, долго не рисовал – и они засохли."}
45;45;{"id": "45", "word": "Задремать", "definition": "Начать засыпать, впасть в лёгкий, неглубокий сон. Например: «Старушка задремала на кресле». То есть старушка сидела на кресле и начала немного спать, но не сильно – она слышала, что происходит вокруг."}
46;46;{"id": "46", "word": "Смекнуть", "definition": "Догадаться, сообразить. Например: «Тут Иван смекнул, что царь его обманывает» – то есть Иван догадался, понял, что царь его обманывает."}
47;47;{"id": "47", "word": "Скупой", "definition": "Так говорят про человека, который не хочет тратить ничего своего, очень сильно хочет всё сберечь, выглядит жадным. Например: «Мельник был очень скупым человеком – одежду занашивал до дыр, хотя мог купить новую». Это значит, что мельник не хотел лишний раз тратить денег, которые у него были, всё время экономил, не тратил даже на новую одежду, ходил в старой, пока она не начинала рваться."}
48;48;{"id": "48", "word": "Сторожка", "definition": "Домик для сторожа. Например: «Вчера мы гуляли и наткнулись на лесную сторожку». То есть во время прогулки по лесу мы увидели такой небольшой домик, который построили специально для сторожа, чтобы он там жил, пока сторожит лес."}
49;49;{"id": "49", "word": "Горланить", "definition": "Громко говорить, кричать, петь диким голосом, во всё горло. Например: «Ребята так обрадовались победе, что стали горланить песни на всю улицу». Это означает, что ребята были так сильно рады, что победили, что от радости стали громко петь, так, что их слышали все люди на улице."}
50;50;{"id": "50", "word": "Булькать", "definition": "Когда воду наливают из бутылки в стакан, она булькает. Когда суп кипит в кастрюле, он тоже булькает. То есть жидкость, например, вода или суп, издаёт такие звуки «буль-буль» и на ней появляются пузыри, которые лопаются – и говорят, что она булькает. Например: «В котле у ведьмы булькало зелье» – значит, ведьма варила зелье в котле, оно у неё закипело, на нём появились пузыри, и оно начало издавать звуки «буль-буль» – булькать."}
51;51;{"id": "51", "word": "Почва", "definition": "Это верхний слой земли, на котором могут вырасти и растут растения. Говорят: «В этих местах плодородная почва». Это значит, что в этих местах на земле растения хорошо растут и дают много плодов."}
52;52;{"id": "52", "word": "Каравай", "definition": "Это такой большой круглый праздничный хлеб с украшениями из теста, например, колосками, цветами, листьями. Если услышишь: «Гостей встретили караваем» – это означает, что специально для гостей испекли такой праздничный украшенный хлеб. А когда гости приехали, им вынесли этот каравай, чтобы они угостились и увидели, как их ждали и как для них постарались."}
53;53;{"id": "53", "word": "Хоровод", "definition": "Это такая игра, когда люди идут по кругу, танцуют и поют, берутся за руки, играют, показывают представление. Например, «На празднике мы всегда водим хоровод» – это значит, когда мы что-то празднуем, мы становимся в круг и танцуем этот танец с играми под какую-нибудь песню."}
54;54;{"id": "54", "word": "Театр", "definition": "Это такое место, где показывают представления, например, сказку. Представление показывают на сцене, а рядом со сценой сидят те, кто его смотрит – зрители. Например: «Вчера в театре мы смотрели сказку про Снежную Королеву. Нам так понравилось, что мы решили устроить свой маленький театр дома». То есть вчера мы ходили в специальное место, где мы сидели рядом со сценой, а нам показывали сказку. Сказка нам очень понравилась, поэтому мы решили сделать у себя дома маленькое представление, смастерить сцену и позвать зрителей."}
55;55;{"id": "55", "word": "Капель", "definition": "Когда весной становится тепло, лёд и снег начинают таять, превращаются в воду. Она капает с деревьев и крыш – это и есть капель. Например: «Пришла весна, и по всему городу зазвенела капель» – то есть стало тепло, снег и лёт начали таять и капать вниз, от этого получался такой звенящий звук."}
56;56;{"id": "56", "word": "Каморка", "definition": "Маленькая тесная комната. Например, «Папа Карло жил в каморке под лестницей». Это значит, что он жил в маленькой тесной комнате, которая была под лестницей."}
57;57;{"id": "57", "word": "Елозить", "definition": "Когда кто-то сидит или лежит и в это время ползает и вертится туда-сюда, говорят, что он елозит. Например: «Маленькая Маша то и дело елозила по полу». Это значит, что Маша часто ползала по полу в разные стороны, быстро перемещаясь."}
58;58;{"id": "58", "word": "Озеро", "definition": "Это такой водоём – то есть место на природе, где скопилась вода. В озере вода не течёт, как в реке, а стоит. Озеро похоже на пруд, но пруд сделали люди, а озеро само получилось в природе: образовалась яма и наполнилась водой. Озеро может быть небольшое – тогда с одного берега можно увидеть другой. А может быть очень большое, размером с город или небольшую страну."}
59;59;{"id": "59", "word": "Печать", "definition": "Это такая вещь, на которой вырезаны картинки, буквы с цифрами или другие знаки. Если её обмакнуть в краску и прислонить, например, к бумаге, то она оставит след в виде того, что на ней вырезано. Например: «Король поставил под письмом свою печать в виде орла». Это значит, что у короля был такой специальный предмет, на нём был вырезан орёл. Король обмакнул эту печать с орлом в краску и прислонил к бумаге, на которой было написано письмо – на ней остался след в виде орла. Это значит, что король согласился с тем, что написано в письме, раз он оставил там свой знак."}
60;60;{"id": "60", "word": "Взъерошить", "definition": "Это значит поднять вверх волосы, перья или шерсть. Например: «Ветер взъерошил мне волосы» – значит, на улице дул ветер и он поднял и разлохматил мои волосы, и они теперь торчат по-разному вверх."}
