0; солнце, солнышко; {"word": "the sun", "translation": ["солнце", "солнышко"], "phrase": {"original": ["The sun rises in the east"], "translation": ["Солнце встает на востоке"]}}
1; трава, травка, травы, травушка; {"word": "the grass", "translation": ["трава"], "phrase": {"original": ["The rabbit eats grass"], "translation": ["Кролик ест траву"]}}
2; небо, небушко, небосвод; {"word": "the sky", "translation": ["небо", "небушко"], "phrase": {"original": ["The plane flies in the sky"], "translation": ["Самолет летит по небу"]}}
3; мама, мамочка, мамуля, мать, матушка, мамик; {"word": "a mother", "translation": ["мама", "мамочка", "мамуля", "мать"], "phrase": {"original": ["She is a mother of three small children"], "translation": ["Она - мама трех маленьких детей."]}}
4; машина, автомобиль, авто, машинка; {"word": "a car", "translation": ["машина", "автомобиль"], "phrase": {"original": ["A car has four wheels"], "translation": ["У машины есть четыре колеса"]}}
5; дом, домик, домище, домашний; {"word": "home", "translation": ["дом", "домик"], "phrase": {"original": ["The child came home after school"], "translation": ["Ребенок пришел домой после школы"]}}
6; улыбка, улыбаться; {"word": "a smile", "translation": ["улыбка", "улыбаться"], "phrase": {"original": ["Smile cheers people up"], "translation": ["Улыбка радует людей"]}}
7; голова, башка, бошка; {"word": "a head", "translation": ["голова"], "phrase": {"original": ["He shook his head"], "translation": ["Он покачал головой"]}}
8; глаза, глазки; {"word": "eyes", "translation": ["глаза", "глазки"], "phrase": {"original": ["He has blue eyes and red hair"], "translation": ["У него голубые глаза и рыжие волосы"]}}
9; имя, имечко, кличка, название; {"word": "a name", "translation": ["имя"], "phrase": {"original": ["My cat's name is Sam"], "translation": ["Имя моего кота - Сэм"]}}
10; звать, звонить, позвонить; {"word": "to call", "translation": ["звать", "звонить", "позвонить"], "phrase": {"original": ["Bob called his mom"], "translation": ["Боб позвонил маме"]}}
11; гулять, прогуливаться, ходить; {"word": "to walk", "translation": ["гулять", "прогуливаться", "ходить"], "phrase": {"original": ["Alice likes to walk in the park"], "translation": ["Алиса любит гулять по парку"]}}
12; спать; {"word": "to sleep", "translation": ["спать"], "phrase": {"original": ["Owls don't sleep at night"], "translation": ["Совы ночью не спят"]}}
13; кушать, жрать, есть, хавать; {"word": "to eat", "translation": ["есть", "кушать"], "phrase": {"original": ["I eat porridge"], "translation": ["Я ем кашу"]}}
14; чай, чаек, чаечек; {"word": "tea", "translation": ["чай"], "phrase": {"original": ["The British people like to drink tea"], "translation": ["Англичане любят пить чай"]}}
15; яблоко, яблочко, яблочный; {"word": "an apple", "translation": ["яблоко", "яблочко"], "phrase": {"original": ["An apple a day keeps a doctor away"], "translation": ["По яблоку в день – и доктор не нужен"]}}
16; кошка, кот, котик, котейка, котеечка, котька, котя, кошара; {"word": "a cat", "translation": ["кошка", "кот", "котик"], "phrase": {"original": ["The cat likes to eat fish"], "translation": ["Кот любит есть рыбу"]}}
17; собака, собачка, собакан, собачечка, собакен, пес, песик; {"word": "a dog", "translation": ["собака", "пес"], "phrase": {"original": ["A dog barks at the cat"], "translation": ["Собака лает на кота"]}}
18; мышь, мышка, крыса; {"word": "a mouse", "translation": ["мышь", "мышка"], "phrase": {"original": ["A cat hunts the mouse"], "translation": ["Кошка охотится за мышью"]}}
19; птица, птичка, пичуга; {"word": "a bird", "translation": ["птица", "птичка"], "phrase": {"original": ["I see a bird on the roof"], "translation": ["Я вижу птицу на крыше"]}}
20; зеленый, зелененький; {"word": "green", "translation": ["зеленый", "зелененький"], "phrase": {"original": ["The grass is green"], "translation": ["Трава зеленая"]}}
21; красный, красненький; {"word": "red", "translation": ["красный", "красненький"], "phrase": {"original": ["His face turns red when he gets angry"], "translation": ["Его лицо становится красным, когда он злится"]}}
22; синий , синенький, голубой; {"word": "blue", "translation": ["синий ", "голубой"], "phrase": {"original": ["Usually he wears a pair of blue jeans"], "translation": ["Обычно он носит синие джинсы"]}}
23; черный, черненький, чернущий, темный, чернь, чернота, чернеть; {"word": "black", "translation": ["черный"], "phrase": {"original": ["A lonely star shone out against the black sky"], "translation": ["Одинокая звезда ярко светила в чёрном небе"]}}
24; белый, беленький; {"word": "white", "translation": ["белый"], "phrase": {"original": ["Snow is white"], "translation": ["Снег белого цвета"]}}
25; дождь, дождик, дождичек; {"word": "the rain", "translation": ["дождь", "дождик"], "phrase": {"original": ["The weathermen forecast rain for tomorrow"], "translation": ["Синоптики обещают на завтра дождь"]}}
26; снег, снежок; {"word": "snow", "translation": ["снег", "снежок"], "phrase": {"original": ["There is a lot of snow in the winter"], "translation": ["Зимой много снега"]}}
27; зима, зимушка; {"word": "winter", "translation": ["зима"], "phrase": {"original": ["There is winter after autumn"], "translation": ["После осени идет зима"]}}
28; весна, весень; {"word": "spring", "translation": ["весна"], "phrase": {"original": ["Snow melts in the spring"], "translation": ["Весной тает снег"]}}
29; лето; {"word": "summer", "translation": ["лето"], "phrase": {"original": ["Summer is the warmest season"], "translation": ["Лето - самое теплое время года"]}}
30; танцевать, танцы, танцульки; {"word": "to dance", "translation": ["танцевать"], "phrase": {"original": ["Alice likes dancing to the music"], "translation": ["Алиса любит танцевать под музыку"]}}
31; читать; {"word": "to read", "translation": ["читать"], "phrase": {"original": ["To become smart you have to read books"], "translation": ["Чтобы стать умным, надо читать книги"]}}
32; книга, книжечка, книжулька, книженция; {"word": "a book", "translation": ["книга"], "phrase": {"original": ["The library has many dictionaries and other books"], "translation": ["В библиотеке много словарей и других книг"]}}
33; мультфильм, мульт, мультик; {"word": "a cartoon", "translation": ["мультфильм", "мультик"], "phrase": {"original": ["The kids enjoy watching cartoons"], "translation": ["Дети любят смотреть мультики"]}}
34; смотреть, выглядеть, глядеть, рассматривать, казаться, осматривать; {"word": "to look", "translation": ["смотреть", "выглядеть", "глядеть", "рассматривать", "казаться", "осматривать"], "phrase": {"original": ["Alice is watching a movie about animals\r\n"], "translation": ["Алиса смотрит фильм про животных"]}}
35; обувь, ботинки; {"word": "shoes", "translation": ["обувь", "ботинки"], "phrase": {"original": ["He took off his shoes and socks"], "translation": ["Он снял обувь и носки"]}}
36; одежда, одежка, платье, постельное белье; {"word": "clothes", "translation": ["одежда", "одежка"], "phrase": {"original": ["Clothes with a floral pattern are in fashion this season"], "translation": ["Вещи с цветочным принтом в моде в этом сезоне"]}}
37; зубы, зубки; {"word": "teeth", "translation": ["зубы", "зубки"], "phrase": {"original": ["Dentists advise brushing your teeth two times a day"], "translation": ["Стоматологи советуют чистить зубы два раза в день"]}}
38; чистить, убирать, вычищать, очищать; {"word": "to clean", "translation": ["чистить", "убирать", "вычищать", "очищать"], "phrase": {"original": ["On Saturdays I usually clean my apartment"], "translation": ["По субботам я обычно убираю свою квартиру"]}}
39; самолет, самолетик; {"word": "a plane", "translation": ["самолет"], "phrase": {"original": ["I am afraid of flying aboard a plane"], "translation": ["Я боюсь летать на борту самолета"]}}
40; поезд; {"word": "a train", "translation": ["поезд"], "phrase": {"original": ["I love travelling by train, because it is comfortable and safe"], "translation": ["Я люблю путешествовать на поезде, потому что это комфортно и безопасно"]}}
41; играть; {"word": "to play", "translation": ["играть"], "phrase": {"original": ["I like playing with my dog"], "translation": ["Я люблю играть со своей собакой"]}}
42; волосы, волос; {"word": "hair", "translation": ["волосы", "волос"], "phrase": {"original": ["The hair on her head is blond"], "translation": ["Волосы у нее на голове светлого цвета"]}}
43; зеркало, зеркальце; {"word": "a mirror", "translation": ["зеркало", "зеркальце"], "phrase": {"original": ["Girls like to look in the mirror"], "translation": ["Девочки любят смотреться в зеркало"]}}
44; колесо, колесико; {"word": "a wheel", "translation": ["колесо", "колесико"], "phrase": {"original": ["A car has four wheels"], "translation": ["У машины четыре колеса"]}}
45; радость, удовольствие, веселье, утеха, веселить, веселиться, радовать; {"word": "joy", "translation": ["радость"], "phrase": {"original": ["Their sorrow turned to joy"], "translation": ["Их печаль превратилась в радость"]}}
46; шоколад, шоколадка; {"word": "chocolate", "translation": ["шоколад", "шоколадка"], "phrase": {"original": ["She gave me a box of chocolates for my birthday"], "translation": ["На день рождения она подарила мне коробку шоколадных конфет"]}}
47; картошка, картоха, картофель; {"word": "potato", "translation": ["картошка", "картоха", "картофель"], "phrase": {"original": ["I like eating potatoes"], "translation": ["Я очень люблю кушать картошку"]}}
48; он; {"word": "he", "translation": ["он"], "phrase": {"original": ["He proposed to his girlfriend"], "translation": ["Он сделал предложение своей девушке"]}}
49; ты, вы; {"word": "you", "translation": ["ты", "вы"], "phrase": {"original": ["I am glad to see you again"], "translation": ["Я рад видеть вас снова"]}}