1;шоколад, горячий шоколад,какао,какава;{"title":"какао","attribute":"Chocolate drink"}
2;кофе,кофий,кофеек;{"title":"кофе","attribute":"Cafeine drink"}
3;чай,чаек;{"title":"чай","attribute":"Cafeine drink"}
4;вода,водичка,бонаква,акваминерале,минералка;{"title":"вода","attribute":"Water"}
5;ряженка;{"title":"ряженка","attribute":"Dairy drink"}
6;сок,нектар;{"title":"сок","attribute":"Sweet drink"}
7;смузи;{"title":"смузи","attribute":"Sweet drink"}
8;лимонад;{"title":"лимонад","attribute":"Sweet drink"}
9;кола, кока-кола, кока кола, кокакола, пепсикола, пепси-кола, пепси кола, пепси,Coca-Cola;{"title":"кола","attribute":"Sweet drink"}
10;фанта, спрайт, байкал;{"title":"лимонад","attribute":"Sweet drink"}
11;молоко;{"title":"молого","attribute":"Dairy drink"}
12;йогурт;{"title":"йогурт","attribute":"Dairy drink"}
13;растишка;{"title":"растишка","attribute":"Dairy drink"}
14;молочный коктейль;{"title":"молочный коктейль","attribute":"Dairy drink"}
15;морс;{"title":"морс","attribute":"Sweet drink"}
16;алкогольный, алкоголь, алкогольные, бухло, алкашка, крепкие напитки;{"title":"алкоголь","attribute":"Alcohol drink"}
17;вино, винишко, винцо;{"title":"вино","attribute":"Alcohol drink"}
18;виски, вискарь, вискарек;{"title":"виски","attribute":"Alcohol drink"}
19;мартини, вермут;{"title":"мартини","attribute":"Alcohol drink"}
20;водка, водяра, водочка;{"title":"водка","attribute":"Alcohol drink"}
21;мартини, вермут;{"title":"мартини","attribute":"Alcohol drink"}
22;пиво, пивко, пивасик;{"title":"пиво","attribute":"Alcohol drink"}
23;сидр;{"title":"сидр","attribute":"Alcohol drink"}