1;Андрей;{"name":"Андрей","full":"Андрей","diminutive":"Андрюша","sex":"м"}
2;Сергей;{"name":"Сергей","full":"Сергей","diminutive":"Серёженька","sex":"м"}
3;Дима;{"name":"Дима","full":"Дмитрий","diminutive":"Димочка","sex":"м"}
4;Дмитрий;{"name":"Дмитрий","full":"Дмитрий","diminutive":"Димочка","sex":"м"}
5;Максим;{"name":"Максим","full":"Максим","diminutive":"Максимушка","sex":"м"}
6;Алексей;{"name":"Алексей","full":"Алексей","diminutive":"Алёша","sex":"м"}
7;Юра;{"name":"Юра","full":"Юрий","diminutive":"Юрочка","sex":"м"}
8;Денис;{"name":"Денис","full":"Денис","diminutive":"Денисочка","sex":"м"}
9;Александр;{"name":"Александр","full":"Александр","diminutive":"Сашенька","sex":"м"}
10;Олег;{"name":"Олег","full":"Олег","diminutive":"Олежек","sex":"м"}
11;Руслан;{"name":"Руслан","full":"Руслан","diminutive":"Русланчик","sex":"м"}
12;Артем;{"name":"Артём","full":"Артём","diminutive":"Артёмушка","sex":"м"}
13;Никита;{"name":"Никита","full":"Никита","diminutive":"Никиточка","sex":"м"}
14;Влад;{"name":"Влад","full":"Владислав","diminutive":"Владик","sex":"м"}
15;Миша;{"name":"Миша","full":"Михаил","diminutive":"Мишенька","sex":"м"}
16;Мишка;{"name":"Мишка","full":"Михаил","diminutive":"Мишенька","sex":"м"}
17;Вова;{"name":"Вова","full":"Владимир","diminutive":"Вовочка","sex":"м"}
18;Игорь;{"name":"Игорь","full":"Игорь","diminutive":"Игорёк","sex":"м"}
19;Рома;{"name":"Рома","full":"Роман","diminutive":"Ромочка","sex":"м"}
20;Роман;{"name":"Роман","full":"Роман","diminutive":"Ромочка","sex":"м"}
21;Владимир;{"name":"Владимир","full":"Владимир","diminutive":"Володенька","sex":"м"}
22;Николай;{"name":"Николай","full":"Николай","diminutive":"Коленька","sex":"м"}
23;Коля;{"name":"Коля","full":"Николай","diminutive":"Коленька","sex":"м"}
24;Антон;{"name":"Антон","full":"Антон","diminutive":"Антоша","sex":"м"}
25;Евгений;{"name":"Евгений","full":"Евгений","diminutive":"Женечка","sex":"м"}
26;Михаил;{"name":"Михаил","full":"Михаил","diminutive":"Мишенька","sex":"м"}
27;Илья;{"name":"Илья","full":"Илья","diminutive":"Илюша","sex":"м"}
28;Сережа;{"name":"Серёжа","full":"Сергей","diminutive":"Серёженька","sex":"м"}
29;Сережка;{"name":"Серёжка","full":"Сергей","diminutive":"Серёженька","sex":"м"}
30;Виталя;{"name":"Виталя","full":"Виталий","diminutive":"Виталенька","sex":"м"}
31;Кирилл;{"name":"Кирилл","full":"Кирилл","diminutive":"Кирюша","sex":"м"}
32;Вася;{"name":"Вася","full":"Василий","diminutive":"Васенька","sex":"м"}
33;Анатолий;{"name":"Анатолий","full":"Анатолий","diminutive":"Толик","sex":"м"}
34;Артур;{"name":"Артур","full":"Артур","diminutive":"Артурчик","sex":"м"}
35;Алекс;{"name":"Алекс","full":"Алексей","diminutive":"Алёша","sex":"м"}
36;Вадим;{"name":"Вадим","full":"Вадим","diminutive":"Ваденька","sex":"м"}
37;Ваня;{"name":"Ваня","full":"Иван","diminutive":"Ванечка","sex":"м"}
38;Равшан;{"name":"Равшан","full":"Равшан","diminutive":"Равшанчик","sex":"м"}
39;Виктор;{"name":"Виктор","full":"Виктор","diminutive":"Витенька","sex":"м"}
40;Амир;{"name":"Амир","full":"Амир","diminutive":"Амирчик","sex":"м"}
41;Паша;{"name":"Паша","full":"Павел","diminutive":"Пашенька","sex":"м"}
42;Матвей;{"name":"Матвей","full":"Матвей","diminutive":"Матфеюшка","sex":"м"}
43;Павел;{"name":"Павел","full":"Павел","diminutive":"Пашенька","sex":"м"}
44;Толик;{"name":"Толик","full":"Анатолий","diminutive":"Толик","sex":"м"}
45;Гена;{"name":"Гена","full":"Геннадий","diminutive":"Геночка","sex":"м"}
46;Мурат;{"name":"Мурат","full":"Мурат","diminutive":"Муратик","sex":"м"}
47;Юрий;{"name":"Юрий","full":"Юрий","diminutive":"Юрочка","sex":"м"}
48;Богдан;{"name":"Богдан","full":"Богдан","diminutive":"Богдаша","sex":"м"}
49;Володя;{"name":"Володя","full":"Владимир","diminutive":"Вовочка","sex":"м"}
50;Аслан;{"name":"Аслан","full":"Аслан","diminutive":"Асланчик","sex":"м"}
51;Иван;{"name":"Иван","full":"Иван","diminutive":"Ванечка","sex":"м"}
52;Аркадий;{"name":"Аркадий","full":"Аркадий","diminutive":"Кеша","sex":"м"}
53;Джонни;{"name":"Джонни","full":"","diminutive":"","sex":"м"}
54;Егор;{"name":"Егор","full":"Егор","diminutive":"Егорушка","sex":"м"}
55;Карэн;{"name":"Карэн","full":"","diminutive":"Каренушка","sex":"м"}
56;Макс;{"name":"Макс","full":"Максим","diminutive":"Максимушка","sex":"м"}
57;Валерий;{"name":"Валерий","full":"Валерий","diminutive":"Валерик","sex":"м"}
58;Костя;{"name":"Костя","full":"Константин","diminutive":"Костик","sex":"м"}
59;Эдуард;{"name":"Эдуард","full":"Эдуард","diminutive":"Эдичка","sex":"м"}
60;Дамир;{"name":"Дамир","full":"","diminutive":"Дамирчик","sex":"м"}
61;Гоша;{"name":"Гоша","full":"Георгий","diminutive":"Гошенька","sex":"м"}
62;Георгий;{"name":"Георгий","full":"Георгий","diminutive":"Гошенька","sex":"м"}
63;Андрюша;{"name":"Андрюша","full":"Андрей","diminutive":"Андрюша","sex":"м"}
64;Стас;{"name":"Стас","full":"Станислав","diminutive":"Стасик","sex":"м"}
65;Станислав;{"name":"Станислав","full":"Станислав","diminutive":"Стасик","sex":"м"}
66;Василий;{"name":"Василий","full":"Василий","diminutive":"Васенька","sex":"м"}
67;Джеймс;{"name":"Джеймс","full":"","diminutive":"","sex":"м"}
68;Лёша;{"name":"Лёша","full":"Алексей","diminutive":"Алёша","sex":"м"}
69;Даня;{"name":"Даня","full":"","diminutive":"Данечка","sex":"м"}
70;Данил;{"name":"Данил","full":"","diminutive":"Данечка","sex":"м"}
71;Данила;{"name":"Данила","full":"","diminutive":"Данечка","sex":"м"}
72;Даниил;{"name":"Даниил","full":"Даниил","diminutive":"Данечка","sex":"м"}
73;Ашот;{"name":"Ашот","full":"","diminutive":"Ашотик","sex":"м"}
74;Валентин;{"name":"Валентин","full":"Валентин","diminutive":"Валечка","sex":"м"}
75;Марк;{"name":"Марк","full":"Марк","diminutive":"Маркуша","sex":"м"}
76;Захар;{"name":"Захар","full":"Захар","diminutive":"Захарушка","sex":"м"}
77;Карим;{"name":"Карим","full":"Карим","diminutive":"","sex":"м"}
78;Антоха;{"name":"Антоха","full":"Антон","diminutive":"Антоша","sex":"м"}
79;Марик;{"name":"Марик","full":"","diminutive":"","sex":"м"}
80;Ринат;{"name":"Ринат","full":"Ринат","diminutive":"Ританик","sex":"м"}
81;Витёк;{"name":"Витёк","full":"Виктор","diminutive":"Витенька","sex":"м"}
82;Тёма;{"name":"Тёма","full":"Артём","diminutive":"Артёмушка","sex":"м"}
83;Колян;{"name":"Колян","full":"Николай","diminutive":"Коленька","sex":"м"}
84;Ильдар;{"name":"Ильдар","full":"","diminutive":"","sex":"м"}
85;Антонио;{"name":"Антонио","full":"","diminutive":"","sex":"м"}
86;Петя;{"name":"Петя","full":"Пётр","diminutive":"Петруша","sex":"м"}
87;Вячеслав;{"name":"Вячеслав","full":"Вячеслав","diminutive":"Славик","sex":"м"}
88;Ярослав;{"name":"Ярослав","full":"Ярослав","diminutive":"","sex":"м"}
89;Эльдар;{"name":"Эльдар","full":"Эльдар","diminutive":"","sex":"м"}
90;Рамис;{"name":"Рамис","full":"","diminutive":"","sex":"м"}
91;Фархад;{"name":"Фархад","full":"","diminutive":"","sex":"м"}
92;Давид;{"name":"Давид","full":"Давид","diminutive":"","sex":"м"}
93;Гриша;{"name":"Гриша","full":"Григорий","diminutive":"Гришенька","sex":"м"}
94;Владик;{"name":"Владик","full":"","diminutive":"","sex":"м"}
95;Владислав;{"name":"Владислав","full":"","diminutive":"","sex":"м"}
96;Алеша;{"name":"Алёша","full":"Алексей","diminutive":"Алёша","sex":"м"}
97;Леша;{"name":"Лёша","full":"Алексей","diminutive":"Алёша","sex":"м"}
98;Майк;{"name":"Майк","full":"","diminutive":"","sex":"м"}
99;Альберт;{"name":"Альберт","full":"","diminutive":"","sex":"м"}
100;Шурик;{"name":"Шурик","full":"","diminutive":"","sex":"м"}
101;Мирослав;{"name":"Мирослав","full":"Мирослав","diminutive":"","sex":"м"}
102;Витя;{"name":"Витя","full":"Виктор","diminutive":"Витенька","sex":"м"}
103;Арсений;{"name":"Арсений","full":"Арсений","diminutive":"","sex":"м"}
104;Борис;{"name":"Борис","full":"Борис","diminutive":"","sex":"м"}
105;Виталий;{"name":"Виталий","full":"Виталий","diminutive":"","sex":"м"}
106;Даниэль;{"name":"Даниэль","full":"Даниэль","diminutive":"","sex":"м"}
107;Степа;{"name":"Стёпа","full":"Степан","diminutive":"Стёпушка","sex":"м"}
108;Роберт;{"name":"Роберт","full":"Роберт","diminutive":"","sex":"м"}
109;Федя;{"name":"Федя","full":"Фёдор","diminutive":"Феденька","sex":"м"}
110;Тимур;{"name":"Тимур","full":"Тимур","diminutive":"","sex":"м"}
111;Санек;{"name":"Санёк","full":"Александр","diminutive":"Сашенька","sex":"м"}
112;Настя;{"name":"Настя","full":"Анастасия","diminutive":"Настенька","sex":"ж"}
113;Катя;{"name":"Катя","full":"Екатерина","diminutive":"Катюша","sex":"ж"}
114;Кать;{"name":"Катя","full":"Екатерина","diminutive":"Катюша","sex":"ж"}
115;Маша;{"name":"Маша","full":"Мария","diminutive":"Машуля","sex":"ж"}
116;Юля;{"name":"Юля","full":"Юлия","diminutive":"Юлечка","sex":"ж"}
117;Вика;{"name":"Вика","full":"Виктория","diminutive":"Викуся","sex":"ж"}
118;Даша;{"name":"Даша","full":"Дарья","diminutive":"Дашуля","sex":"ж"}
119;Оля;{"name":"Оля","full":"Ольга","diminutive":"Олечка","sex":"ж"}
120;Аня;{"name":"Аня","full":"Анна","diminutive":"Анечка","sex":"ж"}
121;Алина;{"name":"Алина","full":"Алина","diminutive":"Алиночка","sex":"ж"}
122;Лиза;{"name":"Лиза","full":"Елизовета","diminutive":"Лизонька","sex":"ж"}
123;Лена;{"name":"Лена","full":"Елена","diminutive":"Леночка","sex":"ж"}
124;Ксю,Ксюша;{"name":"Ксюша","full":"Ксения","diminutive":"Ксюшенька","sex":"ж"}
125;Ксения;{"name":"Ксения","full":"Ксения","diminutive":"Ксюшенька","sex":"ж"}
126;Алёна;{"name":"Алёна","full":"Алёна","diminutive":"Алёнка","sex":"ж"}
127;Яна;{"name":"Яна","full":"Яна","diminutive":"Яночка","sex":"ж"}
128;Яночка;{"name":"Яночка","full":"Яна","diminutive":"Яночка","sex":"ж"}
129;Ирина;{"name":"Ирина","full":"Ирина","diminutive":"Иришка","sex":"ж"}
130;Ира;{"name":"Ира","full":"Ирина","diminutive":"Иришка","sex":"ж"}
131;Ирочка;{"name":"Ирочка","full":"Ирина","diminutive":"Иришка","sex":"ж"}
132;Света;{"name":"Света","full":"Светлана","diminutive":"Светик","sex":"ж"}
133;Кристя,Кристина;{"name":"Кристина","full":"Кристина","diminutive":"Кристиночка","sex":"ж"}
134;Ольга;{"name":"Ольга","full":"Ольга","diminutive":"Олечка","sex":"ж"}
135;Олечка;{"name":"Олечка","full":"Ольга","diminutive":"Олечка","sex":"ж"}
136;Диана;{"name":"Диана","full":"Диана","diminutive":"Дианочка","sex":"ж"}
137;Наташа;{"name":"Наташа","full":"Наталья","diminutive":"Наташенька","sex":"ж"}
138;Таня;{"name":"Таня","full":"Татьяна","diminutive":"Танюшка","sex":"ж"}
139;Марина;{"name":"Марина","full":"Марина","diminutive":"Мариночка","sex":"ж"}
140;Анна;{"name":"Анна","full":"Анна","diminutive":"Анечка","sex":"ж"}
141;Нина;{"name":"Нина","full":"Нина","diminutive":"Ниночка","sex":"ж"}
142;Валентина;{"name":"Валентина","full":"Валентина","diminutive":"Валечка","sex":"ж"}
143;Лера,Лерочка;{"name":"Лера","full":"Валерия","diminutive":"Лерочка","sex":"ж"}
144;Альбина;{"name":"Альбина","full":"Альбина","diminutive":"Альбиночка","sex":"ж"}
145;Вера;{"name":"Вера","full":"Вера","diminutive":"Верочка","sex":"ж"}
146;Вероника;{"name":"Вероника","full":"Вероника","diminutive":"Вероничка","sex":"ж"}
147;Влада;{"name":"Влада","full":"Влада","diminutive":"Владочка","sex":"ж"}
148;Варя;{"name":"Варя","full":"Варвара","diminutive":"Варечка","sex":"ж"}
149;Юлия;{"name":"Юлия","full":"Юлия","diminutive":"Юлечка","sex":"ж"}
150;Люба;{"name":"Люба","full":"Любовь","diminutive":"Любочка","sex":"ж"}
151;Наталья;{"name":"Наталья","full":"Наталья","diminutive":"Наташенька","sex":"ж"}
152;Алена;{"name":"Алёна","full":"Алёна","diminutive":"Алёнка","sex":"ж"}
153;Надя;{"name":"Надя","full":"Нажеда","diminutive":"Наденька","sex":"ж"}
154;Екатерина;{"name":"Екатерина","full":"Екатерина","diminutive":"Катюша","sex":"ж"}
155;Людмила;{"name":"Людмила","full":"Людмила","diminutive":"Людочка","sex":"ж"}
156;Эльвира;{"name":"Эльвира","full":"Эльвира","diminutive":"","sex":"ж"}
157;Анастасия;{"name":"Анастасия","full":"Анастасия","diminutive":"Настенька","sex":"ж"}
158;Арина;{"name":"Арина","full":"Арина","diminutive":"","sex":"ж"}
159;Рита;{"name":"Рита","full":"","diminutive":"","sex":"ж"}
160;Эльмира;{"name":"Эльмира","full":"","diminutive":"","sex":"ж"}
161;Анжэла;{"name":"Анжэла","full":"","diminutive":"","sex":"ж"}
162;Анжелика;{"name":"Анжелика","full":"","diminutive":"","sex":"ж"}
163;Лариса;{"name":"Лариса","full":"Лариса","diminutive":"","sex":"ж"}
164;Светлана;{"name":"Светлана","full":"Светлана","diminutive":"Светик","sex":"ж"}
165;Елена;{"name":"Елена","full":"Елена","diminutive":"Леночка","sex":"ж"}
166;Милана;{"name":"Милана","full":"","diminutive":"","sex":"ж"}
167;Алия;{"name":"Алия","full":"","diminutive":"","sex":"ж"}
168;Машка;{"name":"Машка","full":"Мария","diminutive":"Машуля","sex":"ж"}
169;Элла;{"name":"Элла","full":"","diminutive":"","sex":"ж"}
170;Ника;{"name":"Ника","full":"","diminutive":"","sex":"ж"}
171;Мария;{"name":"Мария","full":"Мария","diminutive":"Машуля","sex":"ж"}
172;Дарина;{"name":"Дарина","full":"","diminutive":"","sex":"ж"}
173;Виолетта;{"name":"Виолетта","full":"","diminutive":"","sex":"ж"}
174;Татьяна;{"name":"Татьяна","full":"Татьяна","diminutive":"Танюшка","sex":"ж"}
175;Дарья;{"name":"Дарья","full":"Дарья","diminutive":"Дашуля","sex":"ж"}
176;Валерия;{"name":"Валерия","full":"","diminutive":"","sex":"ж"}
177;Оксана;{"name":"Оксана","full":"","diminutive":"","sex":"ж"}
178;Лаура;{"name":"Лаура","full":"","diminutive":"","sex":"ж"}
179;Любовь;{"name":"Любовь","full":"Любовь","diminutive":"Любочка","sex":"ж"}
180;Инна;{"name":"Инна","full":"","diminutive":"","sex":"ж"}
181;Аллочка;{"name":"Аллочка","full":"","diminutive":"","sex":"ж"}
182;Виалетта;{"name":"Виалетта","full":"","diminutive":"","sex":"ж"}
183;Сабина;{"name":"Сабина","full":"","diminutive":"","sex":"ж"}
184;Регина;{"name":"Регина","full":"","diminutive":"","sex":"ж"}
185;Ева;{"name":"Ева","full":"","diminutive":"","sex":"ж"}
186;Виктория;{"name":"Виктория","full":"Виктория","diminutive":"","sex":"ж"}
187;Ангелина;{"name":"Ангелина","full":"Ангелина","diminutive":"","sex":"ж"}
188;Дарьюшка;{"name":"Дарьюшка","full":"Дарья","diminutive":"Дашуля","sex":"ж"}
189;Руслана;{"name":"Руслана","full":"","diminutive":"","sex":"ж"}
190;Люда;{"name":"Люда","full":"Людмила","diminutive":"Людочка","sex":"ж"}
191;Софья;{"name":"Софья","full":"Софья","diminutive":"Сонечка","sex":"ж"}
192;Катюша;{"name":"Катюша","full":"Екатерина","diminutive":"Катюша","sex":"ж"}
193;Катенька;{"name":"Катенька","full":"Екатерина","diminutive":"Катюша","sex":"ж"}
194;Тоня;{"name":"Тоня","full":"","diminutive":"","sex":"ж"}
195;Роза;{"name":"Роза","full":"","diminutive":"","sex":"ж"}
196;Зоя;{"name":"Зоя","full":"","diminutive":"","sex":"ж"}
197;Маргарита;{"name":"Маргарита","full":"","diminutive":"","sex":"ж"}
198;Соня;{"name":"Соня","full":"София","diminutive":"Сонечка","sex":"ж"}
199;Алла;{"name":"Алла","full":"Алла","diminutive":"","sex":"ж"}
200;Мэри;{"name":"Мэри","full":"","diminutive":"","sex":"ж"}
201;Снежана;{"name":"Снежана","full":"","diminutive":"","sex":"ж"}
202;Александра;{"name":"Александра","full":"Александра","diminutive":"Сашенька","sex":"ж"}
203;Евгения;{"name":"Евгения","full":"Евгения","diminutive":"Женечка","sex":"ж"}
204;Карина;{"name":"Карина","full":"","diminutive":"","sex":"ж"}
205;Поля,Полина;{"name":"Полина","full":"Полина","diminutive":"Полечка","sex":"ж"}
206;Алиса;{"name":"Алиса","full":"Алиса","diminutive":"Алисонька","sex":"ж"}
207;Саша,Саня;{"name":"Саша","full":"","diminutive":"Сашенька","sex":"н"}
208;Женя;{"name":"Женя","full":"","diminutive":"Женечка","sex":"н"}
209;Сашка;{"name":"Сашка","full":"","diminutive":"Сашенька","sex":"н"}
210;Валя;{"name":"Валя","full":"","diminutive":"Валечка","sex":"н"}
211;Валера;{"name":"Валера","full":"","diminutive":"Валерочка","sex":"н"}
212;Емеля;{"name":"Емеля","full":"","diminutive":"","sex":"м"}
213;Уля,Ульяна;{"name":"Ульяна","full":"Ульяна","diminutive":"Улечка","sex":"ж"}
214;Толя,Анатолий;{"name":"Анатолий","full":"Анатолий","diminutive":"Толенька","sex":"м"}
215;Лев,Лёва;{"name":"Лев","full":"Лев","diminutive":"Лёва","sex":"м"}
216;Тимофей,Тимоха;{"name":"Тима","full":"Тимофей","diminutive":"Тимоша","sex":"м"}
217;Олеся;{"name":"Олеся","full":"Олеся","diminutive":"Олесенька","sex":"ж"}