1;математика,матеша;{"title":"математика","attribute":"technical"}
2;химия;{"title":"химия","attribute":"technical"}
3;физика;{"title":"физика","attribute":"technical"}
4;литература, литра;{"title":"литература","attribute":"arts"}
5;музыка;{"title":"музыка","attribute":"arts"}
6;пение;{"title":"пение","attribute":"arts"}
7;рисование;{"title":"рисование","attribute":"arts"}
8;физкультура, физра;{"title":"физкультура","attribute":"pt"}
9;история;{"title":"история","attribute":"humanities"}
10;география;{"title":"география","attribute":"humanities"}
11;биология;{"title":"биология","attribute":"humanities"}
12;окружающая среда, окружайка;{"title":"окружающая среда","attribute":"humanities"}
13;русский,английский,испанский,иностранный,немецкий, французский;{"title":"иностранный язык","attribute":"language"}
14;труд,труды;{"title":"труд","attribute":"handcraft"}
15;чтение;{"title":"чтение","attribute":"arts"}
16;мхк, мировая художественная культура, история мировой культуры, мировая культура, художка;{"title":"мхк","attribute":"arts"}