0;0;{"question":"Кто из этих животных складывает себе еду за щеки: хомяк или крыса?", "answer":"хомяк", "right":"хомяк", "wrong":"крыса", "firstCaption":"хомяк", "secondCaption":"крыса", "rightNumber":"FIRST", "firstPicture":"https://248305.selcdn.ru/demo_bot_static/animal_quiz_image_hamster.png","secondPicture":"https://248305.selcdn.ru/demo_bot_static/animal_quiz_image_rat.png", "sound":""}

1;1;{"question":"Кто из этих животных мурлычет от удовольствия: кошка или собака?", "answer":"кошка", "right":"кошка", "wrong":"собака", "firstCaption":"кошка", "secondCaption":"собака", "rightNumber":"FIRST", "firstPicture":"https://248305.selcdn.ru/demo_bot_static/animal_quiz_image_cat.png","secondPicture":"https://248305.selcdn.ru/demo_bot_static/animal_quiz_image_dog.png", "sound":"https://248305.selcdn.ru/demo_bot_static/animal_quiz_sound_sound_name_purr.mp3"}

2;2;{"question":"Кто из этих животных живет в берлоге: заяц или медведь?", "answer":"медведь", "right":"медведь", "wrong":"заяц", "firstCaption":"заяц", "secondCaption":"медведь", "rightNumber":"SECOND", "firstPicture":"https://248305.selcdn.ru/demo_bot_static/animal_quiz_image_rabbit.png","secondPicture":"https://248305.selcdn.ru/demo_bot_static/animal_quiz_image_bear.png", "sound":""}

3;3;{"question":"Кто из этих животных живет в дупле и любит орешки: белка или мышка?", "answer":"белка", "right":"белка", "wrong":"мышь", "firstCaption":"белка", "secondCaption":"мышка", "rightNumber":"FIRST", "firstPicture":"https://248305.selcdn.ru/demo_bot_static/animal_quiz_image_squirrel.png","secondPicture":"https://248305.selcdn.ru/demo_bot_static/animal_quiz_image_mouse.png", "sound":""}

4;4;{"question":"Кого из этих животных называют царем зверей: слона или льва?", "answer":"льва", "right":"лев", "wrong":"слон", "firstCaption":"слон", "secondCaption":"лев", "rightNumber":"SECOND", "firstPicture":"https://248305.selcdn.ru/demo_bot_static/animal_quiz_image_elephant.png","secondPicture":"https://248305.selcdn.ru/demo_bot_static/animal_quiz_image_lion.png", "sound":""}

5;5;{"question":"Кто из этих животных умывается язычком: кошка или хомяк?", "answer":"кошка", "right":"кошка", "wrong":"хомяк", "firstCaption":"кошка", "secondCaption":"хомяк", "rightNumber":"FIRST", "firstPicture":"https://248305.selcdn.ru/demo_bot_static/animal_quiz_image_cat.png","secondPicture":"https://248305.selcdn.ru/demo_bot_static/animal_quiz_image_hamster.png", "sound":""}

6;6;{"question":"Кто из этих животных ловко прыгает по деревьям: обезьяна или овца?", "answer":"обезьяна", "right":"обезьяна", "wrong":"овца", "firstCaption":"обезьяна", "secondCaption":"овца", "rightNumber":"FIRST", "firstPicture":"https://248305.selcdn.ru/demo_bot_static/animal_quiz_image_monkey.png","secondPicture":"https://248305.selcdn.ru/demo_bot_static/animal_quiz_image_sheep.png", "sound":""}

7;7;{"question":"Кто из этих животных лает: собака или волк?", "answer":"собака", "right":"собака", "wrong":"волк", "firstCaption":"собака", "secondCaption":"волк", "rightNumber":"FIRST", "firstPicture":"https://248305.selcdn.ru/demo_bot_static/animal_quiz_image_dog.png","secondPicture":"https://248305.selcdn.ru/demo_bot_static/animal_quiz_image_wolf.png", "sound":"https://248305.selcdn.ru/demo_bot_static/animal_quiz_sound_sound_name_bork.mp3"}

8;8;{"question":"Кто из этих птиц хорошо плавает: петух или утка?", "answer":"утка", "right":"утка", "wrong":"петух", "firstCaption":"петух", "secondCaption":"утка", "rightNumber":"SECOND", "firstPicture":"https://248305.selcdn.ru/demo_bot_static/animal_quiz_image_rooster.png","secondPicture":"https://248305.selcdn.ru/demo_bot_static/animal_quiz_image_duck.png", "sound":""}

9;9;{"question":"Кто из этих птиц умеет повторять наши слова: попугай или ворона?", "answer":"попугай", "right":"попугай", "wrong":"ворона", "firstCaption":"попугай", "secondCaption":"ворона", "rightNumber":"FIRST", "firstPicture":"https://248305.selcdn.ru/demo_bot_static/animal_quiz_image_parrot.png","secondPicture":"https://248305.selcdn.ru/demo_bot_static/animal_quiz_image_crow.png", "sound":""}

10;10;{"question":"Кто из этих птиц кричит кукареку по утрам: петух или лебедь?", "answer":"петух", "right":"петух", "wrong":"лебедь", "firstCaption":"петух", "secondCaption":"лебедь", "rightNumber":"FIRST", "firstPicture":"https://248305.selcdn.ru/demo_bot_static/animal_quiz_image_rooster.png","secondPicture":"https://248305.selcdn.ru/demo_bot_static/animal_quiz_image_swan.png", "sound":"https://248305.selcdn.ru/demo_bot_static/animal_quiz_sound_sound_name_rooster.mp3"}

11;11;{"question":"Кто из этих птиц громко каркает: курица или ворона?", "answer":"ворона", "right":"ворона", "wrong":"курица", "firstCaption":"курица", "secondCaption":"ворона", "rightNumber":"SECOND", "firstPicture":"https://248305.selcdn.ru/demo_bot_static/animal_quiz_image_chicken.png","secondPicture":"https://248305.selcdn.ru/demo_bot_static/animal_quiz_image_crow.png", "sound":"https://248305.selcdn.ru/demo_bot_static/animal_quiz_sound_sound_name_crow.mp3"}

12;12;{"question":"У кого из этих животных серая шёрстка: у волка или у лисы?", "answer":"у волка", "right":"волк", "wrong":"лиса", "firstCaption":"волк", "secondCaption":"лиса", "rightNumber":"FIRST", "firstPicture":"https://248305.selcdn.ru/demo_bot_static/animal_quiz_image_wolf.png","secondPicture":"https://248305.selcdn.ru/demo_bot_static/animal_quiz_image_fox.png", "sound":""}

13;13;{"question":"У кого из этих животных есть полоски: у льва или у тигра?", "answer":"у тигра", "right":"тигр", "wrong":"лев", "firstCaption":"лев", "secondCaption":"тигр", "rightNumber":"SECOND", "firstPicture":"https://248305.selcdn.ru/demo_bot_static/animal_quiz_image_lion.png","secondPicture":"https://248305.selcdn.ru/demo_bot_static/animal_quiz_image_tiger.png", "sound":""}

14;14;{"question":"У кого из этих животных длинный пушистый хвост: у лисы или у зайца?", "answer":"у лисы", "right":"лиса", "wrong":"заяц", "firstCaption":"лиса", "secondCaption":"заяц", "rightNumber":"FIRST", "firstPicture":"https://248305.selcdn.ru/demo_bot_static/animal_quiz_image_fox.png","secondPicture":"https://248305.selcdn.ru/demo_bot_static/animal_quiz_image_rabbit.png", "sound":""}

15;15;{"question":"У кого из этих животных вместо шерсти грубая серая кожа: у слона или медведя?", "answer":"у слона", "right":"слон", "wrong":"медведь", "firstCaption":"слон", "secondCaption":"медведь", "rightNumber":"FIRST", "firstPicture":"https://248305.selcdn.ru/demo_bot_static/animal_quiz_image_elephant.png","secondPicture":"https://248305.selcdn.ru/demo_bot_static/animal_quiz_image_bear.png", "sound":""}

16;16;{"question":"У кого из этих животных иголки на спине: у мыши или у ежа?", "answer":"у ежа", "right":"еж", "wrong":"мышь", "firstCaption":"мышь", "secondCaption":"еж", "rightNumber":"SECOND", "firstPicture":"https://248305.selcdn.ru/demo_bot_static/animal_quiz_image_mouse.png","secondPicture":"https://248305.selcdn.ru/demo_bot_static/animal_quiz_image_hedgehog.png", "sound":""}

17;17;{"question":"У кого из этих животных очень длинная шея: у жирафа или у крокодила?", "answer":"у жирафа", "right":"жираф", "wrong":"крокодил", "firstCaption":"жираф", "secondCaption":"крокодил", "rightNumber":"FIRST", "firstPicture":"https://248305.selcdn.ru/demo_bot_static/animal_quiz_image_giraffe.png","secondPicture":"https://248305.selcdn.ru/demo_bot_static/animal_quiz_image_crocodile.png", "sound":""}

18;18;{"question":"У кого из этих животных есть копыта: у антилопы или дельфина?", "answer":"у антилопы", "right":"антилопа", "wrong":"дельфин", "firstCaption":"антилопа", "secondCaption":"дельфин", "rightNumber":"FIRST", "firstPicture":"https://248305.selcdn.ru/demo_bot_static/animal_quiz_image_antilope.png","secondPicture":"https://248305.selcdn.ru/demo_bot_static/animal_quiz_image_dolphin.png", "sound":""}

19;19;{"question":"У кого из этих животных есть рога: у лошади или у оленя?", "answer":"у оленя", "right":"олень", "wrong":"лошадь", "firstCaption":"лошадь", "secondCaption":"олень", "rightNumber":"SECOND", "firstPicture":"https://248305.selcdn.ru/demo_bot_static/animal_quiz_image_horse.png","secondPicture":"https://248305.selcdn.ru/demo_bot_static/animal_quiz_image_deer.png", "sound":""}

20;20;{"question":"У кого из этих птиц большой красивый хвост: у павлина или у страуса?", "answer":"у павлина", "right":"павлин", "wrong":"страус", "firstCaption":"павлин", "secondCaption":"страус", "rightNumber":"FIRST", "firstPicture":"https://248305.selcdn.ru/demo_bot_static/animal_quiz_image_peacock.png","secondPicture":"https://248305.selcdn.ru/demo_bot_static/animal_quiz_image_ostrich.png", "sound":""}

21;21;{"question":"Какое из этих животных домашнее: кошка или лиса?", "answer":"кошка", "right":"кошка", "wrong":"лиса", "firstCaption":"кошка", "secondCaption":"лиса", "rightNumber":"FIRST", "firstPicture":"https://248305.selcdn.ru/demo_bot_static/animal_quiz_image_cat.png","secondPicture":"https://248305.selcdn.ru/demo_bot_static/animal_quiz_image_fox.png", "sound":""}

22;22;{"question":"Какое из этих животных домашнее: кошка или белка?", "answer":"кошка", "right":"кошка", "wrong":"белка", "firstCaption":"кошка", "secondCaption":"белка", "rightNumber":"FIRST", "firstPicture":"https://248305.selcdn.ru/demo_bot_static/animal_quiz_image_cat.png","secondPicture":"https://248305.selcdn.ru/demo_bot_static/animal_quiz_image_squirrel.png", "sound":""}

23;23;{"question":"У кого из этих животных можно ездить на спине: у лошади или козы?", "answer":"у лошади", "right":"лошадь", "wrong":"коза", "firstCaption":"лошадь", "secondCaption":"коза", "rightNumber":"FIRST", "firstPicture":"https://248305.selcdn.ru/demo_bot_static/animal_quiz_image_horse.png","secondPicture":"https://248305.selcdn.ru/demo_bot_static/animal_quiz_image_goat.png", "sound":""}

24;24;{"question":"Кто из этих птиц больше: голубь или воробей?", "answer":"голубь", "right":"голубь", "wrong":"воробей", "firstCaption":"голубь", "secondCaption":"воробей", "rightNumber":"FIRST", "firstPicture":"https://248305.selcdn.ru/demo_bot_static/animal_quiz_image_pigeon.png","secondPicture":"https://248305.selcdn.ru/demo_bot_static/animal_quiz_image_sparrow.png", "sound":""}

25;25;{"question":"У кого из этих животных детёныш называется телёнок: у коровы или у козы?", "answer":"у коровы", "right":"корова", "wrong":"коза", "firstCaption":"корова", "secondCaption":"коза", "rightNumber":"FIRST", "firstPicture":"https://248305.selcdn.ru/demo_bot_static/animal_quiz_image_babycow.png","secondPicture":"https://248305.selcdn.ru/demo_bot_static/animal_quiz_image_babygoat.png", "sound":""}

26;26;{"question":"У кого из этих животных детёныш называется жеребёнок: у лошади или у ослика?", "answer":"у лошади", "right":"лошадь", "wrong":"осел", "firstCaption":"лошадь", "secondCaption":"ослик", "rightNumber":"FIRST", "firstPicture":"https://248305.selcdn.ru/demo_bot_static/animal_quiz_image_babyhorse.png","secondPicture":"https://248305.selcdn.ru/demo_bot_static/animal_quiz_image_babydonkey.png", "sound":""}

27;27;{"question":"У кого из этих животных детёныш называется поросёнок: у свиньи или у овцы?", "answer":"у свиньи", "right":"свинья", "wrong":"овца", "firstCaption":"свинья", "secondCaption":"овца", "rightNumber":"FIRST", "firstPicture":"https://248305.selcdn.ru/demo_bot_static/animal_quiz_image_piglet.png","secondPicture":"https://248305.selcdn.ru/demo_bot_static/animal_quiz_image_babysheep.png", "sound":""}

28;28;{"question":"У кого из этих животных детёныш называется ягнёнок: у овцы или у лошади?", "answer":"У овцы", "right":"овца", "wrong":"лошадь", "firstCaption":"овца", "secondCaption":"лошадь", "rightNumber":"FIRST", "firstPicture":"https://248305.selcdn.ru/demo_bot_static/animal_quiz_image_babysheep.png","secondPicture":"https://248305.selcdn.ru/demo_bot_static/animal_quiz_image_babyhorse.png", "sound":""}

29;29;{"question":"У кого из этих животных детёныш называется щенок: у собаки или у лисы?", "answer":"у собаки", "right":"собака", "wrong":"лиса", "firstCaption":"собака", "secondCaption":"лиса", "rightNumber":"FIRST", "firstPicture":"https://248305.selcdn.ru/demo_bot_static/animal_quiz_image_puppy.png","secondPicture":"https://248305.selcdn.ru/demo_bot_static/animal_quiz_image_fox.png", "sound":""}

30;30;{"question":"У кого из этих птиц птенец называется цыпленок: у лебедя или у курицы?", "answer":"у курицы", "right":"курица", "wrong":"лебедь", "firstCaption":"лебедь", "secondCaption":"курица", "rightNumber":"SECOND", "firstPicture":"https://248305.selcdn.ru/demo_bot_static/animal_quiz_image_swan.png","secondPicture":"https://248305.selcdn.ru/demo_bot_static/animal_quiz_image_chicken.png", "sound":""}
