1;chocolate,cocoa,nesquick,cacao;{"title":"cocoa","attribute":"Chocolate drink"}
2;coffee;{"title":"coffee","attribute":"Cafeine drink"}
3;tea;{"title":"tea","attribute":"Cafeine drink"}
4;ice tea, icetea, ice-tea,cold tea;{"title":"ice-tea","attribute":"Cafeine drink"}
5;water,aquafina,evian;{"title":"water","attribute":"Water"}
6;juice;{"title":"juice","attribute":"Sweet drink"}
7;smoothie;{"title":"smoothie","attribute":"Sweet drink"}
8;lemonade;{"title":"lemonade","attribute":"Sweet drink"}
9;cola,cocacola,coca,coca-cola,pepsi,pepsi-cola;{"title":"cola","attribute":"Sweet drink"}
10;soft drink,fanta,sprite,dr.pepper,soda,fizz;{"title":"soda","attribute":"Sweet drink"}
11;milk;{"title":"milk","attribute":"Dairy drink"}
12;ginger beer,ginger ale;{"title":"ginger beer","attribute":"Sweet drink"}
13;kefir;{"title":"kefir","attribute":"Dairy drink"}
14;milkshake,cocktail;{"title":"milk shake","attribute":"Dairy drink"}
15;lassi;{"title":"lassi","attribute":"Dairy drink"}
16;alcohol,booze,liquor;{"title":"alcohol","attribute":"Alcohol drink"}
17;jerez,cherry;{"title":"cherry","attribute":"Alcohol drink"}
18;vermouth;{"title":"vermouth","attribute":"Alcohol drink"}
19;martini;{"title":"martini","attribute":"Alcohol drink"}
20;champaign,sparkling wine;{"title":"champaign","attribute":"Alcohol drink"}
21;mojito;{"title":"mojito","attribute":"Alcohol drink"}
22;margarita;{"title":"margarita","attribute":"Alcohol drink"}
23;beer;{"title":"beer","attribute":"Alcohol drink"}
24;whiskey,whisky;{"title":"whisky","attribute":"Alcohol drink"}
25;vodka;{"title":"vodka","attribute":"Alcohol drink"}
26;cognac,brandy;{"title":"cognac","attribute":"Alcohol drink"}
27;grappa;{"title":"grappa","attribute":"Alcohol drink"}
28;shnaps;{"title":"shnaps","attribute":"Alcohol drink"}
29;spirit;{"title":"spirit","attribute":"Alcohol drink"}
30;absinth;{"title":"absinth","attribute":"Alcohol drink"}
31;tequila;{"title":"tequila","attribute":"Alcohol drink"}
32;scotch;{"title":"scotch","attribute":"Alcohol drink"}
33;rum;{"title":"rum","attribute":"Alcohol drink"}
34;wine;{"title":"wine","attribute":"Alcohol drink"}