1;Batman;{"name":"Batman", "filmAbout":"a superhero. He helps to save the world from bad guys."}  
2;Iron Man, Ironman;{"name":"Iron Man", "filmAbout":"that funny guy, who made the iron suits."}     
3;Sympsons;{"name":"Sympsons", "filmAbout":"a life of some funny family."}     
4;Family guy;{"name":"Family guy", "filmAbout":"a life of some funny family."}     
5;Games of Thrones;{"name":"Games of Thrones", "filmAbout":"the wars between some powerful kingdoms. By the way, John Snow turned out to be alive. Oh, hope you knew it."}
6;Harry Potter;{"name":"Harry Potter", "filmAbout":"a struggle between good and evil in Hogwarts School of Witchcraft and Wizardry!"}
7;Sherlock Holmes;{"name":"Sherlock Holmes", "filmAbout":"a great detective, Holmes, and his assistant, Watson."}
8;Snoopy;{"name":"Snoopy", "filmAbout":"an adventure of a little pet beagle."}
9;Garfield;{"name":"Garfield", "filmAbout":"an adventure of a lazy, fat, and cynical orange cat."}
10;Spider-man, Spiderman;{"name":"Spider-man", "filmAbout":"a superhero, who try to save the world."}
11;Beavis and Butt-head,Beavis and Butthead;{"name":"Beavis and Butt-head", "filmAbout":"the lives of two teenagers."}
12;Tarzan;{"name":"Tarzan", "filmAbout":"an adventure of feral child raised in the African jungle."}
13;Peter Pan;{"name":"Peter Pan", "filmAbout":"an adventure of young boy who can fly and never grows up."}