1;fruit;{"title":"fruit", "", "acc":"", "base":"", "type":"", "sweetness":"", "ingredient":""}
2;Apple;{"title":"Apple", "acc":"", "base":"", "type":"fruit", "sweetness":"", "ingredient":""}
3;banana;{"title":"banana", "acc":"", "base":"", "type":"berry", "sweetness":"", "ingredient":""}
4;orange;{"title":"orange", "acc":"", "base":"", "type":"fruit", "sweetness":"", "ingredient":""}
5;pear;{"title":"pear", "acc":"", "base":"", "type":"fruit", "sweetness":"", "ingredient":""}
6;mandarin;{"title":"mandarin", "acc":"", "base":"", "type":"fruit", "sweetness":"", "ingredient":""}
7;grapefruit;{"title":"grapefruit", "acc":"", "base":"", "type":"fruit", "sweetness":"", "ingredient":""}
8;Grapes;{"title":"Grapes", "acc":"", "base":"", "type":"fruit", "sweetness":"", "ingredient":""}
9;Figs;{"title":"Figs", "acc":"", "base":"", "type":"fruit", "sweetness":"", "ingredient":""}
10;apricot;{"title":"apricot", "acc":"", "base":"", "type":"fruit", "sweetness":"", "ingredient":""}
11;peach;{"title":"peach", "acc":"", "base":"", "type":"fruit", "sweetness":"", "ingredient":""}
12;watermelon;{"title":"watermelon", "acc":"", "base":"", "type":"berry", "sweetness":"", "ingredient":""}
13;melon;{"title":"melon", "acc":"", "base":"", "type":"fruit", "sweetness":"", "ingredient":""}
14;lemon;{"title":"lemon", "acc":"", "base":"", "type":"fruit", "sweetness":"", "ingredient":""}
15;Pomelo;{"title":"Pomelo", "acc":"", "base":"", "type":"fruit", "sweetness":"", "ingredient":""}
16;persimmon;{"title":"persimmon", "acc":"", "base":"", "type":"fruit", "sweetness":"", "ingredient":""}
17;berry;{"title":"berry", "acc":"", "base":"", "type":"", "sweetness":"", "ingredient":""}
18;Strawberry;{"title":"Strawberry", "acc":"", "base":"", "type":"berry", "sweetness":"", "ingredient":""}
19;raspberries;{"title":"raspberries", "acc":"", "base":"", "type":"berry", "sweetness":"", "ingredient":""}
20;currant;{"title":"currant", "acc":"", "base":"", "type":"berry", "sweetness":"", "ingredient":""}
21;Strawberries;{"title":"Strawberries", "acc":"", "base":"", "type":"berry", "sweetness":"", "ingredient":""}
22;cherry;{"title":"cherry", "acc":"", "base":"", "type":"berry", "sweetness":"", "ingredient":""}
23;cherries;{"title":"cherries", "acc":"", "base":"", "type":"berry", "sweetness":"", "ingredient":""}
24;gooseberry;{"title":"gooseberry", "acc":"", "base":"", "type":"berry", "sweetness":"", "ingredient":""}
25;almond;{"title":"almond", "acc":"", "base":"", "type":"nut", "sweetness":"", "ingredient":""}
26;Walnut;{"title":"Walnut", "acc":"", "base":"", "type":"", "sweetness":"", "ingredient":""}
27;peanut;{"title":"peanut", "acc":"", "base":"", "type":"nut", "sweetness":"", "ingredient":""}
28;hazelnut;{"title":"hazelnut", "acc":"", "base":"", "type":"nut", "sweetness":"", "ingredient":""}
29;Pecan;{"title":"Pecan", "acc":"", "base":"", "type":"nut", "sweetness":"", "ingredient":""}
30;raisins;{"title":"raisins", "acc":"", "base":"", "type":"Dried fruit", "sweetness":"", "ingredient":""}
31;dried apricots;{"title":"dried apricots", "acc":"", "base":"", "type":"Dried fruit", "sweetness":"", "ingredient":""}
32;Prune;{"title":"Prune", "acc":"", "base":"", "type":"Dried fruit", "sweetness":"", "ingredient":""}
33;date fruit;{"title":"date fruit", "acc":"", "base":"", "type":"", "sweetness":"", "ingredient":""}
34;vegetable;{"title":"vegetable", "acc":"", "base":"", "type":"", "sweetness":"", "ingredient":""}
35;potato;{"title":"potato", "acc":"", "base":"", "type":"vegetable", "sweetness":"", "ingredient":""}
36;cucumber;{"title":"cucumber", "acc":"", "base":"", "type":"vegetable", "sweetness":"", "ingredient":""}
37;tomato;{"title":"tomato", "acc":"", "base":"", "type":"berry", "sweetness":"", "ingredient":""}
38;bow;{"title":"bow", "acc":"", "base":"", "type":"vegetable", "sweetness":"", "ingredient":""}
39;celery;{"title":"celery", "acc":"", "base":"", "type":"vegetable", "sweetness":"", "ingredient":""}
40;carrot;{"title":"carrot", "acc":"", "base":"", "type":"vegetable", "sweetness":"", "ingredient":""}
41;Zucchini;{"title":"Zucchini", "acc":"", "base":"", "type":"vegetable", "sweetness":"", "ingredient":""}
42;eggplant;{"title":"eggplant", "acc":"", "base":"", "type":"vegetable", "sweetness":"", "ingredient":""}
43;squash;{"title":"squash", "acc":"", "base":"", "type":"vegetable", "sweetness":"", "ingredient":""}
44;cabbage;{"title":"cabbage", "acc":"", "base":"", "type":"vegetable", "sweetness":"", "ingredient":""}
45;milk;{"title":"milk", "acc":"", "base":"", "type":"", "sweetness":"", "ingredient":""}
46;kefir;{"title":"kefir", "acc":"", "base":"", "type":"", "sweetness":"", "ingredient":"From milk"}
47;Fermented burger;{"title":"Fermented burger", "acc":"", "base":"", "type":"", "sweetness":"", "ingredient":"From milk"}
48;Curdled milk;{"title":"Curdled milk", "acc":"", "base":"", "type":"", "sweetness":"", "ingredient":"From milk"}
49;cottage cheese;{"title":"cottage cheese", "acc":"", "base":"", "type":"", "sweetness":"", "ingredient":"From milk"}
50;yogurt;{"title":"yogurt", "acc":"", "base":"", "type":"", "sweetness":"", "ingredient":"From milk"}
51;Plant;{"title":"Plant", "acc":"", "base":"", "type":"", "sweetness":"", "ingredient":"From milk"}
52;Agusha;{"title":"Agusha", "acc":"", "base":"", "type":"", "sweetness":"", "ingredient":"From milk"}
53;cheese;{"title":"cheese", "acc":"", "base":"", "type":"", "sweetness":"", "ingredient":"From milk"}
54;buckwheat;{"title":"buckwheat", "acc":"", "base":"", "type":"", "sweetness":"", "ingredient":""}
55;Rice;{"title":"Rice", "acc":"", "base":"", "type":"", "sweetness":"", "ingredient":""}
56;oatmeal;{"title":"oatmeal", "acc":"", "base":"", "type":"", "sweetness":"", "ingredient":""}
57;semolina;{"title":"semolina", "acc":"", "base":"", "type":"", "sweetness":"", "ingredient":""}
58;Puree;{"title":"Puree", "acc":"", "base":"", "type":"", "sweetness":"", "ingredient":""}
59;meat;{"title":"meat", "acc":"", "base":"", "type":"", "sweetness":"", "ingredient":""}
60;beef;{"title":"beef", "acc":"", "base":"", "type":"meat", "sweetness":"", "ingredient":""}
61;pork;{"title":"pork", "acc":"", "base":"", "type":"meat", "sweetness":"", "ingredient":""}
62;mutton;{"title":"mutton", "acc":"", "base":"", "type":"meat", "sweetness":"", "ingredient":""}
63;veal;{"title":"veal", "acc":"", "base":"", "type":"meat", "sweetness":"", "ingredient":""}
64;hen;{"title":"hen", "acc":"", "base":"", "type":"meat", "sweetness":"", "ingredient":""}
65;hen;{"title":"hen", "acc":"", "base":"", "type":"meat", "sweetness":"", "ingredient":""}
66;fish;{"title":"fish", "acc":"", "base":"", "type":"", "sweetness":"", "ingredient":""}
67;salmon;{"title":"salmon", "acc":"", "base":"", "type":"a fish", "sweetness":"", "ingredient":""}
68;sprat;{"title":"sprat", "acc":"", "base":"", "type":"a fish", "sweetness":"", "ingredient":""}
69;cod;{"title":"cod", "acc":"", "base":"", "type":"a fish", "sweetness":"", "ingredient":""}
70;meat dishes;{"title":"meat dishes", "acc":"", "base":"", "type":"", "sweetness":"", "ingredient":""}
71;Little beads;{"title":"Little beads", "acc":"", "base":"", "type":"meat dish", "sweetness":"Unsweetened", "ingredient":"Of meat"}
72;Stew;{"title":"Stew", "acc":"", "base":"", "type":"meat dish", "sweetness":"Unsweetened", "ingredient":"Of meat"}
73;Cold-boiled pork;{"title":"Cold-boiled pork", "acc":"", "base":"", "type":"meat dish", "sweetness":"Unsweetened", "ingredient":"Of meat"}
74;Sausages;{"title":"Sausages", "acc":"", "base":"", "type":"meat dish", "sweetness":"Unsweetened", "ingredient":"Of meat"}
75;Sausages;{"title":"Sausages", "acc":"", "base":"", "type":"meat dish", "sweetness":"Unsweetened", "ingredient":"Of meat"}
76;steak;{"title":"steak", "acc":"", "base":"", "type":"meat dish", "sweetness":"Unsweetened", "ingredient":"Of meat"}
77;Beef stroganoff;{"title":"Beef stroganoff", "acc":"", "base":"", "type":"meat dish", "sweetness":"Unsweetened", "ingredient":"Of meat"}
78;Cutlets;{"title":"Cutlets", "acc":"", "base":"", "type":"meat dish", "sweetness":"", "ingredient":"Of meat"}
79;omelette;{"title":"omelette", "acc":"", "base":"", "type":"", "sweetness":"Unsweetened", "ingredient":"From eggs"}
80;omelet;{"title":"omelet", "acc":"", "base":"", "type":"", "sweetness":"Unsweetened", "ingredient":""}
81;egg;{"title":"egg", "acc":"", "base":"", "type":"", "sweetness":"", "ingredient":""}
82;pasta;{"title":"pasta", "acc":"", "base":"", "type":"", "sweetness":"", "ingredient":"From flour"}
83;spaghetti;{"title":"spaghetti", "acc":"", "base":"", "type":"", "sweetness":"", "ingredient":"From flour"}
84;paste;{"title":"paste", "acc":"", "base":"", "type":"", "sweetness":"", "ingredient":""}
85;sandwich;{"title":"sandwich", "acc":"", "base":"", "type":"", "sweetness":"Unsweetened", "ingredient":""}
86;Hot Dog;{"title":"Hot Dog", "acc":"", "base":"", "type":"", "sweetness":"Unsweetened", "ingredient":""}
87;hamburger;{"title":"hamburger", "acc":"", "base":"", "type":"", "sweetness":"Unsweetened", "ingredient":""}
88;Sandwich;{"title":"Sandwich", "acc":"", "base":"", "type":"", "sweetness":"Unsweetened", "ingredient":""}
89;Dumplings;{"title":"Dumplings", "acc":"", "base":"", "type":"", "sweetness":"Unsweetened", "ingredient":""}
90;Cabbage rolls;{"title":"Cabbage rolls", "acc":"", "base":"", "type":"", "sweetness":"Unsweetened", "ingredient":""}
91;Panini;{"title":"Panini", "acc":"", "base":"", "type":"", "sweetness":"Unsweetened", "ingredient":""}
92;soup;{"title":"soup", "acc":"", "base":"", "type":"", "sweetness":"", "ingredient":""}
93;Ear;{"title":"Ear", "acc":"", "base":"", "type":"soup", "sweetness":"Unsweetened", "ingredient":""}
94;borscht;{"title":"borscht", "acc":"", "base":"", "type":"soup", "sweetness":"Unsweetened", "ingredient":""}
95;Kharcho;{"title":"Kharcho", "acc":"", "base":"", "type":"soup", "sweetness":"Unsweetened", "ingredient":""}
96;Miso;{"title":"Miso", "acc":"", "base":"", "type":"soup", "sweetness":"Unsweetened", "ingredient":""}
97;mushroom soup;{"title":"mushroom soup", "acc":"", "base":"", "type":"soup", "sweetness":"Unsweetened", "ingredient":""}
98;fish soup;{"title":"fish soup", "acc":"", "base":"", "type":"soup", "sweetness":"Unsweetened", "ingredient":""}
99;cheese soup;{"title":"cheese soup", "acc":"", "base":"", "type":"soup", "sweetness":"Unsweetened", "ingredient":""}
100;tomato soup;{"title":"tomato soup", "acc":"", "base":"", "type":"soup", "sweetness":"Unsweetened", "ingredient":""}
101;potato soup;{"title":"potato soup", "acc":"", "base":"", "type":"soup", "sweetness":"Unsweetened", "ingredient":""}
102;chicken soup;{"title":"chicken soup", "acc":"", "base":"", "type":"soup", "sweetness":"Unsweetened", "ingredient":""}
103;dessert;{"title":"dessert", "acc":"", "base":"", "type":"", "sweetness":"", "ingredient":""}
104;cake;{"title":"cake", "acc":"", "base":"", "type":"", "sweetness":"sweet", "ingredient":""}
105;ice cream;{"title":"ice cream", "acc":"", "base":"", "type":"dessert", "sweetness":"sweet", "ingredient":"From milk"}
106;Tiramisu;{"title":"Tiramisu", "acc":"", "base":"", "type":"dessert", "sweetness":"sweet", "ingredient":""}
107;Pannacotta;{"title":"Pannacotta", "acc":"", "base":"", "type":"dessert", "sweetness":"sweet", "ingredient":""}
108;cake;{"title":"cake", "acc":"", "base":"", "type":"", "sweetness":"sweet", "ingredient":""}
109;Cheesecake;{"title":"Cheesecake", "acc":"", "base":"", "type":"", "sweetness":"sweet", "ingredient":""}
110;pie;{"title":"pie", "acc":"", "base":"", "type":"bakery products", "sweetness":"", "ingredient":"From flour"}
111;pie;{"title":"pie", "acc":"", "base":"", "type":"bakery products", "sweetness":"", "ingredient":"From flour"}
112;bun;{"title":"bun", "acc":"", "base":"", "type":"bakery products", "sweetness":"sweet", "ingredient":"From flour"}
113;biscuit;{"title":"biscuit", "acc":"", "base":"", "type":"bakery products", "sweetness":"sweet", "ingredient":"From flour"}
114;bakery products;{"title":"bakery products", "acc":"", "base":"", "type":"", "sweetness":"", "ingredient":"From flour"}
115;Croissant;{"title":"Croissant", "acc":"", "base":"", "type":"bakery products", "sweetness":"sweet", "ingredient":"From flour"}
116;bun;{"title":"bun", "acc":"", "base":"", "type":"bakery products", "sweetness":"sweet", "ingredient":"From flour"}
117;salad;{"title":"salad", "acc":"", "base":"", "type":"", "sweetness":"", "ingredient":""}
118;bread;{"title":"bread", "acc":"", "base":"", "type":"", "sweetness":"", "ingredient":"From flour"}
119;butter;{"title":"butter", "acc":"", "base":"", "type":"", "sweetness":"", "ingredient":"From milk"}
120;Pancakes;{"title":"Pancakes", "acc":"", "base":"", "type":"", "sweetness":"", "ingredient":"From flour"}
121;pizza;{"title":"pizza", "acc":"", "base":"", "type":"", "sweetness":"Unsweetened", "ingredient":""}
122;Sushi;{"title":"Sushi", "acc":"", "base":"", "type":"", "sweetness":"", "ingredient":""}
123;Rolls;{"title":"Rolls", "acc":"", "base":"", "type":"", "sweetness":"", "ingredient":""}
124;Pasta in a navy manner;{"title":"Pasta in a navy manner", "acc":"", "base":"", "type":"", "sweetness":"", "ingredient":""}
125;cottage cheese casserole;{"title":"cottage cheese casserole", "acc":"", "base":"", "type":"", "sweetness":"sweet", "ingredient":""}
126;Syrniki;{"title":"Syrniki", "acc":"", "base":"", "type":"", "sweetness":"sweet", "ingredient":""}
127;Hedgehogs;{"title":"Hedgehogs", "acc":"", "base":"", "type":"", "sweetness":"Unsweetened", "ingredient":"Of meat"}
128;potato casserole;{"title":"potato casserole", "acc":"", "base":"", "type":"", "sweetness":"Unsweetened", "ingredient":""}
129;Fritters;{"title":"Fritters", "acc":"", "base":"", "type":"", "sweetness":"", "ingredient":""}
130;Meatballs;{"title":"Meatballs", "acc":"", "base":"", "type":"", "sweetness":"Unsweetened", "ingredient":"Of meat"}
131;cheese balls;{"title":"cheese balls", "acc":"", "base":"", "type":"", "sweetness":"Unsweetened", "ingredient":""}
132;Kissel;{"title":"Kissel", "acc":"", "base":"", "type":"drink", "sweetness":"sweet", "ingredient":""}
133;compote;{"title":"compote", "acc":"", "base":"", "type":"drink", "sweetness":"sweet", "ingredient":""}
134;bagel;{"title":"bagel", "acc":"", "base":"", "type":"bakery products", "sweetness":"sweet", "ingredient":"From flour"}
135;Nuggets;{"title":"Nuggets", "acc":"", "base":"", "type":"", "sweetness":"Unsweetened", "ingredient":"Of meat"}