1;sweets;{"title":"sweets","attribute":"Sweet food"}
2;candies,candy;{"title":"candy","attribute":"Sweet food"}
3;ice-cream,sundae;{"title":"ice-cream","attribute":"Sweet food"}
4;dessert;{"title":"dessert","attribute":"Sweet food"}
5;tiramisu;{"title":"tiramisu","attribute":"Sweet food"}
6;brownie;{"title":"brownie","attribute":"Sweet food"}
7;biscuit;{"title":"biscuit","attribute":"Sweet food"}
8;cookie;{"title":"cookie","attribute":"Sweet food"}
9;meat;{"title":"meat","attribute":"Protein food"}
10;kebab;{"title":"kebab","attribute":"Protein food"}
11;beef;{"title":"beef","attribute":"Protein food"}
12;veal;{"title":"veal","attribute":"Protein food"}
13;pork;{"title":"pork","attribute":"Protein food"}
14;mutton;{"title":"mutton","attribute":"Protein food"}
15;cutlet;{"title":"cutlet","attribute":"Protein food"}
16;chicken;{"title":"chicken","attribute":"Protein food"}
17;turkey;{"title":"turkey","attribute":"Protein food"}
18;steak;{"title":"steak","attribute":"Protein food"}
19;pasta;{"title":"pasta","attribute":"Carb food"}
20;macaroni;{"title":"macaroni","attribute":"Carb food"}
21;potato;{"title":"potato","attribute":"Carb food"}
22;rice;{"title":"rice","attribute":"Carb food"}
23;cereal;{"title":"cereal","attribute":"Carb food"}
24;porridge;{"title":"porridge","attribute":"Carb food"}
25;oatmeal;{"title":"oatmeal","attribute":"Carb food"}
26;bread;{"title":"bread","attribute":"Carb food"}
27;scone;{"title":"scone","attribute":"Carb food"}
28;bagel;{"title":"bagel","attribute":"Carb food"}
29;pancake;{"title":"pancake","attribute":"Carb food"}
30;apple;{"title":"apple","attribute":"Fruit food"}
31;pear;{"title":"pear","attribute":"Fruit food"}
32;orange;{"title":"orange","attribute":"Fruit food"}
33;tangerine;{"title":"tangerine","attribute":"Fruit food"}
34;melon;{"title":"melon","attribute":"Fruit food"}
35;watermelon;{"title":"watermelon","attribute":"Fruit food"}
36;fruit;{"title":"fruit","attribute":"Fruit food"}
37;berrie;{"title":"berries","attribute":"Fruit food"}
38;raisin;{"title":"raisin","attribute":"Fruit food"}
39;mango;{"title":"mango","attribute":"Fruit food"}
40;cherry;{"title":"cherries","attribute":"Fruit food"}
41;currant;{"title":"currant","attribute":"Fruit food"}
42;plum;{"title":"plum","attribute":"Fruit food"}
43;pizza;{"title":"pizza","attribute":"Fast food"}
44;hamburger;{"title":"hamburger","attribute":"Fast food"}
45;hotdog;{"title":"hotdog","attribute":"Fast food"}
46;crisp;{"title":"crisps","attribute":"Fast food"}
47;doner;{"title":"doner","attribute":"Fast food"}
49;soup;{"title":"soup","attribute":"Protein food"}
50;fish;{"title":"fish","attribute":"Protein food"}
51;tuna;{"title":"tuna","attribute":"Protein food"}
52;salmon;{"title":"salmon","attribute":"Protein food"}
53;chocolate;{"title":"chocolate","attribute":"Sweet food"}
