0;10 years;{"title":"10 years"}
1;16 horsepower;{"title":"16 horsepower"}
2;21 savage;{"title":"21 savage"}
3;2 cellos;{"title":"2 cellos"}
4;3 doors down;{"title":"3 doors down"}
5;36 crazyfists;{"title":"36 crazyfists"}
6;4 minute;{"title":"4 minute"}
7;4 non blondes;{"title":"4 non blondes"}
8;5 seconds of summer;{"title":"5 seconds of summer"}
9;50 cent;{"title":"50 cent"}
10;808 state;{"title":"808 state"}
11;a perfect circle;{"title":"a perfect circle"}
12;a r rahman,rahman;{"title":"a r rahman,rahman"}
13;aaliyah;{"title":"aaliyah"}
14;aaron carter;{"title":"aaron carter"}
15;aaron kwok;{"title":"aaron kwok"}
16;aaron neville;{"title":"aaron neville"}
17;abandon all ships;{"title":"abandon all ships"}
18;abba;{"title":"abba"}
19;abbey lincoln;{"title":"abbey lincoln"}
20;abida parveen;{"title":"abida parveen"}
21;above the law;{"title":"above the law"}
22;ac/dc,acdc;{"title":"ac/dc"}
23;acda and de munnik;{"title":"acda and de munnik"}
24;ace hood;{"title":"ace hood"}
25;ace of base;{"title":"ace of base"}
26;action bronson;{"title":"action bronson"}
27;adam hicks;{"title":"adam hicks"}
28;adam lambert;{"title":"adam lambert"}
29;adam levine;{"title":"adam levine"}
30;adam pascal;{"title":"adam pascal"}
31;adam rickitt;{"title":"adam rickitt"}
32;adam sandler;{"title":"adam sandler"}
33;adassa;{"title":"adassa"}
34;adele;{"title":"adele"}
35;adia victoria;{"title":"adia victoria"}
36;admiral t;{"title":"admiral t"}
37;aerosmith;{"title":"aerosmith"}
38;afi;{"title":"afi"}
39;after midnight project;{"title":"after midnight project"}
40;against the current;{"title":"against the current"}
41;agnetha faltskog;{"title":"agnetha faltskog"}
42;aimee mann;{"title":"aimee mann"}
43;aimee mayo;{"title":"aimee mayo"}
44;airbourne;{"title":"airbourne"}
45;airto moreira;{"title":"airto moreira"}
46;akon;{"title":"akon"}
47;al di meola;{"title":"al di meola"}
48;al jarreau;{"title":"al jarreau"}
49;al stewart;{"title":"al stewart"}
50;al yankovic;{"title":"al yankovic"}
51;alan jackson;{"title":"alan jackson"}
52;alan lomax;{"title":"alan lomax"}
53;alan parsons;{"title":"alan parsons"}
54;alan parsons project;{"title":"alan parsons project"}
55;alan tam;{"title":"alan tam"}
56;alan vega;{"title":"alan vega"}
57;alanis morisette;{"title":"alanis morisette"}
58;alanis morissette;{"title":"alanis morissette"}
59;alannah myles;{"title":"alannah myles"}
60;alberta hunter;{"title":"alberta hunter"}
61;alejandro sanz;{"title":"alejandro sanz"}
62;alesha dixon;{"title":"alesha dixon"}
63;alessia cara;{"title":"alessia cara"}
64;alestorm;{"title":"alestorm"}
65;alex aiono;{"title":"alex aiono"}
66;alex dezen;{"title":"alex dezen"}
67;alex metric;{"title":"alex metric"}
68;alex newell;{"title":"alex newell"}
69;alexander "skip" spence,alexander spence,alexander spence;{"title":"alexander "skip" spence"}
70;alexander rybak;{"title":"alexander rybak"}
71;alexis jordan;{"title":"alexis jordan"}
72;alice cooper;{"title":"alice cooper"}
73;alice in chains;{"title":"alice in chains"}
74;alice nine;{"title":"alice nine"}
75;alicia keys;{"title":"alicia keys"}
76;alison balsom;{"title":"alison balsom"}
77;alison sudol;{"title":"alison sudol"}
78;alissa white-gluz,alissa white gluz;{"title":"alissa white-gluz"}
79;all that remains;{"title":"all that remains"}
80;all time low;{"title":"all time low"}
81;all-4-one,all for one;{"title":"all-4-one,all for one"}
82;allison moorer;{"title":"allison moorer"}
83;allman brothers band;{"title":"allman brothers band"}
84;allstar weekend;{"title":"allstar weekend"}
85;ally brooke;{"title":"ally brooke"}
86;alma gluck;{"title":"alma gluck"}
87;alphabeat;{"title":"alphabeat"}
88;alphaville;{"title":"alphaville"}
89;alsou;{"title":"alsou"}
90;alt-j,alt j;{"title":"alt-j"}
91;alter bridge;{"title":"alter bridge"}
92;amanda marshall;{"title":"amanda marshall"}
93;america;{"title":"america"}
94;amon amarth;{"title":"amon amarth"}
95;amos lee;{"title":"amos lee"}
96;amy grant;{"title":"amy grant"}
97;amy lee;{"title":"amy lee"}
98;amy winehouse;{"title":"amy winehouse"}
99;ana moura;{"title":"ana moura"}
100;anastacia;{"title":"anastacia"}
101;anberlin;{"title":"anberlin"}
102;andania suri;{"title":"andania suri"}
103;anderson east;{"title":"anderson east"}
104;andra day;{"title":"andra day"}
105;andre hazes;{"title":"andre hazes"}
106;andrea bocelli;{"title":"andrea bocelli"}
107;andrea daly;{"title":"andrea daly"}
108;angels & airwaves;{"title":"angels & airwaves"}
109;anita baker;{"title":"anita baker"}
110;anitta;{"title":"anitta"}
111;anna held;{"title":"anna held"}
112;annabel jones;{"title":"annabel jones"}
113;anne murray;{"title":"anne murray"}
114;anne-marie,anne marie;{"title":"anne-marie"}
115;anneke van giersbergen;{"title":"anneke van giersbergen"}
116;annie lennox;{"title":"annie lennox"}
117;annie moses band;{"title":"annie moses band"}
118;annihilator;{"title":"annihilator"}
119;anouk;{"title":"anouk"}
120;anthony kiedis;{"title":"anthony kiedis"}
121;anthrax;{"title":"anthrax"}
122;anti-flag,anti flag;{"title":"anti-flag"}
123;apocalyptica;{"title":"apocalyptica"}
124;aqua;{"title":"aqua"}
125;arbeid adelt;{"title":"arbeid adelt"}
126;archie bell and the drells;{"title":"archie bell & the drells"}
127;architects;{"title":"architects"}
128;aretha franklin;{"title":"aretha franklin"}
129;ariana grande;{"title":"ariana grande"}
130;armin van buuren;{"title":"armin van buuren"}
131;arnel pineda;{"title":"arnel pineda"}
132;arrested development;{"title":"arrested development"}
133;art blakey and the jazz messengers,art blakey,jazz messengers;{"title":"art blakey and the jazz messengers"}
134;art brut;{"title":"art brut"}
135;art of noise;{"title":"art of noise"}
136;artemis quartet;{"title":"artemis quartet"}
137;arthur mcarthur;{"title":"arthur mcarthur"}
138;as it is;{"title":"as it is"}
139;asha bhosle;{"title":"asha bhosle"}
140;ashanti;{"title":"ashanti"}
141;asher roth;{"title":"asher roth"}
142;ashes divide;{"title":"ashes divide"}
143;ashlee simpson;{"title":"ashlee simpson"}
144;ashley tisdale;{"title":"ashley tisdale"}
145;ashton shepherd;{"title":"ashton shepherd"}
146;astrid s;{"title":"astrid s"}
147;atlas genius;{"title":"atlas genius"}
148;atomic rooster;{"title":"atomic rooster"}
149;atreyu;{"title":"atreyu"}
150;auburn;{"title":"auburn"}
151;audioslave;{"title":"audioslave"}
152;audra mae;{"title":"audra mae"}
153;august alsina;{"title":"august alsina"}
154;august burns red;{"title":"august burns red"}
155;aura dione;{"title":"aura dione"}
156;aurora orchestra;{"title":"aurora orchestra"}
157;auryn;{"title":"auryn"}
158;austin butler;{"title":"austin butler"}
159;avenged sevenfold;{"title":"avenged sevenfold"}
160;avicii;{"title":"avicii"}
161;avril lavigne,lavigne,avril;{"title":"avril lavigne"}
162;axl rose;{"title":"axl rose"}
163;ayo;{"title":"ayọ"}
164;b b king;{"title":"b b king"}
165;b money;{"title":"b money"}
166;b o b, bob;{"title":"b.o.b"}
167;b1a 4;{"title":"b1a4"}
168;baba saad;{"title":"baba saad"}
169;babe ruth;{"title":"babe ruth"}
170;baby huey;{"title":"baby huey"}
171;babyface;{"title":"babyface"}
172;backstreet boys;{"title":"backstreet boys"}
173;bad company;{"title":"bad company"}
174;bad religion;{"title":"bad religion"}
175;badfinger;{"title":"badfinger"}
176;barbra streisand;{"title":"barbra streisand"}
177;barei;{"title":"barei"}
178;barry gibb;{"title":"barry gibb"}
179;barry hay;{"title":"barry hay"}
180;barry manilow;{"title":"barry manilow"}
181;barry white;{"title":"barry white"}
182;basshunter;{"title":"basshunter"}
183;bastille;{"title":"bastille"}
184;bat for lashes;{"title":"bat for lashes"}
185;batmobile;{"title":"batmobile"}
186;battlecross;{"title":"battlecross"}
187;beast;{"title":"beast"}
188;bebe rexha;{"title":"bebe rexha"}
189;bee gees;{"title":"bee gees"}
190;begum akhtar;{"title":"begum akhtar"}
191;behemoth;{"title":"behemoth"}
192;belinda peregrín;{"title":"belinda peregrín"}
193;ben e king,ben king;{"title":"ben e. king"}
194;ben harper;{"title":"ben harper"}
195;ben jelen;{"title":"ben jelen"}
196;ben lee;{"title":"ben lee"}
197;ben liebrand;{"title":"ben liebrand"}
198;beni arashiro;{"title":"beni arashiro"}
199;benjamin herman;{"title":"benjamin herman"}
200;benny benassi;{"title":"benny benassi"}
201;benny sings;{"title":"benny sings"}
202;bernie worrell;{"title":"bernie worrell"}
203;bessie smith;{"title":"bessie smith"}
204;beth hart;{"title":"beth hart"}
205;bette midler;{"title":"bette midler"}
206;betty wright;{"title":"betty wright"}
207;beverley martyn;{"title":"beverley martyn"}
208;beyonce knowles;{"title":"beyonce knowles"}
209;beyoncé,beyonce;{"title":"beyoncé"}
210;bg;{"title":"bg"}
211;bhimsen joshi;{"title":"bhimsen joshi"}
212;bhupen hazarika;{"title":"bhupen hazarika"}
213;biffy clyro;{"title":"biffy clyro"}
214;big and rich;{"title":"big & rich"}
215;big ali;{"title":"big ali"}
216;big bang;{"title":"big bang"}
217;big brother and the holding company, big brother;{"title":"big brother and the holding company"}
218;big jim sullivan;{"title":"big jim sullivan"}
219;big sean;{"title":"big sean"}
220;big time rush;{"title":"big time rush"}
221;bigbang;{"title":"bigbang"}
222;bill evans;{"title":"bill evans"}
223;bill frisell;{"title":"bill frisell"}
224;bill haley and his comets,bill haley;{"title":"bill haley and his comets"}
225;bill withers;{"title":"bill withers"}
226;bill wyman;{"title":"bill wyman"}
227;billie joe armstrong;{"title":"billie joe armstrong"}
228;billy blue;{"title":"billy blue"}
229;billy joel;{"title":"billy joel"}
230;billy ray cyrus;{"title":"billy ray cyrus"}
231;bing crosby;{"title":"bing crosby"}
232;bintangs;{"title":"bintangs"}
233;birdman;{"title":"birdman"}
234;birdy;{"title":"birdy"}
235;birgit nilsson;{"title":"birgit nilsson"}
236;birth control;{"title":"birth control"}
237;bishop lamont;{"title":"bishop lamont"}
238;bjork;{"title":"bjork"}
239;black dub;{"title":"black dub"}
240;black francis;{"title":"black francis"}
241;black label society;{"title":"black label society"}
242;black rebel motorcycle club;{"title":"black rebel motorcycle club"}
243;black tide;{"title":"black tide"}
244;black veil brides;{"title":"black veil brides"}
245;blake shelton;{"title":"blake shelton"}
246;blaxy girls;{"title":"blaxy girls"}
247;blind guardian;{"title":"blind guardian"}
248;blind melon;{"title":"blind melon"}
249;blind willie mctell;{"title":"blind willie mctell"}
250;blink 182;{"title":"blink 182"}
251;blof;{"title":"blof"}
252;blonde;{"title":"blonde"}
253;blood raw;{"title":"blood raw"}
254;blood sweat and tears;{"title":"blood sweat & tears"}
255;bloomfield;{"title":"bloomfield"}
256;blue;{"title":"blue"}
257;blue october;{"title":"blue october"}
258;blue oyster cult;{"title":"blue Öyster cult"}
259;blues brothers;{"title":"blues brothers"}
260;blues dimension;{"title":"blues dimension"}
261;blues magoos;{"title":"blues magoos"}
262;blur;{"title":"blur"}
263;bob dylan;{"title":"bob dylan"}
264;bob geldof;{"title":"bob geldof"}
265;bob james;{"title":"bob james"}
266;bob marley;{"title":"bob marley"}
267;bob sinclar;{"title":"bob sinclar"}
268;bobby brown;{"title":"bobby brown"}
269;bobby shmurda;{"title":"bobby shmurda"}
270;bobby womack;{"title":"bobby womack"}
271;bohemia;{"title":"bohemia"}
272;bolt thrower;{"title":"bolt thrower"}
273;bombay rockers;{"title":"bombay rockers"}
274;bon jovi;{"title":"bon jovi"}
275;bon scott;{"title":"bon scott"}
276;bond;{"title":"bond"}
277;bone thugs n harmony,bone thugs and harmony;{"title":"bone thugs-n-harmony"}
278;bonnie raitt;{"title":"bonnie raitt"}
279;bono;{"title":"bono"}
280;booboo stewart;{"title":"booboo stewart"}
281;boogie down productions;{"title":"boogie down productions"}
282;booker t and the mgs;{"title":"booker t and the mg\'s"}
283;bootsys rubber band,booty rubber band;{"title":"bootsy's rubber band"}
284;boston;{"title":"boston"}
285;bow wow;{"title":"bow wow"}
286;box tops;{"title":"box tops"}
287;boy george;{"title":"boy george"}
288;boys republic;{"title":"boys republic"}
289;boyzone;{"title":"boyzone"}
290;brad douglas paisley;{"title":"brad douglas paisley"}
291;brand new;{"title":"brand new"}
292;brandy;{"title":"brandy"}
293;branford marsalis;{"title":"branford marsalis"}
294;breaking benjamin;{"title":"breaking benjamin"}
295;brett eldredge;{"title":"brett eldredge"}
296;brian austin green;{"title":"brian austin green"}
297;brian eno;{"title":"brian eno"}
298;brian moon;{"title":"brian moon"}
299;bridgit mendler;{"title":"bridgit mendler"}
300;britney spears;{"title":"britney spears"}
301;broederliefde;{"title":"broederliefde"}
302;broken bells;{"title":"broken bells"}
303;bruce hornsby and the range,bruce hornsby;{"title":"bruce hornsby & the range"}
304;bruce springsteen;{"title":"bruce springsteen"}
305;bruno mars;{"title":"bruno mars"}
306;bruut;{"title":"bruut"}
307;bryan adams;{"title":"bryan adams"}
308;btob;{"title":"btob"}
309;bts;{"title":"bts"}
310;buckcherry;{"title":"buckcherry"}
311;buckshot lefonque;{"title":"buckshot lefonque"}
312;buddy guy;{"title":"buddy guy"}
313;buddy holly;{"title":"buddy holly"}
314;buddy miles;{"title":"buddy miles"}
315;built to spill;{"title":"built to spill"}
316;bullet for my valentine;{"title":"bullet for my valentine"}
317;bun b;{"title":"bun b"}
318;buraka som sistema;{"title":"buraka som sistema"}
319;bush;{"title":"bush"}
320;bushido;{"title":"bushido"}
321;busta rhymes;{"title":"busta rhymes"}
322;busted;{"title":"busted"}
323;butthole surfers;{"title":"butthole surfers"}
324;buzzcocks;{"title":"buzzcocks"}
325;cab calloway;{"title":"cab calloway"}
326;cactus;{"title":"cactus"}
327;call it off;{"title":"call it off"}
328;calvin harris;{"title":"calvin harris"}
329;calvin jeremy;{"title":"calvin jeremy"}
330;camel;{"title":"camel"}
331;candi staton;{"title":"candi staton"}
332;candlebox;{"title":"candlebox"}
333;cane hill;{"title":"cane hill"}
334;cannibal corpse;{"title":"cannibal corpse"}
335;cantika felder;{"title":"cantika felder"}
336;caparezza;{"title":"caparezza"}
337;captain beefheart and his magic band,captain beefheart;{"title":"captain beefheart & his magic band"}
338;carla bruni;{"title":"carla bruni"}
339;carla thomas;{"title":"carla thomas"}
340;carlos do carmo;{"title":"carlos do carmo"}
341;carlos gardel;{"title":"carlos gardel"}
342;carlos santana;{"title":"carlos santana"}
343;carly simon;{"title":"carly simon"}
344;carnivore;{"title":"carnivore"}
345;carole king;{"title":"carole king"}
346;carrie underwood;{"title":"carrie underwood"}
347;casey and the pressure group,casey;{"title":"casey & the pressure group"}
348;cash cash;{"title":"cash cash"}
349;cassadee pope;{"title":"cassadee pope"}
350;cassie;{"title":"cassie"}
351;cat stevens;{"title":"cat stevens"}
352;catherine wheel;{"title":"catherine wheel"}
353;cee lo green;{"title":"cee lo green"}
354;celia cruz;{"title":"celia cruz"}
355;celine dion;{"title":"celine dion"}
356;cesaria evora;{"title":"cesaria evora"}
357;chaka khan;{"title":"chaka khan"}
358;chamillionaire;{"title":"chamillionaire"}
359;chance the rapper;{"title":"chance the rapper"}
360;chanel west coast;{"title":"chanel west coast"}
361;chantal kreviazuk;{"title":"chantal kreviazuk"}
362;charice;{"title":"charice"}
363;charl delemarre;{"title":"charl delemarre"}
364;charlee;{"title":"charlee"}
365;charles aznavour;{"title":"charles aznavour"}
366;charles brown;{"title":"charles brown"}
367;charles hamilton;{"title":"charles hamilton"}
368;charles mingus;{"title":"charles mingus"}
369;charli xcx;{"title":"charli xcx"}
370;charlie daniels;{"title":"charlie daniels"}
371;charlie puth;{"title":"charlie puth"}
372;charlie wilson;{"title":"charlie wilson"}
373;charlotte church;{"title":"charlotte church"}
374;cheap trick;{"title":"cheap trick"}
375;chefs special;{"title":"chef\'s special"}
376;chelsea grin;{"title":"chelsea grin"}
377;chenoa;{"title":"chenoa"}
378;cher;{"title":"cher"}
379;cher lloyd;{"title":"cher lloyd"}
380;cheryl cole;{"title":"cheryl cole"}
381;chester bennington;{"title":"chester bennington"}
382;chester french;{"title":"chester french"}
383;chet atkins and mark knopfler;{"title":"chet atkins & mark knopfler"}
384;chet baker;{"title":"chet baker"}
385;chevelle;{"title":"chevelle"}
386;chicago;{"title":"chicago"}
387;chicane;{"title":"chicane"}
388;chicken shack;{"title":"chicken shack"}
389;children collide;{"title":"children collide"}
390;children of bodom;{"title":"children of bodom"}
391;chisu;{"title":"chisu"}
392;choi jun-hee,choi jun hee;{"title":"choi jun-hee"}
393;chris cornell;{"title":"chris cornell"}
394;chris daughtry;{"title":"chris daughtry"}
395;chris de burgh;{"title":"chris de burgh"}
396;chris ledoux;{"title":"chris ledoux"}
397;chris martin;{"title":"chris martin"}
398;chris whitley;{"title":"chris whitley"}
399;chrisette michelle;{"title":"chrisette michelle"}
400;chrissy costanza;{"title":"chrissy costanza"}
401;christina aguilera;{"title":"christina aguilera"}
402;christina grimmie;{"title":"christina grimmie"}
403;christina milian;{"title":"christina milian"}
404;christina perri;{"title":"christina perri"}
405;christophe maé;{"title":"christophe maé"}
406;christopher cross;{"title":"christopher cross"}
407;christopher uckermann;{"title":"christopher uckermann"}
408;chuck d;{"title":"chuck d"}
409;ciara;{"title":"ciara"}
410;cimorelli;{"title":"cimorelli"}
411;cinderella;{"title":"cinderella"}
412;city boy;{"title":"city boy"}
413;claude kelly;{"title":"claude kelly"}
414;claudia de breij;{"title":"claudia de breij"}
415;clay aiken;{"title":"clay aiken"}
416;clean bandit;{"title":"clean bandit"}
417;clementino;{"title":"clementino"}
418;cliff richard;{"title":"cliff richard"}
419;clique girlz;{"title":"clique girlz"}
420;clouds;{"title":"clouds"}
421;club dogo;{"title":"club dogo"}
422;cn blue;{"title":"cn blue"}
423;coal chamber;{"title":"coal chamber"}
424;cockney rebel;{"title":"cockney rebel"}
425;coco lee;{"title":"coco lee"}
426;cody simpson;{"title":"cody simpson"}
427;colbie caillat;{"title":"colbie caillat"}
428;colby o'donis;{"title":"colby o'donis"}
429;coldplay;{"title":"coldplay"}
430;colin james;{"title":"colin james"}
431;colosseum;{"title":"colosseum"}
432;common;{"title":"common"}
433;connie stevens;{"title":"connie stevens"}
434;conor maynard;{"title":"conor maynard"}
435;conor oberst;{"title":"conor oberst"}
436;coolio;{"title":"coolio"}
437;corey feldman;{"title":"corey feldman"}
438;corey taylor;{"title":"corey taylor"}
439;cory gunz;{"title":"cory gunz"}
440;cowboy junkies;{"title":"cowboy junkies"}
441;cowboy troy;{"title":"cowboy troy"}
442;cradle of filth;{"title":"cradle of filth"}
443;craig david;{"title":"craig david"}
444;craig leon;{"title":"craig leon"}
445;cranes;{"title":"cranes"}
446;crash test dummies;{"title":"crash test dummies"}
447;crashdïet;{"title":"crashdïet"}
448;crazy town;{"title":"crazy town"}
449;cream;{"title":"cream"}
450;cree summer;{"title":"cree summer"}
451;crystal castles;{"title":"crystal castles"}
452;crystal fighters;{"title":"crystal fighters"}
453;crystal kay;{"title":"crystal kay"}
454;cuby and the blizzards,cuby;{"title":"cuby & the blizzards"}
455;cuca roseta;{"title":"cuca roseta"}
456;culture club;{"title":"culture club"}
457;currency;{"title":"currency"}
458;curtis mayfield;{"title":"curtis mayfield"}
459;cut copy;{"title":"cut copy"}
460;cyndi lauper;{"title":"cyndi lauper"}
461;cyndi wang;{"title":"cyndi wang"}
462;cypress hill;{"title":"cypress hill"}
463;d-side,d side;{"title":"d-side"}
464;da mouth;{"title":"da mouth"}
465;daddy yankee;{"title":"daddy yankee"}
466;daft punk;{"title":"daft punk"}
467;damien rice;{"title":"damien rice"}
468;dan seals;{"title":"dan seals"}
469;danger danger;{"title":"danger danger"}
470;daniel lanois;{"title":"daniel lanois"}
471;daniel merriweather;{"title":"daniel merriweather"}
472;daniel powter;{"title":"daniel powter"}
473;danity kane;{"title":"danity kane"}
474;dannii minogue;{"title":"dannii minogue"}
475;danzig;{"title":"danzig"}
476;darren espanto;{"title":"darren espanto"}
477;darude;{"title":"darude"}
478;dave brubeck quartet;{"title":"dave brubeck quartet"}
479;dave grohl;{"title":"dave grohl"}
480;dave mason;{"title":"dave mason"}
481;dave matthews;{"title":"dave matthews"}
482;dave matthews band;{"title":"dave matthews band"}
483;dave mustaine;{"title":"dave mustaine"}
484;dave stewart;{"title":"dave stewart"}
485;dave swarbrick & simon nicol;{"title":"dave swarbrick & simon nicol"}
486;dave wong;{"title":"dave wong"}
487;david banner;{"title":"david banner"}
488;david bisbal;{"title":"david bisbal"}
489;david bowie;{"title":"david bowie"}
490;david cook;{"title":"david cook"}
491;david coverdale;{"title":"david coverdale"}
492;david draiman;{"title":"david draiman"}
493;david fonseca;{"title":"david fonseca"}
494;david gates;{"title":"david gates"}
495;david gray;{"title":"david gray"}
496;david guetta;{"title":"david guetta"}
497;david nail;{"title":"david nail"}
498;david sanborn;{"title":"david sanborn"}
499;davy graham;{"title":"davy graham"}
500;dawn of ashes;{"title":"dawn of ashes"}
501;days difference;{"title":"days difference"}
502;de dijk;{"title":"de dijk"}
503;deacon blue;{"title":"deacon blue"}
504;dead by april;{"title":"dead by april"}
505;deadmau 5;{"title":"deadmau5"}
506;dean;{"title":"dean"}
507;dean martin;{"title":"dean martin"}
508;death;{"title":"death"}
509;death angel;{"title":"death angel"}
510;death cab for cutie;{"title":"death cab for cutie"}
511;debbie harry;{"title":"debbie harry"}
512;debi nova;{"title":"debi nova"}
513;dee dee bridgewater;{"title":"dee dee bridgewater"}
514;deee-lite,delite;{"title":"deee-lite"}
515;deep purple;{"title":"deep purple"}
516;deftones;{"title":"deftones"}
517;del tha funkee homosapien;{"title":"del tha funkee homosapien"}
518;delain;{"title":"delain"}
519;delinquent habits;{"title":"delinquent habits"}
520;delon;{"title":"delon"}
521;demi lovato;{"title":"demi lovato"}
522;dennis wilson;{"title":"dennis wilson"}
523;deodato;{"title":"deodato"}
524;depeche mode;{"title":"depeche mode"}
525;derek trucks band;{"title":"derek trucks band"}
526;desi arnaz;{"title":"desi arnaz"}
527;desiigner;{"title":"desiigner"}
528;devildriver;{"title":"devildriver"}
529;devo;{"title":"devo"}
530;dez fafara;{"title":"dez fafara"}
531;dhafer youssef;{"title":"dhafer youssef"}
532;diana ross;{"title":"diana ross"}
533;diddy;{"title":"diddy"}
534;dido;{"title":"dido"}
535;die antwoord;{"title":"die antwoord"}
536;dierks bentley;{"title":"dierks bentley"}
537;dima bilan;{"title":"dima bilan"}
538;dio;{"title":"dio"}
539;dire straits;{"title":"dire straits"}
540;dirty vegas;{"title":"dirty vegas"}
541;disturbed;{"title":"disturbed"}
542;divine brown;{"title":"divine brown"}
543;dizzee rascal;{"title":"dizzee rascal"}
544;dizzy gillespie;{"title":"dizzy gillespie"}
545;dj drama;{"title":"dj drama"}
546;dj krush;{"title":"dj krush"}
547;dj maestro;{"title":"dj maestro"}
548;doda;{"title":"doda"}
549;dokken;{"title":"dokken"}
550;dollar brand;{"title":"dollar brand"}
551;dolly parton;{"title":"dolly parton"}
552;don covay;{"title":"don covay"}
553;don johnson;{"title":"don johnson"}
554;don omar;{"title":"don omar"}
555;donna lewis;{"title":"donna lewis"}
556;donnie wahlberg;{"title":"donnie wahlberg"}
557;donny hathaway;{"title":"donny hathaway"}
558;doobie brothers;{"title":"doobie brothers"}
559;doris day;{"title":"doris day"}
560;dorothy dandridge;{"title":"dorothy dandridge"}
561;douwe bob;{"title":"douwe bob"}
562;down;{"title":"down"}
563;doctor dre;{"title":"dr. dre"}
564;doctor john;{"title":"dr. john"}
565;dragonforce;{"title":"dragonforce"}
566;drake;{"title":"drake"}
567;drake bell;{"title":"drake bell"}
568;dream theater;{"title":"dream theater"}
569;dreams come true;{"title":"dreams come true"}
570;dtidrik solli-tangenh;{"title":"dtidrik solli-tangenh"}
571;dua lipa;{"title":"dua lipa"}
572;duff mckagan;{"title":"duff mckagan"}
573;duffy;{"title":"duffy"}
574;duke ellington;{"title":"duke ellington"}
575;dulce maria;{"title":"dulce maria"}
576;duncan browne;{"title":"duncan browne"}
577;duran duran;{"title":"duran duran"}
578;dusty springfield;{"title":"dusty springfield"}
579;dwight yoakam;{"title":"dwight yoakam"}
580;d 12;{"title":"d12"}
581;eagles;{"title":"eagles"}
582;earth and fire;{"title":"earth and fire"}
583;earth wind & fire;{"title":"earth wind & fire"}
584;eason chan;{"title":"eason chan"}
585;eazy-e,easy e;{"title":"eazy-e"}
586;echosmith;{"title":"echosmith"}
587;ed sheeran;{"title":"ed sheeran"}
588;eddie harris;{"title":"eddie harris"}
589;eddie vedder;{"title":"eddie vedder"}
590;edgar broughton band;{"title":"edgar broughton band"}
591;edith piaf;{"title":"edith piaf"}
592;elbow;{"title":"elbow"}
593;electric wizard;{"title":"electric wizard"}
594;elena paparizou;{"title":"elena paparizou"}
595;elf;{"title":"elf"}
596;elhaida dani;{"title":"elhaida dani"}
597;ella eyre;{"title":"ella eyre"}
598;ella fitzgerald;{"title":"ella fitzgerald"}
599;ellie goulding;{"title":"ellie goulding"}
600;elliot moss;{"title":"elliot moss"}
601;elliott smith;{"title":"elliott smith"}
602;elmer gantry\'s velvet opera;{"title":"elmer gantry\'s velvet opera"}
603;elton john;{"title":"elton john"}
604;elvis costello;{"title":"elvis costello"}
605;elvis presley;{"title":"elvis presley"}
606;emily osment;{"title":"emily osment"}
607;emina jahović;{"title":"emina jahović"}
608;eminem;{"title":"eminem"}
609;emma bunton;{"title":"emma bunton"}
610;emmas imagination,emma imagination;{"title":"emma's imagination"}
611;emmelie de forest;{"title":"emmelie de forest"}
612;emmy rossum;{"title":"emmy rossum"}
613;emmylou harris;{"title":"emmylou harris"}
614;empire of the sun;{"title":"empire of the sun"}
615;enca;{"title":"enca"}
616;enigma;{"title":"enigma"}
617;ennio morricone;{"title":"ennio morricone"}
618;enrique iglesias;{"title":"enrique iglesias"}
619;enter shikari;{"title":"enter shikari"}
620;enya;{"title":"enya"}
621;epica;{"title":"epica"}
622;erena ono;{"title":"erena ono"}
623;eric clapton;{"title":"eric clapton"}
624;eric idle;{"title":"eric idle"}
625;eric papilaya;{"title":"eric papilaya"}
626;eric whitacre;{"title":"eric whitacre"}
627;eros ramazzotti;{"title":"eros ramazzotti"}
628;erykah badu;{"title":"erykah badu"}
629;escape the fate;{"title":"escape the fate"}
630;eskimo joe;{"title":"eskimo joe"}
631;estelle;{"title":"estelle"}
632;etta james;{"title":"etta james"}
633;europe;{"title":"europe"}
634;evanescence;{"title":"evanescence"}
635;everything but the girl;{"title":"everything but the girl"}
636;exodus;{"title":"exodus"}
637;extreme;{"title":"extreme"}
638;fabolous;{"title":"fabolous"}
639;fabri fibra;{"title":"fabri fibra"}
640;faith evans;{"title":"faith evans"}
641;faith hill;{"title":"faith hill"}
642;faith no more;{"title":"faith no more"}
643;faithless;{"title":"faithless"}
644;fall out boy;{"title":"fall out boy"}
645;far east movement;{"title":"far east movement"}
646;faryl smith;{"title":"faryl smith"}
647;faster pussycat;{"title":"faster pussycat"}
648;fats domino;{"title":"fats domino"}
649;fear factory;{"title":"fear factory"}
650;felli fel;{"title":"felli fel"}
651;fetty wap;{"title":"fetty wap"}
652;fever ray;{"title":"fever ray"}
653;fila brazillia;{"title":"fila brazillia"}
654;finger eleven;{"title":"finger eleven"}
655;finley quaye;{"title":"finley quaye"}
656;fiona sit;{"title":"fiona sit"}
657;fish leong;{"title":"fish leong"}
658;fishermans friends,fisherman friends;{"title":"fisherman's friends"}
659;flaco jimenez;{"title":"flaco jimenez"}
660;flaming groovies;{"title":"flamin' groovies"}
661;flaming lips;{"title":"flaming lips"}
662;flavor flav;{"title":"flavor flav"}
663;fleetwood mac;{"title":"fleetwood mac"}
664;flipsyde;{"title":"flipsyde"}
665;flo rida;{"title":"flo rida"}
666;florence and the machine;{"title":"florence and the machine"}
667;florence ballard;{"title":"florence ballard"}
668;florence foster jenkins;{"title":"florence foster jenkins"}
669;florent mothe;{"title":"florent mothe"}
670;flotsam and jetsam;{"title":"flotsam and jetsam"}
671;focus;{"title":"focus"}
672;foreigner;{"title":"foreigner"}
673;forest;{"title":"forest"}
674;forever the sickest kids;{"title":"forever the sickest kids"}
675;fort minor;{"title":"fort minor"}
676;fountains of wayne;{"title":"fountains of wayne"}
677;four tops;{"title":"four tops"}
678;fourplay;{"title":"fourplay"}
679;foy vance;{"title":"foy vance"}
680;frank boeijen;{"title":"frank boeijen"}
681;frank iero;{"title":"frank iero"}
682;frank marino and mahogany rush,frank marino;{"title":"frank marino & mahogany rush"}
683;frank sinatra;{"title":"frank sinatra"}
684;frankie avalon;{"title":"frankie avalon"}
685;frankie ballard;{"title":"frankie ballard"}
686;frankie goes to hollywood;{"title":"frankie goes to hollywood"}
687;frankie miller;{"title":"frankie miller"}
688;frankie valli;{"title":"frankie valli"}
689;fratellis;{"title":"fratellis"}
690;fred astaire;{"title":"fred astaire"}
691;fred wesley;{"title":"fred wesley"}
692;freddie hubbard;{"title":"freddie hubbard"}
693;freddie mercury;{"title":"freddie mercury"}
694;free;{"title":"free"}
695;freezepop;{"title":"freezepop"}
696;frente!;{"title":"frente!"}
697;freur;{"title":"freur"}
698;frightened rabbit;{"title":"frightened rabbit"}
699;front line assembly;{"title":"front line assembly"}
700;fruupp;{"title":"fruupp"}
701;fu-schnickens,fuschnickens;{"title":"fu-schnickens"}
702;fugees;{"title":"fugees"}
703;fun loving criminals;{"title":"fun lovin' criminals"}
704;funeral for a friend;{"title":"funeral for a friend"}
705;funkdoobiest;{"title":"funkdoobiest"}
706;garbage;{"title":"garbage"}
707;gare du nord;{"title":"gare du nord"}
708;gary allan;{"title":"gary allan"}
709;gary moore band;{"title":"gary moore band"}
710;gavin rossdale;{"title":"gavin rossdale"}
711;gene clark;{"title":"gene clark"}
712;gene simmons;{"title":"gene simmons"}
713;gene summers;{"title":"gene summers"}
714;genesis;{"title":"genesis"}
715;george;{"title":"george"}
716;george benson;{"title":"george benson"}
717;george duke;{"title":"george duke"}
718;george harrison;{"title":"george harrison"}
719;george lam;{"title":"george lam"}
720;george m cohan,george cohan;{"title":"george m. cohan"}
721;george michael;{"title":"george michael"}
722;george strait;{"title":"george strait"}
723;gerard way;{"title":"gerard way"}
724;ghostface killah;{"title":"ghostface killah"}
725;gianna nannini;{"title":"gianna nannini"}
726;gilbert becaud;{"title":"gilbert becaud"}
727;girlicious;{"title":"girlicious"}
728;girls generation;{"title":"girls' generation"}
729;glasses malone;{"title":"glasses malone"}
730;glassjaw;{"title":"glassjaw"}
731;glen matlock;{"title":"glen matlock"}
732;glenn frey;{"title":"glenn frey"}
733;gloria estefan;{"title":"gloria estefan"}
734;gloria jessica;{"title":"gloria jessica"}
735;gloria trevi;{"title":"gloria trevi"}
736;gloriana;{"title":"gloriana"}
737;gnarls barkley;{"title":"gnarls barkley"}
738;go back to the zoo;{"title":"go back to the zoo"}
739;godsmack;{"title":"godsmack"}
740;gojira;{"title":"gojira"}
741;golden earring;{"title":"golden earring"}
742;goo goo dolls;{"title":"goo goo dolls"}
743;gorilla zoe;{"title":"gorilla zoe"}
744;gorillaz;{"title":"gorillaz"}
745;gotye;{"title":"gotye"}
746;grace jones;{"title":"grace jones"}
747;grace moore;{"title":"grace moore"}
748;grace potter;{"title":"grace potter"}
749;grace slick;{"title":"grace slick"}
750;graham central station;{"title":"graham central station"}
751;grand funk railroad;{"title":"grand funk railroad"}
752;grant gustin;{"title":"grant gustin"}
753;grant landis;{"title":"grant landis"}
754;grant lee buffalo;{"title":"grant lee buffalo"}
755;green day;{"title":"green day"}
756;grover washington jr.;{"title":"grover washington jr."}
757;gruppo sportivo;{"title":"gruppo sportivo"}
758;guan zhe;{"title":"guan zhe"}
759;guano apes;{"title":"guano apes"}
760;gucci mane;{"title":"gucci mane"}
761;guns n roses,guns and roses;{"title":"guns n' roses"}
762;guru;{"title":"guru"}
763;gwar;{"title":"gwar"}
764;gwen stefani;{"title":"gwen stefani"}
765;gym class heroes;{"title":"gym class heroes"}
766;gyroscope;{"title":"gyroscope"}
767;gunther and the sunshine girls;{"title":"günther & the sunshine girls"}
768;hacken lee;{"title":"hacken lee"}
769;haddaway;{"title":"haddaway"}
770;hale;{"title":"hale"}
771;halestorm;{"title":"halestorm"}
772;haley bonar;{"title":"haley bonar"}
773;hall and oates;{"title":"hall & oates"}
774;halsey;{"title":"halsey"}
775;hammerfall;{"title":"hammerfall"}
776;hank williams;{"title":"hank williams"}
777;hard fi;{"title":"hard-fi"}
778;harris j.;{"title":"harris j."}
779;harry chapin;{"title":"harry chapin"}
780;harry connick, jr.;{"title":"harry connick, jr."}
781;harry nilsson;{"title":"harry nilsson"}
782;harry styles;{"title":"harry styles"}
783;hayley williams;{"title":"hayley williams"}
784;heart;{"title":"heart"}
785;heaven and hell;{"title":"heaven & hell"}
786;heidi montag;{"title":"heidi montag"}
787;helen carter;{"title":"helen carter"}
788;helena paparizou;{"title":"helena paparizou"}
789;helene fischer;{"title":"helene fischer"}
790;hellogoodbye;{"title":"hellogoodbye"}
791;helloween;{"title":"helloween"}
792;henrik schwarz;{"title":"henrik schwarz"}
793;herbie hancock;{"title":"herbie hancock"}
794;herbie mann;{"title":"herbie mann"}
795;herbie mann & joao gilberto;{"title":"herbie mann & joao gilberto"}
796;herman brood;{"title":"herman brood"}
797;hiatus kaiyote;{"title":"hiatus kaiyote"}
798;hikaru utada;{"title":"hikaru utada"}
799;hilary duff;{"title":"hilary duff"}
800;him;{"title":"him"}
801;hinder;{"title":"hinder"}
802;hins cheung;{"title":"hins cheung"}
803;hole;{"title":"hole"}
804;holly williams;{"title":"holly williams"}
805;hollywood monsters;{"title":"hollywood monsters"}
806;hollywood undead;{"title":"hollywood undead"}
807;home and away;{"title":"home and away"}
808;hoobastank;{"title":"hoobastank"}
809;hoodoo gurus;{"title":"hoodoo gurus"}
810;hootie and the blowfish;{"title":"hootie and the blowfish"}
811;hooverphonic;{"title":"hooverphonic"}
812;hope sandoval;{"title":"hope sandoval"}
813;hot chelle rae;{"title":"hot chelle rae"}
814;hot chocolate;{"title":"hot chocolate"}
815;hot rod;{"title":"hot rod"}
816;hot tuna;{"title":"hot tuna"}
817;house of pain;{"title":"house of pain"}
818;howard jones;{"title":"howard jones"}
819;howling wolf;{"title":"howlin' wolf"}
820;howling bells;{"title":"howling bells"}
821;hozier;{"title":"hozier"}
822;huey lewis;{"title":"huey lewis"}
823;huey lewis and the news;{"title":"huey lewis and the news"}
824;hunter hayes;{"title":"hunter hayes"}
825;hyper crush;{"title":"hyper crush"}
826;i blame coco;{"title":"i blame coco"}
827;i prevail;{"title":"i prevail"}
828;ian mackaye;{"title":"ian mackaye"}
829;ice cube;{"title":"ice cube"}
830;ice nine kills;{"title":"ice nine kills"}
831;ice t;{"title":"ice-t"}
832;ida maria;{"title":"ida maria"}
833;idina menzel;{"title":"idina menzel"}
834;iggy azalea;{"title":"iggy azalea"}
835;iggy pop;{"title":"iggy pop"}
836;il volo;{"title":"il volo"}
837;ilona staller;{"title":"ilona staller"}
838;ilya;{"title":"ilya"}
839;imagine dragons;{"title":"imagine dragons"}
840;imelda may;{"title":"imelda may"}
841;in dread response;{"title":"in dread response"}
842;in flames;{"title":"in flames"}
843;in this moment;{"title":"in this moment"}
844;incubus;{"title":"incubus"}
845;indah nevertari;{"title":"indah nevertari"}
846;india.arie;{"title":"india.arie"}
847;indigo girls;{"title":"indigo girls"}
848;infected mushroom;{"title":"infected mushroom"}
849;infinite;{"title":"infinite"}
850;inna;{"title":"inna"}
851;inner circle;{"title":"inner circle"}
852;institute;{"title":"institute"}
853;intan ayu purnama;{"title":"intan ayu purnama"}
854;iron and wine;{"title":"iron & wine"}
855;iron maiden;{"title":"iron maiden"}
856;ironik;{"title":"ironik"}
857;isabella castillo;{"title":"isabella castillo"}
858;isley brothers;{"title":"isley brothers"}
859;israel vibration;{"title":"israel vibration"}
860;iu;{"title":"iu"}
861;ivete sangalo;{"title":"ivete sangalo"}
862;iyaz;{"title":"iyaz"}
863;izzy stradlin;{"title":"izzy stradlin"}
864;izzy stradlin and the ju ju hounds;{"title":"izzy stradlin and the ju ju hounds"}
865;ja rule;{"title":"ja rule"}
866;jack black;{"title":"jack black"}
867;jack johnson;{"title":"jack johnson"}
868;jacks mannequin;{"title":"jack's mannequin"}
869;jackson browne;{"title":"jackson browne"}
870;jacky cheung;{"title":"jacky cheung"}
871;jaco pastorius;{"title":"jaco pastorius"}
872;jacob whitesides;{"title":"jacob whitesides"}
873;jacquees;{"title":"jacquees"}
874;jacques brel;{"title":"jacques brel"}
875;jada;{"title":"jada"}
876;jadakiss;{"title":"jadakiss"}
877;jaden smith;{"title":"jaden smith"}
878;jadyn maria;{"title":"jadyn maria"}
879;jae millz;{"title":"jae millz"}
880;jagjit singh;{"title":"jagjit singh"}
881;jai waetford;{"title":"jai waetford"}
882;jake miller;{"title":"jake miller"}
883;jam hsiao;{"title":"jam hsiao"}
884;james blunt;{"title":"james blunt"}
885;james ingram;{"title":"james ingram"}
886;james morrison;{"title":"james morrison"}
887;james taylor;{"title":"james taylor"}
888;jamie foxx;{"title":"jamie foxx"}
889;jamie lynn spears;{"title":"jamie lynn spears"}
890;jamiroquai;{"title":"jamiroquai"}
891;jana kramer;{"title":"jana kramer"}
892;jane krakowski;{"title":"jane krakowski"}
893;jane wyman;{"title":"jane wyman"}
894;jane's addiction;{"title":"jane's addiction"}
895;janet jackson;{"title":"janet jackson"}
896;janice;{"title":"janice"}
897;janis ian;{"title":"janis ian"}
898;janis joplin;{"title":"janis joplin"}
899;jasmine villegas;{"title":"jasmine villegas"}
900;jason derulo;{"title":"jason derulo"}
901;jason dy;{"title":"jason dy"}
902;jason mraz;{"title":"jason mraz"}
903;jason newsted;{"title":"jason newsted"}
904;jay hardway;{"title":"jay hardway"}
905;jay sean;{"title":"jay sean"}
906;jay z;{"title":"jay-z"}
907;jedward;{"title":"jedward"}
908;jeff beck;{"title":"jeff beck"}
909;jeff buckley;{"title":"jeff buckley"}
910;jeff healey;{"title":"jeff healey"}
911;jefferson airplane;{"title":"jefferson airplane"}
912;jeffree star;{"title":"jeffree star"}
913;jena kraus;{"title":"jena kraus"}
914;jenni vartiainen;{"title":"jenni vartiainen"}
915;jennifer lopez;{"title":"jennifer lopez"}
916;jenny lewis;{"title":"jenny lewis"}
917;jeremih;{"title":"jeremih"}
918;jeremy jordan;{"title":"jeremy jordan"}
919;jerry cantrell;{"title":"jerry cantrell"}
920;jerry garcia;{"title":"jerry garcia"}
921;jerry lee lewis;{"title":"jerry lee lewis"}
922;jerry lewis;{"title":"jerry lewis"}
923;jess lee;{"title":"jess lee"}
924;jess mills;{"title":"jess mills"}
925;jesse and joy;{"title":"jesse & joy"}
926;jesse leach;{"title":"jesse leach"}
927;jesse mccartney;{"title":"jesse mccartney"}
928;jessi malay;{"title":"jessi malay"}
929;jessica mauboy;{"title":"jessica mauboy"}
930;jessica sanchez;{"title":"jessica sanchez"}
931;jessica simpson;{"title":"jessica simpson"}
932;jessie j;{"title":"jessie j"}
933;jessie james;{"title":"jessie james"}
934;jesy nelson;{"title":"jesy nelson"}
935;jet;{"title":"jet"}
936;jethro tull;{"title":"jethro tull"}
937;jett rebel;{"title":"jett rebel"}
938;jewel;{"title":"jewel"}
939;jim morrison;{"title":"jim morrison"}
940;jimi hendrix;{"title":"jimi hendrix"}
941;jimmie dale gilmore;{"title":"jimmie dale gilmore"}
942;jimmy durante;{"title":"jimmy durante"}
943;jimmy eat world;{"title":"jimmy eat world"}
944;jimmy scott;{"title":"jimmy scott"}
945;jin akanishi;{"title":"jin akanishi"}
946;jin au yeung;{"title":"jin au-yeung"}
947;jj lin;{"title":"jj lin"}
948;jls;{"title":"jls"}
949;joana zimmer;{"title":"joana zimmer"}
950;jocie kok;{"title":"jocie kok"}
951;joe cocker;{"title":"joe cocker"}
952;joe jackson;{"title":"joe jackson"}
953;joe satriani;{"title":"joe satriani"}
954;joe vitale;{"title":"joe vitale"}
955;joey feek;{"title":"joey feek"}
956;joey ramone;{"title":"joey ramone"}
957;john butler trio;{"title":"john butler trio"}
958;john cale;{"title":"john cale"}
959;john campbell;{"title":"john campbell"}
960;john cena;{"title":"john cena"}
961;john denver;{"title":"john denver"}
962;john lee hooker;{"title":"john lee hooker"}
963;john legend;{"title":"john legend"}
964;john lennon;{"title":"john lennon"}
965;john mayer;{"title":"john mayer"}
966;john mayer trio;{"title":"john mayer trio"}
967;john mellencamp;{"title":"john mellencamp"}
968;john oates;{"title":"john oates"}
969;john renbourn;{"title":"john renbourn"}
970;john scofield;{"title":"john scofield"}
971;john williams;{"title":"john williams"}
972;john williamson;{"title":"john williamson"}
973;john zorn;{"title":"john zorn"}
974;johnnie taylor;{"title":"johnnie taylor"}
975;johnny cash;{"title":"johnny cash"}
976;johnny hallyday;{"title":"johnny hallyday"}
977;johnta austin;{"title":"johnta austin"}
978;jojo;{"title":"jojo"}
979;jolin tsai;{"title":"jolin tsai"}
980;jon bon jovi;{"title":"jon bon jovi"}
981;jonathan richman and the modern lovers,jonathan richman;{"title":"jonathan richman & the modern lovers"}
982;joni mitchell;{"title":"joni mitchell"}
983;jor;{"title":"jor"}
984;jordan bratton;{"title":"jordan bratton"}
985;jordan chan;{"title":"jordan chan"}
986;jordin sparks;{"title":"jordin sparks"}
987;jorge drexler;{"title":"jorge drexler"}
988;josephine baker;{"title":"josephine baker"}
989;josh dun;{"title":"josh dun"}
990;josh gracin;{"title":"josh gracin"}
991;josh groban;{"title":"josh groban"}
992;josh turner;{"title":"josh turner"}
993;joshua ledet;{"title":"joshua ledet"}
994;joss stone;{"title":"joss stone"}
995;jose carreras;{"title":"josé carreras"}
996;journey;{"title":"journey"}
997;jovanotti;{"title":"jovanotti"}
998;juan karlos labajo;{"title":"juan karlos labajo"}
999;juanes;{"title":"juanes"}
1000;judee sill;{"title":"judee sill"}
1001;judy garland;{"title":"judy garland"}
1002;juelz santana;{"title":"juelz santana"}
1003;julee cruise;{"title":"julee cruise"}
1004;julia michaels;{"title":"julia michaels"}
1005;julian casablancas;{"title":"julian casablancas"}
1006;julie andrews;{"title":"julie andrews"}
1007;julien k;{"title":"julien-k"}
1008;june carter cash;{"title":"june carter cash"}
1009;justin bieber;{"title":"justin bieber"}
1010;justin timberlake;{"title":"justin timberlake"}
1011;justin tranter;{"title":"justin tranter"}
1012;jyj;{"title":"jyj"}
1013;kacey musgraves;{"title":"kacey musgraves"}
1014;kaitlyn maher;{"title":"kaitlyn maher"}
1015;kamelot;{"title":"kamelot"}
1016;kane;{"title":"kane"}
1017;kansas;{"title":"kansas"}
1018;kanye west;{"title":"kanye west"}
1019;kara;{"title":"kara"}
1020;kardinal offishall;{"title":"kardinal offishall"}
1021;karen mok;{"title":"karen mok"}
1022;karkadan;{"title":"karkadan"}
1023;karlie redd;{"title":"karlie redd"}
1024;kat deluna;{"title":"kat deluna"}
1025;kate bush;{"title":"kate bush"}
1026;kate earl;{"title":"kate earl"}
1027;kate nash;{"title":"kate nash"}
1028;katharine mcphee;{"title":"katharine mcphee"}
1029;katherine jenkins;{"title":"katherine jenkins"}
1030;katy perry;{"title":"katy perry"}
1031;katy tiz;{"title":"katy tiz"}
1032;keith richards;{"title":"keith richards"}
1033;keith sweat;{"title":"keith sweat"}
1034;keith urban;{"title":"keith urban"}
1035;keke palmer;{"title":"keke palmer"}
1036;kelis;{"title":"kelis"}
1037;kellin quinn;{"title":"kellin quinn"}
1038;kelly clarkson;{"title":"kelly clarkson"}
1039;kelly rowland;{"title":"kelly rowland"}
1040;kelvin tan wei lian;{"title":"kelvin tan wei lian"}
1041;kendall schmidt;{"title":"kendall schmidt"}
1042;kenji wu;{"title":"kenji wu"}
1043;kenny chesney;{"title":"kenny chesney"}
1044;kenny rogers;{"title":"kenny rogers"}
1045;kensington;{"title":"kensington"}
1046;keri hilson;{"title":"keri hilson"}
1047;keshia chanté;{"title":"keshia chanté"}
1048;kevin ayers;{"title":"kevin ayers"}
1049;kevin ayers and the whole world;{"title":"kevin ayers and the whole world"}
1050;kevin gates;{"title":"kevin gates"}
1051;kevin mchale;{"title":"kevin mchale"}
1052;kevin rudolf;{"title":"kevin rudolf"}
1053;keyshia cole;{"title":"keyshia cole"}
1054;khalil fong;{"title":"khalil fong"}
1055;kiari cephus;{"title":"kiari cephus"}
1056;kid cudi;{"title":"kid cudi"}
1057;kid rock;{"title":"kid rock"}
1058;kidz bop kids;{"title":"kidz bop kids"}
1059;kiiara;{"title":"kiiara"}
1060;kill hannah;{"title":"kill hannah"}
1061;killing joke;{"title":"killing joke"}
1062;killswitch engage;{"title":"killswitch engage"}
1063;kim hyun joong;{"title":"kim hyun joong"}
1064;kim taehyung;{"title":"kim taehyung"}
1065;kim zolciak;{"title":"kim zolciak"}
1066;kimberly perry;{"title":"kimberly perry"}
1067;kimberly schlapman;{"title":"kimberly schlapman"}
1068;kimbra;{"title":"kimbra"}
1069;king curtis;{"title":"king curtis"}
1070;king diamond;{"title":"king diamond"}
1071;kings of leon;{"title":"kings of leon"}
1072;kinky friedman;{"title":"kinky friedman"}
1073;kirko bangz;{"title":"kirko bangz"}
1074;kishore kumar;{"title":"kishore kumar"}
1075;knight area;{"title":"knight area"}
1076;kodak black;{"title":"kodak black"}
1077;kool keith;{"title":"kool keith"}
1078;kooper;{"title":"kooper"}
1079;korn;{"title":"korn"}
1080;kris kristofferson;{"title":"kris kristofferson"}
1081;krista siegfrids;{"title":"krista siegfrids"}
1082;kristen bell;{"title":"kristen bell"}
1083;kuba oms;{"title":"kuba oms"}
1084;kula shaker;{"title":"kula shaker"}
1085;kumar gandharva;{"title":"kumar gandharva"}
1086;kurt cobain;{"title":"kurt cobain"}
1087;kwabs;{"title":"kwabs"}
1088;kyary pamyu pamyu;{"title":"kyary pamyu pamyu"}
1089;kyle;{"title":"kyle"}
1090;kylie minogue;{"title":"kylie minogue"}
1091;kyuss;{"title":"kyuss"}
1092;la roux;{"title":"la roux"}
1093;lacey chabert;{"title":"lacey chabert"}
1094;lady gaga;{"title":"lady gaga"}
1095;ladyhawke;{"title":"ladyhawke"}
1096;laleh;{"title":"laleh"}
1097;lamb;{"title":"lamb"}
1098;lamb of god;{"title":"lamb of god"}
1099;lana del rey;{"title":"lana del rey"}
1100;lara fabian;{"title":"lara fabian"}
1101;larry graham and graham central station;{"title":"larry graham and graham central station"}
1102;lata mangeshkar;{"title":"lata mangeshkar"}
1103;laura pausini;{"title":"laura pausini"}
1104;lauren cimorelli;{"title":"lauren cimorelli"}
1105;lauren jauregui;{"title":"lauren jauregui"}
1106;lauryn hill;{"title":"lauryn hill"}
1107;lavern baker;{"title":"lavern baker"}
1108;lavinia meijer;{"title":"lavinia meijer"}
1109;lavive;{"title":"lavive"}
1110;lawson;{"title":"lawson"}
1111;lazy mutha fucka;{"title":"lazy mutha fucka"}
1112;leann rimes;{"title":"leann rimes"}
1113;led zeppelin;{"title":"led zeppelin"}
1114;lee ann womack;{"title":"lee ann womack"}
1115;lee hoi chuen;{"title":"lee hoi-chuen"}
1116;lee ritenour;{"title":"lee ritenour"}
1117;leftfield;{"title":"leftfield"}
1118;lena horne;{"title":"lena horne"}
1119;lena meyer landrut;{"title":"lena meyer-landrut"}
1120;leon redbone;{"title":"leon redbone"}
1121;leonard cohen;{"title":"leonard cohen"}
1122;leslie cheung;{"title":"leslie cheung"}
1123;leslie grace;{"title":"leslie grace"}
1124;lewis watson;{"title":"lewis watson"}
1125;li ronghao;{"title":"li ronghao"}
1126;liam gallagher;{"title":"liam gallagher"}
1127;liam payne;{"title":"liam payne"}
1128;life of agony;{"title":"life of agony"}
1129;lifehouse;{"title":"lifehouse"}
1130;lights;{"title":"lights"}
1131;lil dicky;{"title":"lil dicky"}
1132;lil durk;{"title":"lil durk"}
1133;lil ru;{"title":"lil ru"}
1134;lil scrappy;{"title":"lil scrappy"}
1135;lil twist;{"title":"lil twist"}
1136;lil uzi vert;{"title":"lil uzi vert"}
1137;lil wayne;{"title":"lil wayne"}
1138;lil yachty;{"title":"lil yachty"}
1139;lil kim;{"title":"lil' kim"}
1140;lily allen;{"title":"lily allen"}
1141;lim hyung joo;{"title":"lim hyung joo"}
1142;limp bizkit;{"title":"limp bizkit"}
1143;linda ronstadt;{"title":"linda ronstadt"}
1144;lindsay lohan;{"title":"lindsay lohan"}
1145;linkin park;{"title":"linkin park"}
1146;lionel richie;{"title":"lionel richie"}
1147;lisa loeb;{"title":"lisa loeb"}
1148;little richard;{"title":"little richard"}
1149;little river band;{"title":"little river band"}
1150;live;{"title":"live"}
1151;living blues;{"title":"livin\' blues"}
1152;living colour;{"title":"living colour"}
1153;liza minnelli;{"title":"liza minnelli"}
1154;ll cool j;{"title":"ll cool j"}
1155;lmfao;{"title":"lmfao"}
1156;logic;{"title":"logic"}
1157;london boys;{"title":"london boys"}
1158;london grammar;{"title":"london grammar"}
1159;lorde;{"title":"lorde"}
1160;loreen;{"title":"loreen"}
1161;loretta lynn;{"title":"loretta lynn"}
1162;los lobos;{"title":"los lobos"}
1163;los prisioneros;{"title":"los prisioneros"}
1164;lostprophets;{"title":"lostprophets"}
1165;lotte lenya;{"title":"lotte lenya"}
1166;lou reed;{"title":"lou reed"}
1167;louis armstrong;{"title":"louis armstrong"}
1168;louis tomlinson;{"title":"louis tomlinson"}
1169;love;{"title":"love"}
1170;loving spoonful;{"title":"lovin' spoonful"}
1171;luc van acker;{"title":"luc van acker"}
1172;lucenzo;{"title":"lucenzo"}
1173;lucia micarelli;{"title":"lucia micarelli"}
1174;luciano ligabue;{"title":"luciano ligabue"}
1175;luciano pavarotti;{"title":"luciano pavarotti"}
1176;lucinda williams;{"title":"lucinda williams"}
1177;lucki starr;{"title":"lucki starr"}
1178;lucy hale;{"title":"lucy hale"}
1179;ludacris;{"title":"ludacris"}
1180;ludmilla;{"title":"ludmilla"}
1181;ludo;{"title":"ludo"}
1182;luis miguel;{"title":"luis miguel"}
1183;lukas graham;{"title":"lukas graham"}
1184;luke bryan;{"title":"luke bryan"}
1185;luna sea;{"title":"luna sea"}
1186;lupe fiasco;{"title":"lupe fiasco"}
1187;luttenberger klug;{"title":"luttenberger*klug"}
1188;lyca gairanod;{"title":"lyca gairanod"}
1189;lykke li;{"title":"lykke li"}
1190;lynda carter;{"title":"lynda carter"}
1191;lynyrd skynyrd;{"title":"lynyrd skynyrd"}
1192;lzzy hale;{"title":"lzzy hale"}
1193;m2m;{"title":"m2m"}
1194;maaike ouboter;{"title":"maaike ouboter"}
1195;machine head;{"title":"machine head"}
1196;mack maine;{"title":"mack maine"}
1197;mackenzie ziegler;{"title":"mackenzie ziegler"}
1198;macy gray;{"title":"macy gray"}
1199;mad season;{"title":"mad season"}
1200;madball;{"title":"madball"}
1201;madeleine peyroux;{"title":"madeleine peyroux"}
1202;madina lake;{"title":"madina lake"}
1203;madison beer;{"title":"madison beer"}
1204;madlib;{"title":"madlib"}
1205;madonna;{"title":"madonna"}
1206;madrugada;{"title":"madrugada"}
1207;magazine;{"title":"magazine"}
1208;maggie lindemann;{"title":"maggie lindemann"}
1209;mahalia jackson;{"title":"mahalia jackson"}
1210;mahavishnu orchestra;{"title":"mahavishnu orchestra"}
1211;maija vilkkumaa;{"title":"maija vilkkumaa"}
1212;maite perroni;{"title":"maite perroni"}
1213;mallary hope;{"title":"mallary hope"}
1214;man;{"title":"man"}
1215;mandy moore;{"title":"mandy moore"}
1216;manic street preachers;{"title":"manic street preachers"}
1217;mannie fresh;{"title":"mannie fresh"}
1218;mana;{"title":"maná"}
1219;marc anthony;{"title":"marc anthony"}
1220;marc moulin;{"title":"marc moulin"}
1221;marcel khalife;{"title":"marcel khalife"}
1222;marco carta;{"title":"marco carta"}
1223;marco rodrigues;{"title":"marco rodrigues"}
1224;marcus miller;{"title":"marcus miller"}
1225;margie joseph;{"title":"margie joseph"}
1226;maria callas;{"title":"maria callas"}
1227;maria isabel;{"title":"maria isabel"}
1228;mariah carey;{"title":"mariah carey"}
1229;marian anderson;{"title":"marian anderson"}
1230;mariana ochoa;{"title":"mariana ochoa"}
1231;marie laforêt;{"title":"marie laforêt"}
1232;marilyn manson;{"title":"marilyn manson"}
1233;marina and the diamonds;{"title":"marina and the diamonds"}
1234;mark ronson;{"title":"mark ronson"}
1235;mark salling;{"title":"mark salling"}
1236;mark wahlberg;{"title":"mark wahlberg"}
1237;marky;{"title":"marky"}
1238;marlena shaw;{"title":"marlena shaw"}
1239;maroon 5;{"title":"maroon 5"}
1240;marracash;{"title":"marracash"}
1241;marshmello;{"title":"marshmello"}
1242;martin garrix;{"title":"martin garrix"}
1243;marvin gaye;{"title":"marvin gaye"}
1244;mary martin;{"title":"mary martin"}
1245;mason williams;{"title":"mason williams"}
1246;mastodon;{"title":"mastodon"}
1247;matchbox twenty;{"title":"matchbox twenty"}
1248;matt duke;{"title":"matt duke"}
1249;matt heafy;{"title":"matt heafy"}
1250;matt simons;{"title":"matt simons"}
1251;matthew sweet;{"title":"matthew sweet"}
1252;maurice chevalier;{"title":"maurice chevalier"}
1253;maurice white;{"title":"maurice white"}
1254;max theiler;{"title":"max theiler"}
1255;maxboys;{"title":"maxboys"}
1256;maxwell;{"title":"maxwell"}
1257;maya angelou;{"title":"maya angelou"}
1258;mc davo;{"title":"mc davo"}
1259;mc solaar;{"title":"mc solaar"}
1260;meese;{"title":"meese"}
1261;meg and dia;{"title":"meg & dia"}
1262;megadeth;{"title":"megadeth"}
1263;mehdi hassan;{"title":"mehdi hassan"}
1264;mel torme;{"title":"mel torme"}
1265;melanie fiona;{"title":"melanie fiona"}
1266;melanie martinez;{"title":"melanie martinez"}
1267;melissa etheridge;{"title":"melissa etheridge"}
1268;melody gardot;{"title":"melody gardot"}
1269;men at work;{"title":"men at work"}
1270;mercyful fate;{"title":"mercyful fate"}
1271;merle haggard;{"title":"merle haggard"}
1272;meshuggah;{"title":"meshuggah"}
1273;metal church;{"title":"metal church"}
1274;metallica;{"title":"metallica"}
1275;method man;{"title":"method man"}
1276;mew;{"title":"mew"}
1277;mgmt;{"title":"mgmt"}
1278;mia;{"title":"mia"}
1279;michael bolton;{"title":"michael bolton"}
1280;michael buble;{"title":"michael bublé"}
1281;michael jackson;{"title":"michael jackson"}
1282;michael learns to rock;{"title":"michael learns to rock"}
1283;michael mcdonald;{"title":"michael mcdonald"}
1284;michael prins;{"title":"michael prins"}
1285;michael sarver;{"title":"michael sarver"}
1286;michael stipe;{"title":"michael stipe"}
1287;michelle branch;{"title":"michelle branch"}
1288;mick jagger;{"title":"mick jagger"}
1289;mick ronson;{"title":"mick ronson"}
1290;mick taylor;{"title":"mick taylor"}
1291;mickey baker;{"title":"mickey baker"}
1292;mihimaru gt;{"title":"mihimaru gt"}
1293;mika;{"title":"mika"}
1294;mike bloomfield and al kooper;{"title":"mike bloomfield and al kooper"}
1295;mike jones;{"title":"mike jones"}
1296;mike love;{"title":"mike love"}
1297;mike oldfield;{"title":"mike oldfield"}
1298;mike shinoda;{"title":"mike shinoda"}
1299;miles davis;{"title":"miles davis"}
1300;miles davis quintet;{"title":"miles davis quintet"}
1301;miles davis sextet;{"title":"miles davis sextet"}
1302;miley cyrus;{"title":"miley cyrus"}
1303;milla jovovich;{"title":"milla jovovich"}
1304;ministry;{"title":"ministry"}
1305;miriam makeba;{"title":"miriam makeba"}
1306;misfits;{"title":"misfits"}
1307;miss a;{"title":"miss a"}
1308;missy elliott;{"title":"missy elliott"}
1309;mitch grassi;{"title":"mitch grassi"}
1310;miyavi;{"title":"miyavi"}
1311;mobb deep;{"title":"mobb deep"}
1312;moby;{"title":"moby"}
1313;modest mouse;{"title":"modest mouse"}
1314;mogwai;{"title":"mogwai"}
1315;mohamed mounir;{"title":"mohamed mounir"}
1316;mohammed rafi;{"title":"mohammed rafi"}
1317;molly sanden;{"title":"molly sandén"}
1318;molly smitten downes;{"title":"molly smitten-downes"}
1319;momoiro clover;{"title":"momoiro clover"}
1320;monrose;{"title":"monrose"}
1321;moody blues;{"title":"moody blues"}
1322;morphine;{"title":"morphine"}
1323;morrissey;{"title":"morrissey"}
1324;motley crue;{"title":"motley crue"}
1325;motorhead;{"title":"motorhead"}
1326;mott the hoople;{"title":"mott the hoople"}
1327;mountain;{"title":"mountain"}
1328;mister hudson;{"title":"mr hudson"}
1329;mister bungle;{"title":"mr. bungle"}
1330;miss triniti;{"title":"ms. triniti"}
1331;muddy waters;{"title":"muddy waters"}
1332;mudhoney;{"title":"mudhoney"}
1333;mudvayne;{"title":"mudvayne"}
1334;murderdolls;{"title":"murderdolls"}
1335;muse;{"title":"muse"}
1336;mushroomhead;{"title":"mushroomhead"}
1337;mutemath;{"title":"mutemath"}
1338;mutiny within;{"title":"mutiny within"}
1339;my chemical romance;{"title":"my chemical romance"}
1340;mylene farmer;{"title":"mylène farmer"}
1341;n dubz;{"title":"n-dubz"}
1342;nerd;{"title":"n.e.r.d"}
1343;nadia vega;{"title":"nadia vega"}
1344;nailbomb;{"title":"nailbomb"}
1345;nami tamaki;{"title":"nami tamaki"}
1346;nanci griffith;{"title":"nanci griffith"}
1347;nancy ajram;{"title":"nancy ajram"}
1348;nancy sinatra;{"title":"nancy sinatra"}
1349;nas;{"title":"nas"}
1350;nat king cole;{"title":"nat king cole"}
1351;natalia kills;{"title":"natalia kills"}
1352;natalia oreiro;{"title":"natalia oreiro"}
1353;natalie imbruglia;{"title":"natalie imbruglia"}
1354;natalie merchant;{"title":"natalie merchant"}
1355;nate maloley;{"title":"nate maloley"}
1356;nav;{"title":"nav"}
1357;nazareth;{"title":"nazareth"}
1358;neyo;{"title":"ne-yo"}
1359;neil diamond;{"title":"neil diamond"}
1360;neil patrick harris;{"title":"neil patrick harris"}
1361;neil young;{"title":"neil young"}
1362;nek;{"title":"nek"}
1363;neko case;{"title":"neko case"}
1364;nellie melba;{"title":"nellie melba"}
1365;nelly;{"title":"nelly"}
1366;nelly furtado;{"title":"nelly furtado"}
1367;nena;{"title":"nena"}
1368;neneh cherry;{"title":"neneh cherry"}
1369;nevershoutnever;{"title":"nevershoutnever"}
1370;new cool collective big band and thierno koitÉ,new cool collective big band;{"title":"new cool collective big band & thierno koitÉ"}
1371;new order;{"title":"new order"}
1372;new york dolls;{"title":"new york dolls"}
1373;nick carter;{"title":"nick carter"}
1374;nick cave;{"title":"nick cave"}
1375;nick jonas;{"title":"nick jonas"}
1376;nick lachey;{"title":"nick lachey"}
1377;nick merico;{"title":"nick merico"}
1378;nickelback;{"title":"nickelback"}
1379;nicki minaj;{"title":"nicki minaj"}
1380;nicola roberts;{"title":"nicola roberts"}
1381;nicole atkins;{"title":"nicole atkins"}
1382;nicole scherzinger;{"title":"nicole scherzinger"}
1383;nightwish;{"title":"nightwish"}
1384;nikki williams;{"title":"nikki williams"}
1385;nina simone;{"title":"nina simone"}
1386;nina sky;{"title":"nina sky"}
1387;nine inch nails;{"title":"nine inch nails"}
1388;noah cyrus;{"title":"noah cyrus"}
1389;noize mc;{"title":"noize mc"}
1390;nolwenn leroy;{"title":"nolwenn leroy"}
1391;non dera anggia putri prawitasari;{"title":"non dera anggia putri prawitasari"}
1392;noor jehan;{"title":"noor jehan"}
1393;nusrat fateh ali khan;{"title":"nusrat fateh ali khan"}
1394;obituary;{"title":"obituary"}
1395;of mice & men;{"title":"of mice & men"}
1396;of monsters and men;{"title":"of monsters and men"}
1397;oingo boingo;{"title":"oingo boingo"}
1398;ol dirty bastard;{"title":"ol' dirty bastard"}
1399;olive;{"title":"olive"}
1400;omarion;{"title":"omarion"}
1401;one direction;{"title":"one direction"}
1402;one ok rock;{"title":"one ok rock"}
1403;onerepublic;{"title":"onerepublic"}
1404;only the young;{"title":"only the young"}
1405;oomph;{"title":"oomph!"}
1406;opeth;{"title":"opeth"}
1407;orgy;{"title":"orgy"}
1408;orianthi;{"title":"orianthi"}
1409;original soundtrack;{"title":"original soundtrack"}
1410;ornette coleman;{"title":"ornette coleman"}
1411;otep;{"title":"otep"}
1412;otis redding;{"title":"otis redding"}
1413;otis spann and fleetwood mac,fleetwood mac;{"title":"otis spann & fleetwood mac"}
1414;our lady peace;{"title":"our lady peace"}
1415;outkast;{"title":"outkast"}
1416;overkill;{"title":"overkill"}
1417;owl city;{"title":"owl city"}
1418;owsley;{"title":"owsley"}
1419;ozzy osbourne;{"title":"ozzy osbourne"}
1420;pod.;{"title":"p.o.d."}
1421;pablo alboran;{"title":"pablo alboran"}
1422;pakho chau;{"title":"pakho chau"}
1423;panic at the disco;{"title":"panic! at the disco"}
1424;pantera;{"title":"pantera"}
1425;papa roach;{"title":"papa roach"}
1426;parachute;{"title":"parachute"}
1427;paramore;{"title":"paramore"}
1428;paris hilton;{"title":"paris hilton"}
1429;parkway drive;{"title":"parkway drive"}
1430;passenger;{"title":"passenger"}
1431;pat benatar;{"title":"pat benatar"}
1432;pat metheny;{"title":"pat metheny"}
1433;patrice rushen;{"title":"patrice rushen"}
1434;patricia kaas;{"title":"patricia kaas"}
1435;patrick bruel;{"title":"patrick bruel"}
1436;patsy cline;{"title":"patsy cline"}
1437;patti labelle;{"title":"patti labelle"}
1438;patti smith;{"title":"patti smith"}
1439;patti smith group;{"title":"patti smith group"}
1440;paul anka;{"title":"paul anka"}
1441;paul butterfield blues band;{"title":"paul butterfield blues band"}
1442;paul de leeuw;{"title":"paul de leeuw"}
1443;paul mccartney;{"title":"paul mccartney"}
1444;paul robeson;{"title":"paul robeson"}
1445;paul simon;{"title":"paul simon"}
1446;paul stanley;{"title":"paul stanley"}
1447;paul wall;{"title":"paul wall"}
1448;paul weller;{"title":"paul weller"}
1449;paula abdul;{"title":"paula abdul"}
1450;paulina rubio;{"title":"paulina rubio"}
1451;pavlovs dog,pavlov dog;{"title":"pavlov\'s dog"}
1452;pedro abrunhosa;{"title":"pedro abrunhosa"}
1453;pendulum;{"title":"pendulum"}
1454;pennywise;{"title":"pennywise"}
1455;pentangle;{"title":"pentangle"}
1456;perfume;{"title":"perfume"}
1457;perrie edwards;{"title":"perrie edwards"}
1458;pet shop boys;{"title":"pet shop boys"}
1459;pete seeger;{"title":"pete seeger"}
1460;peter gabriel;{"title":"peter gabriel"}
1461;peter garrett;{"title":"peter garrett"}
1462;peter green;{"title":"peter green"}
1463;peter schilling;{"title":"peter schilling"}
1464;peter tosh;{"title":"peter tosh"}
1465;peter yarrow;{"title":"peter yarrow"}
1466;phil anselmo;{"title":"phil anselmo"}
1467;phil collins;{"title":"phil collins"}
1468;phil lynott;{"title":"phil lynott"}
1469;philip glass;{"title":"philip glass"}
1470;phineas and ferb soundtrack;{"title":"phineas and ferb soundtrack"}
1471;phish;{"title":"phish"}
1472;phoebe snow;{"title":"phoebe snow"}
1473;pierce the veil;{"title":"pierce the veil"}
1474;pink;{"title":"pink"}
1475;pitbull;{"title":"pitbull"}
1476;pixie lott;{"title":"pixie lott"}
1477;pixies;{"title":"pixies"}
1478;placebo;{"title":"placebo"}
1479;placido domingo;{"title":"placido domingo"}
1480;plan b;{"title":"plan b"}
1481;plastic bertrand;{"title":"plastic bertrand"}
1482;playaz circle;{"title":"playaz circle"}
1483;plies;{"title":"plies"}
1484;pnb rock;{"title":"pnb rock"}
1485;polina gagarina;{"title":"polina gagarina"}
1486;pop will eat itself;{"title":"pop will eat itself"}
1487;porcupine tree;{"title":"porcupine tree"}
1488;portishead;{"title":"portishead"}
1489;post malone;{"title":"post malone"}
1490;prima j;{"title":"prima j"}
1491;primal scream;{"title":"primal scream"}
1492;prince;{"title":"prince"}
1493;prince royce;{"title":"prince royce"}
1494;princess stephanie of monaco;{"title":"princess stéphanie of monaco"}
1495;procol harum;{"title":"procol harum"}
1496;professor longhair;{"title":"professor longhair"}
1497;prong;{"title":"prong"}
1498;prudence liew;{"title":"prudence liew"}
1499;psy;{"title":"psy"}
1500;puddle of mudd;{"title":"puddle of mudd"}
1501;pulp;{"title":"pulp"}
1502;pussycat dolls;{"title":"pussycat dolls"}
1503;pvris;{"title":"pvris"}
1504;quavo marshall;{"title":"quavo marshall"}
1505;queen;{"title":"queen"}
1506;queen latifah;{"title":"queen latifah"}
1507;queens of the stone age;{"title":"queens of the stone age"}
1508;queensberry;{"title":"queensberry"}
1509;queensrÿche;{"title":"queensrÿche"}
1510;quincy jones;{"title":"quincy jones"}
1511;q{"title":"q65"};{"title":"q{"title":"q65"}"}
1512;r kelly;{"title":"r. kelly"}
1513;rem;{"title":"r.e.m."}
1514;ra;{"title":"ra"}
1515;rabbi shergill;{"title":"rabbi shergill"}
1516;rachael yamagata;{"title":"rachael yamagata"}
1517;racoon;{"title":"racoon"}
1518;raekwon;{"title":"raekwon"}
1519;rage against the machine;{"title":"rage against the machine"}
1520;rainbow;{"title":"rainbow"}
1521;rainer plus grimm,rainer;{"title":"rainer + grimm"}
1522;raisa andriana;{"title":"raisa andriana"}
1523;rammstein;{"title":"rammstein"}
1524;ran;{"title":"ran"}
1525;rancid;{"title":"rancid"}
1526;randy newman;{"title":"randy newman"}
1527;randy travis;{"title":"randy travis"}
1528;rare earth;{"title":"rare earth"}
1529;rasheeda;{"title":"rasheeda"}
1530;ratt;{"title":"ratt"}
1531;raven symone;{"title":"raven-symoné"}
1532;ravi shankar and philip glass,ravi shankar;{"title":"ravi shankar & philip glass"}
1533;ray charles;{"title":"ray charles"}
1534;raymond scott;{"title":"raymond scott"}
1535;rayy dubb;{"title":"rayy dubb"}
1536;razorlight;{"title":"razorlight"}
1537;r b d;{"title":"rbd"}
1538;reba mcentire;{"title":"reba mcentire"}
1539;red;{"title":"red"}
1540;red hot chili peppers;{"title":"red hot chili peppers"}
1541;redman;{"title":"redman"}
1542;reef;{"title":"reef"}
1543;reginae carter;{"title":"reginae carter"}
1544;renee olstead;{"title":"renee olstead"}
1545;residents;{"title":"residents"}
1546;return to forever;{"title":"return to forever"}
1547;rev theory;{"title":"rev theory"}
1548;rich boy;{"title":"rich boy"}
1549;richard bona;{"title":"richard bona"}
1550;richard harris;{"title":"richard harris"}
1551;richard marx;{"title":"richard marx"}
1552;richard thompson;{"title":"richard thompson"}
1553;richard wright;{"title":"richard wright"}
1554;rick ross;{"title":"rick ross"}
1555;rick springfield;{"title":"rick springfield"}
1556;ricky martin;{"title":"ricky martin"}
1557;rihanna;{"title":"rihanna"}
1558;rilo kiley;{"title":"rilo kiley"}
1559;ringo starr;{"title":"ringo starr"}
1560;rise against;{"title":"rise against"}
1561;rita ora;{"title":"rita ora"}
1562;ritchie valens;{"title":"ritchie valens"}
1563;rob mostert;{"title":"rob mostert"}
1564;rob thomas;{"title":"rob thomas"}
1565;rob zombie;{"title":"rob zombie"}
1566;robben ford;{"title":"robben ford"}
1567;robbie amell;{"title":"robbie amell"}
1568;robbie williams;{"title":"robbie williams"}
1569;robert johnson;{"title":"robert johnson"}
1570;robert palmer;{"title":"robert palmer"}
1571;robert randolph and the family band,robert randolph;{"title":"robert randolph & the family band"}
1572;robert smith;{"title":"robert smith"}
1573;robin gibb;{"title":"robin gibb"}
1574;robyn;{"title":"robyn"}
1575;roc royal;{"title":"roc royal"}
1576;rockers hi fi;{"title":"rockers hi-fi"}
1577;rod stewart;{"title":"rod stewart"}
1578;roger mcguinn;{"title":"roger mcguinn"}
1579;rohff;{"title":"rohff"}
1580;rolf harris;{"title":"rolf harris"}
1581;romeo miller;{"title":"romeo miller"}
1582;ron wood;{"title":"ron wood"}
1583;ronettes;{"title":"ronettes"}
1584;ronn matlock;{"title":"ronn matlock"}
1585;ronnie radke;{"title":"ronnie radke"}
1586;rory gallagher;{"title":"rory gallagher"}
1587;rosanne cash;{"title":"rosanne cash"}
1588;rosemary clooney;{"title":"rosemary clooney"}
1589;ross lynch;{"title":"ross lynch"}
1590;roy orbison;{"title":"roy orbison"}
1591;roy wood;{"title":"roy wood"}
1592;rubber soul;{"title":"rubber soul"}
1593;ruben rada;{"title":"ruben rada"}
1594;ruben studdard;{"title":"ruben studdard"}
1595;run d m c;{"title":"run dmc"}
1596;rush;{"title":"rush"}
1597;ruslana;{"title":"ruslana"}
1598;ruth brown;{"title":"ruth brown"}
1599;ryan lewis;{"title":"ryan lewis"}
1600;ryan ross;{"title":"ryan ross"}
1601;sabrina bryan;{"title":"sabrina bryan"}
1602;sade;{"title":"sade"}
1603;sagittarius;{"title":"sagittarius"}
1604;sakis rouvas;{"title":"sakis rouvas"}
1605;sally barker;{"title":"sally barker"}
1606;sam and dave;{"title":"sam and dave"}
1607;sam cooke;{"title":"sam cooke"}
1608;sam smith;{"title":"sam smith"}
1609;samantha fox;{"title":"samantha fox"}
1610;sami yusuf;{"title":"sami yusuf"}
1611;sammy davis junior;{"title":"sammy davis jr."}
1612;samsons;{"title":"samsons"}
1613;samved;{"title":"samved"}
1614;sandy lam;{"title":"sandy lam"}
1615;santana;{"title":"santana"}
1616;sara hickman;{"title":"sara hickman"}
1617;sarah brightman;{"title":"sarah brightman"}
1618;sarah carpenter;{"title":"sarah carpenter"}
1619;sarah mclachlan;{"title":"sarah mclachlan"}
1620;satchel;{"title":"satchel"}
1621;satyricon;{"title":"satyricon"}
1622;saul williams;{"title":"saul williams"}
1623;savage garden;{"title":"savage garden"}
1624;saving grace;{"title":"saving grace"}
1625;scarface;{"title":"scarface"}
1626;scissor sisters;{"title":"scissor sisters"}
1627;scooter;{"title":"scooter"}
1628;scorpions;{"title":"scorpions"}
1629;scott hoying;{"title":"scott hoying"}
1630;scott walker;{"title":"scott walker"}
1631;screaming jay hawkins;{"title":"screamin' jay hawkins"}
1632;screaming trees;{"title":"screaming trees"}
1633;seal;{"title":"seal"}
1634;sean combs;{"title":"sean combs"}
1635;sean garrett;{"title":"sean garrett"}
1636;sean paul;{"title":"sean paul"}
1637;secondhand serenade;{"title":"secondhand serenade"}
1638;seether;{"title":"seether"}
1639;selena;{"title":"selena"}
1640;selena gomez;{"title":"selena gomez"}
1641;serebro;{"title":"serebro"}
1642;sergio godinho;{"title":"sergio godinho"}
1643;sergio mendes;{"title":"sergio mendes"}
1644;serj tankian;{"title":"serj tankian"}
1645;shadows fall;{"title":"shadows fall"}
1646;shahabuddin nagari;{"title":"shahabuddin nagari"}
1647;shakira;{"title":"shakira"}
1648;shane macgowan;{"title":"shane macgowan"}
1649;shane macgowan & the popes;{"title":"shane macgowan & the popes"}
1650;shania twain;{"title":"shania twain"}
1651;shareefa;{"title":"shareefa"}
1652;shawn mendes;{"title":"shawn mendes"}
1653;shawn mullins;{"title":"shawn mullins"}
1654;shelly manne;{"title":"shelly manne"}
1655;shelter;{"title":"shelter"}
1656;sheryl crow;{"title":"sheryl crow"}
1657;shifty;{"title":"shifty"}
1658;shiga lin;{"title":"shiga lin"}
1659;shila amzah;{"title":"shila amzah"}
1660;shinedown;{"title":"shinedown"}
1661;shinee;{"title":"shinee"}
1662;shirley bassey;{"title":"shirley bassey"}
1663;shocking blue;{"title":"shocking blue"}
1664;shontelle;{"title":"shontelle"}
1665;shuggie otis;{"title":"shuggie otis"}
1666;shutter boy;{"title":"shutter boy"}
1667;shym;{"title":"shy'm"}
1668;sia;{"title":"sia"}
1669;sick of it all;{"title":"sick of it all"}
1670;signmark;{"title":"signmark"}
1671;silverchair;{"title":"silverchair"}
1672;silversun pickups;{"title":"silversun pickups"}
1673;silvia olari;{"title":"silvia olari"}
1674;simeon ten holt;{"title":"simeon ten holt"}
1675;simone dinnerstein;{"title":"simone dinnerstein"}
1676;simple plan;{"title":"simple plan"}
1677;simply red;{"title":"simply red"}
1678;sinead o connor;{"title":"sinead o'connor"}
1679;sirenia;{"title":"sirenia"}
1680;sissy spacek;{"title":"sissy spacek"}
1681;siti nurhaliza;{"title":"siti nurhaliza"}
1682;sixpence none the richer;{"title":"sixpence none the richer"}
1683;skid row;{"title":"skid row"}
1684;skillet;{"title":"skillet"}
1685;skindred;{"title":"skindred"}
1686;skrillex;{"title":"skrillex"}
1687;slash;{"title":"slash"}
1688;slave;{"title":"slave"}
1689;slayer;{"title":"slayer"}
1690;sleeping with sirens;{"title":"sleeping with sirens"}
1691;slick rick;{"title":"slick rick"}
1692;slim dusty;{"title":"slim dusty"}
1693;slim jimmy;{"title":"slim jimmy"}
1694;slipknot;{"title":"slipknot"}
1695;slowdive;{"title":"slowdive"}
1696;sly and the family stone;{"title":"sly and the family stone"}
1697;sly stone;{"title":"sly stone"}
1698;snoop dogg;{"title":"snoop dogg"}
1699;social distortion;{"title":"social distortion"}
1700;soda stereo;{"title":"soda stereo"}
1701;sodagreen;{"title":"sodagreen"}
1702;sofia reyes;{"title":"sofia reyes"}
1703;soft machine;{"title":"soft machine"}
1704;somi;{"title":"somi"}
1705;sonny rollins;{"title":"sonny rollins"}
1706;soraya arnelas;{"title":"soraya arnelas"}
1707;soul assassins;{"title":"soul assassins"}
1708;soul asylum;{"title":"soul asylum"}
1709;soulfly;{"title":"soulfly"}
1710;soulja boy;{"title":"soulja boy"}
1711;space cowboy;{"title":"space cowboy"}
1712;spandau ballet;{"title":"spandau ballet"}
1713;sparta;{"title":"sparta"}
1714;spiders from mars;{"title":"spiders from mars"}
1715;spike jones;{"title":"spike jones"}
1716;spin;{"title":"spin"}
1717;spin doctors;{"title":"spin doctors"}
1718;spliff;{"title":"spliff"}
1719;spose;{"title":"spose"}
1720;staind;{"title":"staind"}
1721;stan freberg;{"title":"stan freberg"}
1722;stan getz quartet;{"title":"stan getz quartet"}
1723;static x;{"title":"static-x"}
1724;stealers wheel;{"title":"stealers wheel"}
1725;steel panther;{"title":"steel panther"}
1726;stefanie sun;{"title":"stefanie sun"}
1727;steppenwolf;{"title":"steppenwolf"}
1728;stereolab;{"title":"stereolab"}
1729;steve earle;{"title":"steve earle"}
1730;steve perry;{"title":"steve perry"}
1731;steve vai;{"title":"steve vai"}
1732;steven curtis chapman;{"title":"steven curtis chapman"}
1733;steven tyler;{"title":"steven tyler"}
1734;stevie nicks;{"title":"stevie nicks"}
1735;stevie ray vaughan;{"title":"stevie ray vaughan"}
1736;stevie wonder;{"title":"stevie wonder"}
1737;stills;{"title":"stills"}
1738;stone sour;{"title":"stone sour"}
1739;stone temple pilots;{"title":"stone temple pilots"}
1740;stooshe;{"title":"stooshe"}
1741;story of the year;{"title":"story of the year"}
1742;stray cats;{"title":"stray cats"}
1743;street drum corps;{"title":"street drum corps"}
1744;stromae;{"title":"stromae"}
1745;sugar ray;{"title":"sugar ray"}
1746;sugarland;{"title":"sugarland"}
1747;suicidal tendencies;{"title":"suicidal tendencies"}
1748;sully erna;{"title":"sully erna"}
1749;sum {"title":"sum 41"};{"title":"sum {"title":"sum 41"}"}
1750;sunidhi chauhan;{"title":"sunidhi chauhan"}
1751;super junior;{"title":"super junior"}
1752;svoy;{"title":"svoy"}
1753;sweetbox;{"title":"sweetbox"}
1754;sweetwater;{"title":"sweetwater"}
1755;swervedriver;{"title":"swervedriver"}
1756;switchfoot;{"title":"switchfoot"}
1757;sérgio mendes;{"title":"sérgio mendes"}
1758;t lopez;{"title":"t lopez"}
1759;t pain;{"title":"t-pain"}
1760;tatu;{"title":"t.a.t.u."}
1761;taio cruz;{"title":"taio cruz"}
1762;taj mahal;{"title":"taj mahal"}
1763;take that;{"title":"take that"}
1764;taking back sunday;{"title":"taking back sunday"}
1765;tal;{"title":"tal"}
1766;talib kweli;{"title":"talib kweli"}
1767;tall heights;{"title":"tall heights"}
1768;tamar braxton;{"title":"tamar braxton"}
1769;tami chynn;{"title":"tami chynn"}
1770;tammy wynette;{"title":"tammy wynette"}
1771;tamta;{"title":"tamta"}
1772;tangerine dream;{"title":"tangerine dream"}
1773;tarja;{"title":"tarja"}
1774;taste;{"title":"taste"}
1775;taylor momsen;{"title":"taylor momsen"}
1776;taylor swift;{"title":"taylor swift"}
1777;teairra marí;{"title":"teairra marí"}
1778;team syachihoko;{"title":"team syachihoko"}
1779;tears for fears;{"title":"tears for fears"}
1780;ted nugent;{"title":"ted nugent"}
1781;teddy pendergrass;{"title":"teddy pendergrass"}
1782;tedeschi trucks band;{"title":"tedeschi trucks band"}
1783;teenage fanclub;{"title":"teenage fanclub"}
1784;tegan and sara;{"title":"tegan and sara"}
1785;ten years after;{"title":"ten years after"}
1786;tenacious d;{"title":"tenacious d"}
1787;teresa teng;{"title":"teresa teng"}
1788;terry callier;{"title":"terry callier"}
1789;tessanne chin;{"title":"tessanne chin"}
1790;testament;{"title":"testament"}
1791;teyana taylor;{"title":"teyana taylor"}
1792;that poppy;{"title":"that poppy"}
1793;the afghan whigs;{"title":"the afghan whigs"}
1794;the agonist;{"title":"the agonist"}
1795;the airborne toxic event;{"title":"the airborne toxic event"}
1796;the all-american rejects;{"title":"the all-american rejects"}
1797;the amity affliction;{"title":"the amity affliction"}
1798;the animals;{"title":"the animals"}
1799;the aquabats;{"title":"the aquabats"}
1800;the bad plus;{"title":"the bad plus"}
1801;the beatles;{"title":"the beatles"}
1802;the black dahlia murder;{"title":"the black dahlia murder"}
1803;the black eyed peas;{"title":"the black eyed peas"}
1804;the black keys;{"title":"the black keys"}
1805;the bloody beetroots;{"title":"the bloody beetroots"}
1806;the bravery;{"title":"the bravery"}
1807;the byrds;{"title":"the byrds"}
1808;the carpenters;{"title":"the carpenters"}
1809;the cars;{"title":"the cars"}
1810;the chambers brothers;{"title":"the chambers brothers"}
1811;the church;{"title":"the church"}
1812;the civil wars;{"title":"the civil wars"}
1813;the clash;{"title":"the clash"}
1814;the common linnets;{"title":"the common linnets"}
1815;the coral;{"title":"the coral"}
1816;the corrs;{"title":"the corrs"}
1817;the cranberries;{"title":"the cranberries"}
1818;the crystal method;{"title":"the crystal method"}
1819;the cure;{"title":"the cure"}
1820;the doc.;{"title":"the d.o.c."}
1821;the darkness;{"title":"the darkness"}
1822;the dave brubeck quartet;{"title":"the dave brubeck quartet"}
1823;the devil wears prada;{"title":"the devil wears prada"}
1824;the donnas;{"title":"the donnas"}
1825;the doobie brothers;{"title":"the doobie brothers"}
1826;the doors;{"title":"the doors"}
1827;the drifters;{"title":"the drifters"}
1828;the eagles;{"title":"the eagles"}
1829;the everly brothers;{"title":"the everly brothers"}
1830;the flying burrito brothers;{"title":"the flying burrito brothers"}
1831;the four seasons;{"title":"the four seasons"}
1832;the frank cunimondo trio;{"title":"the frank cunimondo trio"}
1833;the georgia satellites;{"title":"the georgia satellites"}
1834;the grateful dead;{"title":"the grateful dead"}
1835;the highwaymen;{"title":"the highwaymen"}
1836;the housemartins;{"title":"the housemartins"}
1837;the incredible string band;{"title":"the incredible string band"}
1838;the jeff healey band;{"title":"the jeff healey band"}
1839;the jimi hendrix experience;{"title":"the jimi hendrix experience"}
1840;the jimmy castor bunch;{"title":"the jimmy castor bunch"}
1841;the killers;{"title":"the killers"}
1842;the kinks;{"title":"the kinks"}
1843;the knife;{"title":"the knife"}
1844;the lemonheads;{"title":"the lemonheads"}
1845;the living end;{"title":"the living end"}
1846;the lonely island;{"title":"the lonely island"}
1847;the maine;{"title":"the maine"}
1848;the mamas & the papas;{"title":"the mamas & the papas"}
1849;the men they couldn't hang;{"title":"the men they couldn't hang"}
1850;the meters;{"title":"the meters"}
1851;the millennium;{"title":"the millennium"}
1852;the mills;{"title":"the mills"}
1853;the mission;{"title":"the mission"}
1854;the modern lovers;{"title":"the modern lovers"}
1855;the monkees;{"title":"the monkees"}
1856;the moody blues;{"title":"the moody blues"}
1857;the move;{"title":"the move"}
1858;the naked and famous;{"title":"the naked and famous"}
1859;the neptunes;{"title":"the neptunes"}
1860;the notorious b.i.g.;{"title":"the notorious b.i.g."}
1861;the o jays;{"title":"the o'jays"}
1862;the oscar peterson trio;{"title":"the oscar peterson trio"}
1863;the parlotones;{"title":"the parlotones"}
1864;the piano guys;{"title":"the piano guys"}
1865;the pioneers;{"title":"the pioneers"}
1866;the pogues;{"title":"the pogues"}
1867;the pretenders;{"title":"the pretenders"}
1868;the prodigy;{"title":"the prodigy"}
1869;the psycho realm;{"title":"the psycho realm"}
1870;the ramones;{"title":"the ramones"}
1871;the raveonettes;{"title":"the raveonettes"}
1872;the red devils;{"title":"the red devils"}
1873;the replacements;{"title":"the replacements"}
1874;the roots;{"title":"the roots"}
1875;the saturdays;{"title":"the saturdays"}
1876;the sex pistols;{"title":"the sex pistols"}
1877;the shadows;{"title":"the shadows"}
1878;the shadows of knight;{"title":"the shadows of knight"}
1879;the shocking blue;{"title":"the shocking blue"}
1880;the sisters of mercy;{"title":"the sisters of mercy"}
1881;the slip;{"title":"the slip"}
1882;the smashing pumpkins;{"title":"the smashing pumpkins"}
1883;the smiths;{"title":"the smiths"}
1884;the sorrows;{"title":"the sorrows"}
1885;the sounds;{"title":"the sounds"}
1886;the stone roses;{"title":"the stone roses"}
1887;the stooges;{"title":"the stooges"}
1888;the stranglers;{"title":"the stranglers"}
1889;the strokes;{"title":"the strokes"}
1890;the stunners;{"title":"the stunners"}
1891;the sugarcubes;{"title":"the sugarcubes"}
1892;the sundance kids;{"title":"the sundance kids"}
1893;the supremes;{"title":"the supremes"}
1894;the temptations;{"title":"the temptations"}
1895;the tragically hip;{"title":"the tragically hip"}
1896;the used;{"title":"the used"}
1897;the vamps;{"title":"the vamps"}
1898;the veer union;{"title":"the veer union"}
1899;the velvet underground;{"title":"the velvet underground"}
1900;the veronicas;{"title":"the veronicas"}
1901;the von bondies;{"title":"the von bondies"}
1902;the walker brothers;{"title":"the walker brothers"}
1903;the wanted;{"title":"the wanted"}
1904;the weeknd;{"title":"the weeknd"}
1905;the whatnauts;{"title":"the whatnauts"}
1906;the who;{"title":"the who"}
1907;the {"title":"the 1975"};{"title":"the {"title":"the 1975"}"}
1908;the dream;{"title":"the-dream"}
1909;the lonious monk;{"title":"thelonious monk"}
1910;theo croker;{"title":"theo croker"}
1911;theory of a deadman;{"title":"theory of a deadman"}
1912;therapy;{"title":"therapy?"}
1913;they might be giants;{"title":"they might be giants"}
1914;thin lizzy;{"title":"thin lizzy"}
1915;third eye blind;{"title":"third eye blind"}
1916;thom yorke;{"title":"thom yorke"}
1917;tiago bettencourt;{"title":"tiago bettencourt"}
1918;tichina arnold;{"title":"tichina arnold"}
1919;tigresa del oriente;{"title":"tigresa del oriente"}
1920;tim buckley;{"title":"tim buckley"}
1921;tim curry;{"title":"tim curry"}
1922;tim dog;{"title":"tim dog"}
1923;timo maas;{"title":"timo maas"}
1924;tina parol;{"title":"tina parol"}
1925;tina turner;{"title":"tina turner"}
1926;tinashe kachingwe;{"title":"tinashe kachingwe"}
1927;tinchy stryder;{"title":"tinchy stryder"}
1928;tindersticks;{"title":"tindersticks"}
1929;tinie tempah;{"title":"tinie tempah"}
1930;tism;{"title":"tism"}
1931;titas;{"title":"titãs"}
1932;tiziano ferro;{"title":"tiziano ferro"}
1933;tiesto;{"title":"tiësto"}
1934;tokio hotel;{"title":"tokio hotel"}
1935;tom jones;{"title":"tom jones"}
1936;tom lehrer;{"title":"tom lehrer"}
1937;tom petty and the heartbreakers,tom petty;{"title":"tom petty & the heartbreakers"}
1938;tom rush;{"title":"tom rush"}
1939;tom tom club;{"title":"tom tom club"}
1940;tom waits;{"title":"tom waits"}
1941;tommy torres;{"title":"tommy torres"}
1942;toni braxton;{"title":"toni braxton"}
1943;toni pearen;{"title":"toni pearen"}
1944;tono rosario;{"title":"tono rosario"}
1945;tony bennett;{"title":"tony bennett"}
1946;tony joe white;{"title":"tony joe white"}
1947;tony scott;{"title":"tony scott"}
1948;toots and the maytal,toots;{"title":"toots and the maytals"}
1949;tori amos;{"title":"tori amos"}
1950;tori kelly;{"title":"tori kelly"}
1951;toto;{"title":"toto"}
1952;tove lo;{"title":"tove lo"}
1953;tower of power;{"title":"tower of power"}
1954;townes van zandt;{"title":"townes van zandt"}
1955;trace adkins;{"title":"trace adkins"}
1956;tracy bonham;{"title":"tracy bonham"}
1957;tracy chapman;{"title":"tracy chapman"}
1958;tragically hip;{"title":"tragically hip"}
1959;trapt;{"title":"trapt"}
1960;travis mccoy;{"title":"travis mccoy"}
1961;travis tritt;{"title":"travis tritt"}
1962;trees;{"title":"trees"}
1963;trespassers william;{"title":"trespassers william"}
1964;trey songz;{"title":"trey songz"}
1965;tricky;{"title":"tricky"}
1966;trillville;{"title":"trillville"}
1967;tripple m;{"title":"tripple m"}
1968;trivium;{"title":"trivium"}
1969;troye sivan;{"title":"troye sivan"}
1970;tupac shakur;{"title":"tupac shakur"}
1971;twelve girls band;{"title":"twelve girls band"}
1972;twenty one pilots;{"title":"twenty one pilots"}
1973;twista;{"title":"twista"}
1974;twisted sister;{"title":"twisted sister"}
1975;tyga;{"title":"tyga"}
1976;tyler joseph;{"title":"tyler joseph"}
1977;tyler, the creator;{"title":"tyler, the creator"}
1978;typ;{"title":"typ"}
1979;tyson ritter;{"title":"tyson ritter"}
1980;u2,u 2;{"title":"u2"}
1981;ugly god;{"title":"ugly god"}
1982;uncle tupelo;{"title":"uncle tupelo"}
1983;unladylike;{"title":"unladylike"}
1984;unofficial group;{"title":"unofficial group"}
1985;urban dance squad;{"title":"urban dance squad"}
1986;uriah heep;{"title":"uriah heep"}
1987;usher;{"title":"usher"}
1988;utada;{"title":"utada"}
1989;v taveras,taveras;{"title":"v. taveras"}
1990;vacca;{"title":"vacca"}
1991;valient thorr;{"title":"valient thorr"}
1992;van halen;{"title":"van halen"}
1993;van kooten and de bie,van kooten;{"title":"van kooten & de bie"}
1994;van morrison;{"title":"van morrison"}
1995;vandenberg;{"title":"vandenberg"}
1996;vanessa carlton;{"title":"vanessa carlton"}
1997;vanessa hudgens;{"title":"vanessa hudgens"}
1998;vanessa lynn williams;{"title":"vanessa lynn williams"}
1999;vanessa paradis;{"title":"vanessa paradis"}
2000;vanilla fudge;{"title":"vanilla fudge"}
2001;vanilla ice;{"title":"vanilla ice"}
2002;vanness wu;{"title":"vanness wu"}
2003;various artists;{"title":"various artists"}
2004;vaughan brothers;{"title":"vaughan brothers"}
2005;vaya con dios;{"title":"vaya con dios"}
2006;velvet revolver;{"title":"velvet revolver"}
2007;venice;{"title":"venice"}
2008;venom;{"title":"venom"}
2009;versaemerge;{"title":"versaemerge"}
2010;versailles;{"title":"versailles"}
2011;vic fuentes;{"title":"vic fuentes"}
2012;victoria beckham;{"title":"victoria beckham"}
2013;videokids;{"title":"videokids"}
2014;vince gill;{"title":"vince gill"}
2015;vincent gallo;{"title":"vincent gallo"}
2016;violent femmes;{"title":"violent femmes"}
2017;vivian hsu;{"title":"vivian hsu"}
2018;volbeat;{"title":"volbeat"}
2019;vreemde kostgangers;{"title":"vreemde kostgangers"}
2020;vybz kartel;{"title":"vybz kartel"}
2021;véronique sanson;{"title":"véronique sanson"}
2022;waii;{"title":"waii"}
2023;waka flocka flame;{"title":"waka flocka flame"}
2024;wale;{"title":"wale"}
2025;wally badarou;{"title":"wally badarou"}
2026;wally tax;{"title":"wally tax"}
2027;wanting qu;{"title":"wanting qu"}
2028;warren zevon;{"title":"warren zevon"}
2029;wat;{"title":"wat"}
2030;waylon jennings;{"title":"waylon jennings"}
2031;we as human;{"title":"we as human"}
2032;weather report;{"title":"weather report"}
2033;ween;{"title":"ween"}
2034;weezer;{"title":"weezer"}
2035;westernhagen;{"title":"westernhagen"}
2036;wheatus;{"title":"wheatus"}
2037;white lion;{"title":"white lion"}
203len;{"title":"van halen"}
2040;van kooten & de bie;{"title":"van kooten & de bie"}
2041;van morrison;{"title":"van morrison"}
2042;vandenberg;{"title":"vandenberg"}
2043;vanessa carlton;{"title":"vanessa carlton"}
2044;vanessa hudgens;{"title":"vanessa hudgens"}
2045;vanessa lynn williams;{"title":"vanessa lynn williams"}
2046;vanessa paradis;{"title":"vanessa paradis"}
2047;vanilla fudge;{"title":"vanilla fudge"}
2048;vanilla ice;{"title":"vanilla ice"}
2049;vanness wu;{"title":"vanness wu"}
2050;various artists;{"title":"various artists"}
2051;vaughan brothers;{"title":"vaughan brothers"}
2052;vaya con dios;{"title":"vaya con dios"}
2053;velvet revolver;{"title":"velvet revolver"}
2054;venice;{"title":"venice"}
2055;venom;{"title":"venom"}
2056;versaemerge;{"title":"versaemerge"}
2057;versailles;{"title":"versailles"}
2058;vic fuentes;{"title":"vic fuentes"}
2059;victoria beckham;{"title":"victoria beckham"}
2060;videokids;{"title":"videokids"}
2061;vince gill;{"title":"vince gill"}
2062;vincent gallo;{"title":"vincent gallo"}
2063;violent femmes;{"title":"violent femmes"}
2064;vivian hsu;{"title":"vivian hsu"}
2065;volbeat;{"title":"volbeat"}
2066;vreemde kostgangers;{"title":"vreemde kostgangers"}
2067;vybz kartel;{"title":"vybz kartel"}
2068;véronique sanson;{"title":"véronique sanson"}
2069;waii;{"title":"waii"}
2070;waka flocka flame;{"title":"waka flocka flame"}
2071;wale;{"title":"wale"}
2072;wally badarou;{"title":"wally badarou"}
2073;wally tax;{"title":"wally tax"}
2074;wanting qu;{"title":"wanting qu"}
2075;warren zevon;{"title":"warren zevon"}
2076;wat;{"title":"wat"}
2077;waylon jennings;{"title":"waylon jennings"}
2078;we as human;{"title":"we as human"}
2079;weather report;{"title":"weather report"}
2080;ween;{"title":"ween"}
2081;weezer;{"title":"weezer"}
2082;westernhagen;{"title":"westernhagen"}
2083;wheatus;{"title":"wheatus"}
2084;white lion;{"title":"white lion"}
2085;white zombie;{"title":"white zombie"}
2086;whitney houston;{"title":"whitney houston"}
2087;wilber pan;{"title":"wilber pan"}
2088;willow smith;{"title":"willow smith"}
2089;woody guthrie;{"title":"woody guthrie"}
2090;wyclef jean;{"title":"wyclef jean"}
2091;yoko ono;{"title":"yoko ono"}
2092;young buck;{"title":"young buck"}
2093;young thug;{"title":"young thug"}
2094;zac efron;{"title":"zac efron"}
2095;zara larsson;{"title":"zara larsson"}
2096;zz top;{"title":"zz top"}
2097;rolling stones;{"title":"rolling stones"}