1;general;{"name":"general"}
2;technology;{"name":"technology"}
3;sport;{"name":"sport"}
4;business;{"name":"business"}
5;politics, political;{"name":"politics"}
6;entertainment;{"name":"entertainment"}
7;gaming;{"name":"gaming"}
8;music;{"name":"music"}
9;science-and-nature,science,nature;{"name":"science-and-nature"}