1;howmany;{"type":"howmany", "question":"how big the Earth is?", "answer":"The Earth is approximately 24,900 miles in circumference."}
2;if;{"type":"if", "question":"if the Earth is truly round?", "answer":"The spinning of the Earth makes it somewhat less round at the top and bottom. The difference is real but barely noticeable, making the Earth look more like a slightly flat basketball."}
3;what;{"type":"what", "question":"what causes the four seasons?", "answer":"Seasons are created by two very important events – the rotation of the Earth that gives us day and night, and the rotation of the Earth around the sun that gives us our year."}
4;whatis;{"type":"whatis", "question":"what water is?", "answer":"Water is a basic molecule made up of two hydrogen atoms and one oxygen atom. When these three atoms come together, they form a strong bond that is difficult to break. The strength of this bond keeps a water molecule together for millions and even billons of years."}
5;why;{"type":"why", "question":"why the sky is blue?", "answer":"All light travels in a straight line unless something gets in the way, and in that case the light either reflects it (like a mirror), bends it (like a prism) or scatters it. The latter is what happens when sunlight reaches the Earth's atmosphere. Blue is scattered more than other colors because it travels as smaller waves, and that's why we see the sky as blue."}
6;why;{"type":"why", "question":"why people need to sleep?", "answer":"While people sleep, their brain transfers the pieces of info from short-term memory to long-term memory in a process called 'consolidation.' This helps people retain information and perform better on memory tasks. In addition, their bodies need sleep to rest, repair and grow."}
7;what;{"type":"what", "question":"what stars are made of?", "answer":"Stars are made of very hot gas (cue the giggles here), mostly hydrogen and helium. Stars shine by burning hydrogen into helium in their cores."}
8;where;{"type":"where", "question":"where water goes when it goes down the drain?", "answer":"If you're on a sewer system, all the drains in your house are connected to one pipe that leads to the street. The pipe in the street collects the water from each house in your neighborhood and takes it a larger pipe that collects water from other streets. That process repeats with greater amounts of water flowing into larger pipes until it reaches a wastewater treatment plant, where it's treated, cleaned and put back into the environment."}
9;why;{"type":"why", "question":"why Earth is the only planet with life?", "answer":"Life as we know it can survive only where there's liquid water. Life also requires sun, moderate temperatures and certain chemical elements like carbon, oxygen and nitrogen. Besides Earth, no other planet has temperatures that are not too hot and not too cold, no other planet has liquid water (ice, but not water) and no other planet has the right mix of chemicals."}
10;why;{"type":"why", "question":"why there are spots on the moon?", "answer":"Spots or marks on the moon are one of two things: craters or maria. The moon has been hit thousands of times over its 4.5 billion-year existence by space debris, which left craters after the collisions."}
11;what;{"type":"what", "question":"what clouds are made of?", "answer":"A cloud is a collection of tiny drops of water or ice crystals. The drops are so small that they can float on air. All air contains water, but most of the time you can't see it because the drops of water have turned into a gas called water vapor. As that vapor goes higher in the sky, the air gets cooler. The cooler air causes the water to stick to particles like dust, ice or sea salt. When billions of these particles come together, they form a cloud."}
12;why;{"type":"why", "question":"why cows moo?", "answer":"Cows moo to talk to other cows, like when they are scared or as a warning."}
13;why;{"type":"why", "question":"why the moon is sometimes out during the day?", "answer":"The moon is just as likely to be visible during the day as it is at night — it orbits Earth independently of the sun. When its orbit brings it to your part of the sky during daylight hours, it is illuminated by the sun, and we can see it."}
14;howmany;{"type":"howmany", "question":"how much the Earth weighs?", "answer":"Earth has a mass of one hundred million billion Titanics."}
15;how;{"type":"how", "question":"how airplanes stay up?", "answer":"To overcome the forces of drag and gravity, an airplane must generate two forces of its own: thrust and lift. Thrust is the force that propels an airplane forward on the runway. Every airplane has a specific takeoff speed — the point at which lift overcomes gravity. That critical speed changes based on how much a particular plane weighs. The plane's engine, meanwhile, has to work to provide enough thrust to overcome drag — friction with the air."}
16;why;{"type":"why", "question":"why there aren't any more dinosaurs?", "answer":"About 65 million years ago an enormous asteroid collided with the earth and changed everything on the planet. The dinosaurs couldn't adapt and eventually died out, making way for new animals, ones that were better suited to this other climate."}
17;why;{"type":"why", "question":"why there are so many languages in the world?", "answer":"Thousands of years ago, people in different communities all over the globe invented their own words to describe their lives, and that's why today people from the same area tend to speak the same language and other people may not. Languages also evolve over time: our own has changed so much that if you heard someone speaking English as it was spoken 500 years ago, you'd have trouble understanding what he was saying."}
18;why;{"type":"why", "question":"why people get sick?", "answer":"Usually, it's because of germs. These tiny critters can find their way into our body through the air we breathe and things we eat, or when we touch our mouth or eyes without washing our hands. Most of the time, germs don't affect us, but sometimes our body can't fight them off -- and that's when we get sick."}
19;why;{"type":"why", "question":"why grown-ups sometimes cry when they're happy?", "answer":"People may feel something so strongly that they just have to let it out. When kids feel happy they usually jump up and down or yell, but grown-ups have more complicated emotions -- and when we're really happy, we can also be just a little sad at the same time. Sometimes for adults, crying just happens."}
20;howmany;{"type":"howmany", "question":"how many dogs there are in the world?", "answer":"In total there is said to be around 400 million dogs in the world."}
21;what;{"type":"what", "question":"which is the most popular breed of dog in the world?", "answer":"The most popular breed of dog in the world by registered ownership is the Labrador. With their gentle nature, obedience, intelligence and near limitless energy, Labradors make for excellent family pets and reliable workers. They often assist police and are a common choice as guide dogs."}
22;who;{"type":"who", "question":"who is the biggest species of the cat family?", "answer":"The tiger is the biggest species of the cat family."}
23;howmany;{"type":"howmany", "question":"how big the tiger is?", "answer":"Tigers can reach a length of up to 3.3 metres (11 feet) and weigh as much as 300 kilograms (660 pounds)."}
24;if;{"type":"if", "question":"if tigers can swim?", "answer":"Tigers are good swimmers and can swim up to 6 kilometres."}
25;howmany;{"type":"howmany", "question":"how fast a tiger can run?", "answer":"Tigers have been known to reach speeds up to 65 kph (40 mph)."}
26;howmany;{"type":"howmany", "question":"how far a tiger can jump?", "answer":"Tigers can easily jump over 5 metres in length."}
27;if;{"type":"if", "question":"if dolphins eat meat?", "answer":"Dolphins are carnivores (meat eaters)."}
28;how;{"type":"how", "question":"how dolphins communicate with each other?", "answer":"Dolphins communicate with each other by clicking, whistling and other sounds."}
29;howmany;{"type":"howmany", "question":"how much gorillas eat?", "answer":"Gorillas are herbivores. They spend most of their day foraging for food and eating bamboo, leafy plants and sometimes small insects. Adult gorillas can eat up to 30 kilograms of food each day."}
30;howmany;{"type":"howmany", "question":"how long gorillas live?", "answer":"A gorilla can live for 40 – 50 years."}
31;what;{"type":"what", "question":"which is the fastest land animal in the world?", "answer":"The cheetah is the fastest land animal in the world. They can reach a top speed of around 113 km per hour."}
32;howmany;{"type":"howmany", "question":"how much a cheetah weighs?", "answer":"Cheetahs are smaller than other members of the big cat family, weighing only 45 – 60 kilograms."}
33;what;{"type":"what", "question":"what cheetahs eat?", "answer":"Cheetahs are carnivores, so rely on meat for survival. Their diet is made up primarily of smaller antelopes including springbok, steenbok, Thomson’s gazelle, impalas, and duiker. Cheetahs will also feed on wildebeest calves and, occasionally, smaller animals including rabbits, hares and birds."}
34;how;{"type":"how", "question":"how the cheetahs tail helps when running?", "answer":"Cheetahs long muscular tails have a flat shape that is used for balance and steering. The tail essentially acts like a rudder on a boat."}
35;howmany;{"type":"howmany", "question":"how small the smallest monkey on the planet is?", "answer":"The Pygmy Marmoset or Dwarf Monkey (Cebuella pygmaea) is the world’s smallest monkey. It is native to the rainforest canopies of Brazil, Columbia, Ecuador, Peru and Bolivia. One of the smallest primates and the smallest true monkey, with a body length, not including the tail, ranging from 14 to 16cm (5.5″ – 6.3″) . They weigh only 15g (0.5oz) at the time of birth."}
36;what;{"type":"what", "question":"which are the largest land-living mammal in the world?", "answer":"Elephants are the largest land-living mammal in the world."}
37;howmany;{"type":"howmany", "question":"how much elephants drink?", "answer":"An elephant can use its tusks to dig for ground water. An adult elephant needs to drink around 210 litres of water a day."}
38;what;{"type":"what", "question":"what an elephant's trunk is used for?", "answer":"The elephant’s trunk is able to sense the size, shape and temperature of an object. An elephant uses its trunk to lift food and suck up water then pour it into its mouth."}
39;howmany;{"type":"howmany", "question":"how long an elephant's trunk can grow?", "answer":"An elephant’s trunk can grow to be about 2 metres long and can weigh up to 140 kg. Some scientists believe that an elephant’s trunk is made up of 100,000 muscles, but no bones. "}
40;if;{"type":"if", "question":"if elephants can swim?", "answer":"Elephants can swim – they use their trunk to breathe like a snorkel in deep water."}
41;what;{"type":"what", "question":"what elephants eat?", "answer":"Elephants are herbivores and can spend up to 16 hours days collecting leaves, twigs, bamboo and roots."}
42;if;{"type":"if", "question":"if whales can smile?", "answer":"The arched lower lip of a whale can often make it look like it is smiling! However, this isn’t a 'real' smile as the blubber in the head of the whale prevents the muscles of the face from reaching the surface."}
43;how;{"type":"how", "question":"how to estimate the age of the whale?", "answer":"You can tell the age of a whale by looking at the wax plug in its ear. This plug in the ear has a pattern of layers when cut lengthwise that scientists can count to estimate the age of the whale."}
44;why;{"type":"why", "question":"why whales sing?", "answer":"Whales love to sing! They use this as a call to mates, a way to communicate and also just for fun! After a period of time they get bored of the same whale song and begin to sing a different tune."}
45;howmany;{"type":"howmany", "question":"how many domestic cats there are in the world?", "answer":"There are over 500 million domestic cats in the world."}
46;howmany;{"type":"howmany", "question":"how long cats sleep?", "answer":"Cats conserve energy by sleeping for an average of 13 to14 hours a day."}
47;howmany;{"type":"howmany", "question":"how much the heaviest domestic cat weighs?", "answer":"The heaviest domestic cat on record is 21.297 kilograms (46 lb 15.2 oz)."}
48;if;{"type":"if", "question":"if sharks have bones?", "answer":"Sharks do not have a single bone in their bodies. Instead they have a skeleton made up of cartilage, the same type of tough, flexible tissue that makes up human ears and noses."}
49;if;{"type":"if", "question":"do sharks hear anything?", "answer":"Sharks have outstanding hearing. They can hear a fish thrashing in the water from as far as 500 metres away!"}
50;howmany;{"type":"howmany", "question":"how big sharks are?", "answer":"Although most species of shark are less than one metre long, there are some species such as the whale shark, which can be 14 metres long."}
51;who;{"type":"who", "question":"who are bigger: lions or tigers?", "answer":"Lions are the second largest big cat species in the world (behind tigers)."}
52;howmany;{"type":"howmany", "question":"how fast lions are?", "answer":"Lions can reach speeds of up to 81 kph (50 mph) but only in short bursts because of a lack of stamina."}
53;how;{"type":"how", "question":"how giraffes fight?", "answer":"Male giraffes sometimes fight with their necks over female giraffes. This is called “necking”. The two giraffes stand side by side and one giraffe swings his head and neck, hitting his head against the other giraffe. Sometimes one giraffe is hit to the ground during a combat."}
54;how;{"type":"how", "question":"how leopards protect their food from other animals?", "answer":"Leopards protect their food from other animals by dragging it high up into the trees. A leopard will often leave their prey up in the tree for days and return only when they are hungry!"}
55;who;{"type":"who", "question":"who can produce the loudest sound of any animal?", "answer":"The blue whale can produce the loudest sound of any animal. At 188 decibels, the noise can be detected over 800 kilometres away."}
56;what;{"type":"what", "question":"what rhino horns are made of?", "answer":"The horn of a rhinoceros is made from compacted hair rather than bone or another substance."}
57;what;{"type":"what", "question":"what animal produces the largest eggs?", "answer":"Sharks lay the biggest eggs in the world."}
58;howmany;{"type":"howmany", "question":"how many stomachs a sheep has?", "answer":"Unlike humans, sheep have four stomachs, each one helps them digest the food they eat."}
59;what;{"type":"what", "question":"what magma means?", "answer":"Magma is the hot liquid rock under the surface of the Earth, it is known as lava after it comes out of a volcano."}
60;what;{"type":"what", "question":"what is the longest river in the world?", "answer":"Stretching out to an impressive length of 6696 kilometres (4160 miles) long, the Nile River is the longest river on earth."}
61;if;{"type":"if", "question":"if rocks can float in water?", "answer":"The volcanic rock known as pumice is the only rock that can float in water."}
62;what;{"type":"what", "question":"what is the highest mountains on earth?", "answer":"Everest is the highest mountain on earth, its peak reaches 8,848 metres (29029 feet) above sea level."}
63;howmany;{"type":"howmany", "question":"how old the earth is?", "answer":"Scientists have the dated the Earth as being between 4 and 5 billion years old!"}
64;whatis;{"type":"whatis", "question":"what is the world's largest desert?", "answer":"The world's largest desert (outside of the polar regions) is the Sahara, it covers about one third of Africa!"}
65;whatis;{"type":"whatis", "question":"what is the largest living structure in the world?", "answer":"The Great Barrier Reef in Australia is the largest living structure in the world."}
66;whatis;{"type":"whatis", "question":"what trigonometry means?", "answer":"Trigonometry is the study of the relationship between the angles of triangles and their sides."}
67;how;{"type":"how", "question":"how Google got its name?", "answer":"The name of the popular search engine ‘Google’ came from a misspelling of the word ‘googol’, which is a very, very large number (the number one followed by one hundred zeros to be exact)."}
68;whatis;{"type":"whatis", "question":"what the golden ratio is?", "answer":"If two quantities have a ratio of approximately 1.618, they are said to be in the golden ratio. This ratio has been used throughout history to design aesthetically pleasing art works such as the Parthenon. It also appears in paintings, music, the design of books, and even in nature."}
69;whatis;{"type":"whatis", "question":"what is the largest ocean on Earth", "answer":"The largest ocean on Earth is the Pacific Ocean."}
70;whatis;{"type":"whatis", "question":"what is the largest flower on Earth?", "answer":"The largest individual flower on Earth is from a plant called Rafflesia arnoldii. Its flowers reach up to 1 metre (3 feet) in diameter and weigh around 10kg."}
71;whatis;{"type":"whatis", "question":"what is the fastest wind speed ever recorded?", "answer":"The fastest wind speed ever recorded is 484 km/h (301 mph). This was a 3 second gust recorded by a Doppler on Wheels (DOW) radar unit in Oklahoma City on May 3, 1999."}
72;howmany;{"type":"howmany", "question":"how big the biggest hailstone ever was?", "answer":"The heaviest hailstone ever recorded weighed 1.0 kg (2.25 lb) and landed in Gopalganj District, Bangladesh on April 14, 1986."}
73;whatis;{"type":"whatis", "question":"what is the deepest known point in the world’s oceans?", "answer":"Found in the Pacific Ocean, the Mariana Trench is the deepest known point in the world’s oceans. It reaches a maximum-known depth of 10,994 metres (36,070 feet)."}
74;howmany;{"type":"howmany", "question":"how large is the Sun compared to Earth?", "answer":"The Sun is over 300000 times larger than earth."}
75;whatis;{"type":"whatis", "question":"what is the hottest planet in the Solar System?", "answer":"Venus is the hottest planet in our solar system with a surface temperature of over 450 degrees celcius."}
76;why;{"type":"why", "question":"why the moon has more craters than earth?", "answer":"The Moon appears to have more craters and scars than Earth because it has a lot less natural activity going on, the Earth is constantly reforming its surface through earthquakes, erosion, rain, wind and plants growing on the surface, while the moon has very little weather to alter its appearance."}
77;why;{"type":"why", "question":"why mars is called red planet?", "answer":"Mars is nicknamed the red planet because it is covered with rust-like dust. Even the atmosphere is a pinkish red, colored by tiny particles of dust thrown up from the surface."}
78;whatis;{"type":"whatis", "question":"what is the biggest planet in the Solar System?", "answer":"Jupiter is the largest planet in our Solar system. It is so big that more than 1300 Earths could fit inside it."}
79;whatis;{"type":"whatis", "question":"what Saturn's rings are made Of?", "answer":"The rings are made up of millions of ice crystals, some as big as houses and others as small as specks of dust."}
80;whatis;{"type":"whatis", "question":"what was the first planet discovered By telescope?", "answer":"Uranus was the first planet discovered by telescope."}
81;whatis;{"type":"whatis", "question":"when was the first robot toy made?", "answer":"The first true robot toy was produced in Japan in 1932. The ‘Lilliput’ was a wind-up toy which walked. It was made from tinplate and stood just 15cm tall."}
82;what;{"type":"what", "question":"which country is the largest producer of bananas?", "answer":"India has the first rank in the list of banana producing countries in the world, delivers around 29.8 million tons."}
83;howmany;{"type":"howmany", "question":"how many times your heart beats a day?", "answer":"Your heart beats around 100000 times a day, 36500000 times a year and over a billion times if you live beyond 30."}
84;whatis;{"type":"whatis", "question":"which is the smallest bone of human body?", "answer":"The smallest bone found in the human body is located in the middle ear. The staples (or stirrup) bone is only 2.8 millimetres long."}
85;howmany;{"type":"howmany", "question":"how often infants blink?", "answer":"Infants blink only once or twice a minute while adults average around 10."}
86;howmany;{"type":"howmany", "question":"how long it takes to digest food?", "answer":"It might only take you a few minutes to finish a meal but it takes your body around 12 hours before it has completely digested the food."}
87;who;{"type":"who", "question":"who is smaller in size on an average: bacteria or virus?", "answer":"Viruses are usually around 100 times smaller than bacteria."}
88;what;{"type":"what", "question":"which is the largest country in the world in areas?", "answer":"In terms of land area, Russia is the largest country in the world."}
89;why;{"type":"why", "question":"why the flash of lightning is seen earlier than the sound of thunder?", "answer":"Light travels at about 300 million metres per second, so you effectively see the flash instantly. Sound travels at more like 340 metres per second, so it can take many seconds for the sound to reach you. You can divide the number of seconds between the two by 3 to get the approximate distance of the lightning from you in kilometres."}
90;howmany;{"type":"howmany", "question":"how fast bamboo grows?", "answer":"Bamboo can be a fast growing plant, some types can grow almost a metre (3.28 feet) in just one day!"}
91;howmany;{"type":"howmany", "question":"how many plant species there are in the world?", "answer":"There are over 200,000 identified plant species and the list is growing all the time."}
92;howmany;{"type":"howmany", "question":"how fast light travels?", "answer":"Light travels very, very fast. The speed of light in a vacuum (an area empty of matter) is around 186,000 miles per second (300,000 kilometres per second)."}
93;howmany;{"type":"howmany", "question":"how long it takes for moonlight to reach the earth?", "answer":"Light from the Moon's surface has to travel more than one second (about 1.3 seconds) to reach us."}
94;howmany;{"type":"howmany", "question":"how fast sound travels?", "answer":"The speed of sound is around 767 miles per hour (1,230 kilometres per hour)."}
95;what;{"type":"what", "question":"what causes the sound of thunder?", "answer":"The sound of thunder is produced by rapidly heated air surrounding lightning which expands faster than the speed of sound."}
96;whatis;{"type":"whatis", "question":"what ecology means?", "answer":"Ecology is the study of ecosystems and how organisms interact with their environment."}
97;howmany;{"type":"howmany", "question":"how hot a candle flame is?", "answer":"A candle flame typically burns at around 1000 degrees Celsius (1800 Fahrenheit)."}
98;how;{"type":"how", "question":"how fires can be stopped?", "answer":"Fires can be stopped in 3 different ways: Removing the fuel source by exhausting it or taking it away. Removing the oxygen by smothering the fire. Removing the heat by absorbing it with water."}
99;how;{"type":"how", "question":"how food energy is measured?", "answer":"Food contains chemical energy which is used by living organisms such as animals to grow and reproduce. Food energy is usually measured in calories or joules."}
100;whatis;{"type":"whatis", "question":"what supersonic flight is?", "answer":"Supersonic flight (breaking the sound barrier) is achieved when an object travels at a speed faster than sound (1235kph, 768mph)."}
101;howmany;{"type":"howmany", "question":"how many colors does rainbow have?", "answer":"In the rainbow there are too many colors to count. The traditional description of the rainbow is that it is made up of seven colors - red, orange, yellow, green, blue, indigo, and violet. Actually, the rainbow is a whole continuum of colors from red to violet and even beyond the colors that the eye can see."}
