0;Новогодняя колыбельная;{"title":"Новогодняя колыбельная","link":"http://roobo-prod-spb.lab.just-ai.com/static/audio/smeshariki/ny-kolybelnaya.mp3"}
1;It's so easy;{"title":"It's so easy","link":"http://roobo-prod-spb.lab.just-ai.com/static/audio/smeshariki/its_so_easy.mp3"}
2;Single thread;{"title":"Single thread","link":"http://roobo-prod-spb.lab.just-ai.com/static/audio/smeshariki/Single-Thread.mp3"}
3;Бабочка;{"title":"Бабочка","link":"http://roobo-prod-spb.lab.just-ai.com/static/audio/smeshariki/babochki.mp3"}
4;Бедненький больной;{"title":"Бедненький больной","link":"http://roobo-prod-spb.lab.just-ai.com/static/audio/smeshariki/bolnoy.mp3"}
5;Вестибулярный аппарат;{"title":"Вестибулярный аппарат","link":"http://roobo-prod-spb.lab.just-ai.com/static/audio/smeshariki/vestibuljarnij_apparat.mp3"}
6;Ветер ветер;{"title":"Ветер ветер","link":"http://roobo-prod-spb.lab.just-ai.com/static/audio/smeshariki/veter-veter.mp3"}
7;Все хорошо!;{"title":"Все хорошо!","link":"http://roobo-prod-spb.lab.just-ai.com/static/audio/smeshariki/vse-horosho.mp3"}
8;Герой - Билли Новик;{"title":"Герой - Билли Новик","link":"http://roobo-prod-spb.lab.just-ai.com/static/audio/smeshariki/hero.mp3"}
9;Город Омск;{"title":"Город Омск","link":"http://roobo-prod-spb.lab.just-ai.com/static/audio/smeshariki/gorod_omsk.mp3"}
10;Круглая песня;{"title":"Круглая песня","link":"http://roobo-prod-spb.lab.just-ai.com/static/audio/smeshariki/Kruglaja.wav"}
11;Куда уходит старый год;{"title":"Куда уходит старый год","link":"http://roobo-prod-spb.lab.just-ai.com/static/audio/smeshariki/staryj-god.wav"}
12;Куплеты Дракона;{"title":"Куплеты Дракона","link":"http://roobo-prod-spb.lab.just-ai.com/static/audio/smeshariki/kuplety_drakona.mp3"}
13;Марафонец;{"title":"Марафонец","link":"http://roobo-prod-spb.lab.just-ai.com/static/audio/smeshariki/marafonec.mp3"}
14;Мнём мы мнём;{"title":"Мнём мы мнём","link":"http://roobo-prod-spb.lab.just-ai.com/static/audio/smeshariki/mnyom_mi_mnyom.mp3"}
15;Мы приплыли;{"title":"Мы приплыли","link":"http://roobo-prod-spb.lab.just-ai.com/static/audio/smeshariki/my-priplyli.mp3"}
16;Ниточка;{"title":"Ниточка","link":"http://roobo-prod-spb.lab.just-ai.com/static/audio/smeshariki/nitochka.mp3"}
17;О Нюша!;{"title":"О, Нюша!","link":"http://roobo-prod-spb.lab.just-ai.com/static/audio/smeshariki/o-nyusha.mp3"}
18;Обормот;{"title":"Обормот","link":"http://roobo-prod-spb.lab.just-ai.com/static/audio/smeshariki/obormot.mp3"}
19;От винта;{"title":"От винта","link":"http://roobo-prod-spb.lab.just-ai.com/static/audio/smeshariki/ot_vinta.mp3"}
20;Песенка о моде;{"title":"Песенка о моде","link":"http://roobo-prod-spb.lab.just-ai.com/static/audio/smeshariki/pesenka_o_mode.mp3"}
21;Плюс 7 минус 7, плюс семь минус семь, плюс 7 минут семь;{"title":"Плюс 7 минус 7","link":"http://roobo-prod-spb.lab.just-ai.com/static/audio/smeshariki/plus7minus7.mp3"}
22;Право на одиночество;{"title":"Право на одиночество","link":"http://roobo-prod-spb.lab.just-ai.com/static/audio/smeshariki/pravo_na_odinochestvo.mp3"}
23;Прохожий;{"title":"Прохожий","link":"http://roobo-prod-spb.lab.just-ai.com/static/audio/smeshariki/prohozhij.mp3"}
24;Самый белый;{"title":"Самый белый","link":"http://roobo-prod-spb.lab.just-ai.com/static/audio/smeshariki/samyj-belyj.wav"}
25;Славный город Кострома;{"title":"Славный город Кострома","link":"http://roobo-prod-spb.lab.just-ai.com/static/audio/smeshariki/slavnij_gorod_-_kostroma.mp3"}
26;Так-тик-так;{"title":"Так-тик-так","link":"http://roobo-prod-spb.lab.just-ai.com/static/audio/smeshariki/tak-tik-tak.mp3"}
27;Тема Пина;{"title":"Тема Пина","link":"http://roobo-prod-spb.lab.just-ai.com/static/audio/smeshariki/theme-pin.mp3"}
28;Фанерное солнце;{"title":"Фанерное солнце","link":"http://roobo-prod-spb.lab.just-ai.com/static/audio/smeshariki/fanernoe_solnce.mp3"}
29;Французская песенка;{"title":"Французская песенка","link":"http://roobo-prod-spb.lab.just-ai.com/static/audio/smeshariki/france.mp3"}
30;Хоккей;{"title":"Хоккей","link":"http://roobo-prod-spb.lab.just-ai.com/static/audio/smeshariki/hokkey.mp3"}
31;Хорошее настроение;{"title":"Хорошее настроение","link":"http://roobo-prod-spb.lab.just-ai.com/static/audio/smeshariki/good-mood.mp3"}
32;Шоу Люсьена;{"title":"Шоу Люсьена","link":"http://roobo-prod-spb.lab.just-ai.com/static/audio/smeshariki/show_lusien.mp3"}
33;Шу-би-ду (Как хочется спать);{"title":"Шу-би-ду (Как хочется спать)","link":"http://roobo-prod-spb.lab.just-ai.com/static/audio/smeshariki/shu-bi-du.mp3"}
34;Я все-таки есть!;{"title":"Я все-таки есть!","link":"http://roobo-prod-spb.lab.just-ai.com/static/audio/smeshariki/ya_est.mp3"}
35;Я горю, горю!;{"title":"Я горю, горю!","link":"http://roobo-prod-spb.lab.just-ai.com/static/audio/smeshariki/ya_goryu.mp3"}
