1;1;{"syllable":"ма", "words":["машина","молоко","музыка","место"], "answerText":"машина", "answerPatterns":["* машин* *"]}
2;2;{"syllable":"не", "words":["небо","ночь","тучи","насос"], "answerText":"небо", "answerPatterns":["* неб* *"]}
3;3;{"syllable":"лу", "words":["медуза","лужа","лето","друг"], "answerText":"лужа", "answerPatterns":["* луж* *"]}
4;4;{"syllable":"ку", "words":["сова","кукушка","воробей","ласточка"], "answerText":"кукушка", "answerPatterns":["* кукушк* *"]}
5;5;{"syllable":"ка", "words":["сом","окунь","щука","рак"], "answerText":"щука", "answerPatterns":["* щук* *"]}
6;6;{"syllable":"би", "words":["зелёнка","бинт","ножницы","йод"], "answerText":"бинт", "answerPatterns":["* бинт* *"]}
7;7;{"syllable":"ги", "words":["гусь","гиря","голова","шум"], "answerText":"гиря", "answerPatterns":["* гир* *"]}
8;8;{"syllable":"по", "words":["самолёт","поезд","автобус","самокат"], "answerText":"поезд", "answerPatterns":["* поезд* *"]}
9;9;{"syllable":"фа", "words":["фасоль","фонарь","светофор","форма"], "answerText":"фасоль", "answerPatterns":["* фасол* *"]}
10;10;{"syllable":"жи", "words":["глаза","живот","плечо","язык"], "answerText":"живот", "answerPatterns":["* живот* *"]}
11;11;{"syllable":"та", "words":["танк","тыква","тень"], "answerText":"танк", "answerPatterns":["* танк* *"]}
12;12;{"syllable":"пе", "words":["пух","перец","палка","топор"], "answerText":"перец", "answerPatterns":["* перец* *", "* перц* *", "* перч* *"]}
13;13;{"syllable":"ро", "words":["роза","мимоза","рука","дом"], "answerText":"роза", "answerPatterns":["* роз* *"]}
14;14;{"syllable":"щу", "words":["щётка","щука","ночь","шум"], "answerText":"щука", "answerPatterns":["* щук* *"]}
15;15;{"syllable":"лю", "words":["Дима","Оля","Саша","Люся"], "answerText":"Люся", "answerPatterns":["* люс* *"]}
16;16;{"syllable":"жу", "words":["журнал","газета","киоск"], "answerText":"журнал", "answerPatterns":["* журнал* *"]}
17;17;{"syllable":"ду", "words":["дудочка","гитара","флейта"], "answerText":"дудочка", "answerPatterns":["* дуд* *"]}
18;18;{"syllable":"ус", "words":["успех","побуда","финал"], "answerText":"успех", "answerPatterns":["* успех* *"]}
19;19;{"syllable":"ча", "words":["часы","карандаш","пенал"], "answerText":"часы", "answerPatterns":["* час* *"]}
20;20;{"syllable":"иг", "words":["рука","игра","мяч","нога"], "answerText":"игра", "answerPatterns":["* игр* *"]}
21;21;{"syllable":"ба", "words":["дедушка","бабушка","брат","мама"], "answerText":"бабушка", "answerPatterns":["* бабушк* *"]}
22;22;{"syllable":"жи", "words":["рука","нога","нос","живот"], "answerText":"живот", "answerPatterns":["* живот* *"]}
23;23;{"syllable":"та", "words":["Дима","Оля","Вика","Таня"], "answerText":"Таня", "answerPatterns":["* тан* *"]}
24;24;{"syllable":"щу", "words":["щука","карась","окунь","судак"], "answerText":"щука", "answerPatterns":["* щук* *"]}
25;25;{"syllable":"мы", "words":["вода","мыло","щётка","расчёска"], "answerText":"мыло", "answerPatterns":["* мыл* *"]}
26;26;{"syllable":"го", "words":["улица","город","дом","машина"], "answerText":"город", "answerPatterns":["* город* *"]}
27;27;{"syllable":"ша", "words":["кукла","мишка","шарик","кубик"], "answerText":"шарик", "answerPatterns":["* шар* *"]}
28;28;{"syllable":"ди", "words":["стол","стул","кресло","диван"], "answerText":"диван", "answerPatterns":["* диван* *"]}
29;29;{"syllable":"па", "words":["палец","ухо","нос","глаз"], "answerText":"палец", "answerPatterns":["* паль* *", "* палец *"]}
30;30;{"syllable":"му", "words":["жук","муха","шмель","оса"], "answerText":"муха", "answerPatterns":["* мух* *", "* мушк* *"]}
31;31;{"syllable":"яб", "words":["груша","яблоко","ананас","дыня"], "answerText":"яблоко", "answerPatterns":["* яблок* *", "* яблочк* *"]}
32;32;{"syllable":"цап", "words":["цапля","аист","фламинго","чайка"], "answerText":"цапля", "answerPatterns":["* цапл* *"]}
33;33;{"syllable":"во", "words":["волосы","пальцы","зубы","язык"], "answerText":"волосы", "answerPatterns":["* волос* *"]}
34;34;{"syllable":"ут", "words":["утка","гусь","индюк","курица"], "answerText":"утка", "answerPatterns":["* утк* *", "* уточк* *"]}
35;35;{"syllable":"зи", "words":["лето","зима","осень","весна"], "answerText":"зима", "answerPatterns":["* зим* *"]}
36;36;{"syllable":"ма", "words":["машина","пароход","вертолёт"], "answerText":"машина", "answerPatterns":["* машин* *"]}
37;37;{"syllable":"не", "words":["небо","туча","зонтик"], "answerText":"небо", "answerPatterns":["* неб* *"]}
38;38;{"syllable":"лу", "words":["медуза","лужа","рыбка"], "answerText":"лужа", "answerPatterns":["* луж* *"]}
39;39;{"syllable":"ку", "words":["сова","кукушка","синица"], "answerText":"кукушка", "answerPatterns":["* кукушк* *"]}
40;40;{"syllable":"ра", "words":["щука","карась","окунь"], "answerText":"карась", "answerPatterns":["* карас* *"]}
41;41;{"syllable":"би", "words":["зелёнка","бинт","йод"], "answerText":"бинт", "answerPatterns":["* бинт* *"]}
42;42;{"syllable":"ги", "words":["штанга","гиря","турник"], "answerText":"гиря", "answerPatterns":["* гир* *"]}
43;43;{"syllable":"по", "words":["самолёт","поезд","машина"], "answerText":"поезд", "answerPatterns":["* поезд* *"]}
44;44;{"syllable":"фа", "words":["фасоль","горох","пшено"], "answerText":"фасоль", "answerPatterns":["* фасол* *"]}
45;45;{"syllable":"жи", "words":["глаза","спина","живот"], "answerText":"живот", "answerPatterns":["* живот* *"]}
46;46;{"syllable":"та", "words":["Тамара","Саша","Юра"], "answerText":"Тамара", "answerPatterns":["* тамар* *"]}
47;47;{"syllable":"пе", "words":["перец","лук","капуста"], "answerText":"перец", "answerPatterns":["* перец* *", "* перц* *", "* перч* *"]}
48;48;{"syllable":"ро", "words":["роза","мимоза","тюльпан"], "answerText":"роза", "answerPatterns":["* роз* *"]}
49;49;{"syllable":"щу", "words":["щука","карась","палтус"], "answerText":"щука", "answerPatterns":["* щук* *"]}
50;50;{"syllable":"лю", "words":["Дима","Люся","Оля"], "answerText":"Люся", "answerPatterns":["* люс* *"]}
51;51;{"syllable":"жу", "words":["журнал","газета","книга"], "answerText":"журнал", "answerPatterns":["* журнал* *"]}
52;52;{"syllable":"ду", "words":["дудка","гитара","скрипка"], "answerText":"дудка", "answerPatterns":["* дуд* *"]}
53;53;{"syllable":"ус", "words":["успех","победа","финиш"], "answerText":"успех", "answerPatterns":["* успех* *"]}
54;54;{"syllable":"ча", "words":["часы","карандаш","бумага"], "answerText":"часы", "answerPatterns":["* час* *"]}
55;55;{"syllable":"иг", "words":["игра","мяч","рука"], "answerText":"игра", "answerPatterns":["* игр* *"]}
56;56;{"syllable":"ба", "words":["дедушка","бабушка","внучка"], "answerText":"бабушка", "answerPatterns":["* бабушк* *"]}
57;57;{"syllable":"та", "words":["Вика","Таня","Оля"], "answerText":"Таня", "answerPatterns":["* тан* *"]}
58;58;{"syllable":"до", "words":["дорога","лес","поле"], "answerText":"дорога", "answerPatterns":["* дорог* *", "* дорож* *"]}
59;59;{"syllable":"мы", "words":["вода","мыло","щётка"], "answerText":"мыло", "answerPatterns":["* мыл* *"]}
60;60;{"syllable":"го", "words":["гора","море","лес"], "answerText":"гора", "answerPatterns":["* гор* *"]}
61;61;{"syllable":"ша", "words":["кукла","шарик","кубик"], "answerText":"шарик", "answerPatterns":["* шар* *"]}
62;62;{"syllable":"ди", "words":["стул","диван","стол"], "answerText":"диван", "answerPatterns":["* диван* *"]}
63;63;{"syllable":"па", "words":["палец","ухо","нос"], "answerText":"палец", "answerPatterns":["* паль* *", "* палец *"]}
64;64;{"syllable":"му", "words":["жук","муха","оса"], "answerText":"муха", "answerPatterns":["* мух* *", "* мушк* *"]}
65;65;{"syllable":"яб", "words":["груша","яблоко","дыня"], "answerText":"яблоко", "answerPatterns":["* яблок* *", "* яблочк* *"]}
66;66;{"syllable":"цап", "words":["цапля","аист","чайка"], "answerText":"цапля", "answerPatterns":["* цапл* *"]}
67;67;{"syllable":"во", "words":["волосы","зубы","пальцы"], "answerText":"волосы", "answerPatterns":["* волос* *"]}
68;68;{"syllable":"ут", "words":["утка","гусь","курица"], "answerText":"утка", "answerPatterns":["* утк* *", "* уточк* *"]}
69;69;{"syllable":"зи", "words":["лето","зима","осень"], "answerText":"зима", "answerPatterns":["* зим* *"]}
70;70;{"syllable":"ле", "words":["Оля","Лена","Дима"], "answerText":"Лена", "answerPatterns":["* лен* *"]}
71;71;{"syllable":"ре", "words":["река","пруд","родник"], "answerText":"река", "answerPatterns":["* рек* *", "* речк* *"]}